117.0	115.0	-60.0	24.0	
117.0	115.0	-60.0	44.0	
115.0	115.0	-58.3592032939229	46.0	
112.0	115.0	-55.3997121796944	45.0	
106.0	115.0	-55.2422833396117	47.0	
99.0	115.0	-53.6455880206105	46.0	
92.0	115.0	-30.236845595091	46.0	
88.0	115.0	-60.0	46.0	
81.0	115.0	-60.0	43.0	
74.0	115.0	30.2251396901602	49.0	
67.0	115.0	60.0	46.0	
62.0	115.0	-60.0	43.0	
61.0	115.0	-60.0	43.0	
64.0	115.0	-60.0	43.0	
64.0	115.0	-60.0	43.0	
58.0	115.0	-60.0	43.0	
52.0	115.0	-60.0	44.0	
41.0	115.0	60.0	43.0	
30.0	115.0	60.0	49.0	
25.0	115.0	-60.0	43.0	
26.0	115.0	-60.0	43.0	
28.0	115.0	-60.0	43.0	
31.0	115.0	-60.0	43.0	
25.0	115.0	-60.0	43.0	
18.0	115.0	-60.0	43.0	
8.0	115.0	60.0	43.0	
0.0	115.0	60.0	49.0	
-8.0	115.0	-60.0	43.0	
-7.0	115.0	-60.0	43.0	
-3.0	115.0	-60.0	43.0	
-2.0	115.0	-60.0	43.0	
-8.0	115.0	-60.0	43.0	
-15.0	115.0	60.0	43.0	
-25.0	115.0	60.0	43.0	
-32.0	115.0	60.0	43.0	
-33.0	115.0	-60.0	49.0	
-26.0	115.0	-60.0	44.0	
-22.0	115.0	-60.0	43.0	
-19.0	115.0	-60.0	44.0	
-25.0	115.0	60.0	44.0	
-32.0	115.0	60.0	43.0	
-40.0	115.0	60.0	43.0	
-42.0	115.0	-60.0	43.0	
-36.0	115.0	-60.0	43.0	
-29.0	115.0	-60.0	50.0	
-30.0	115.0	-60.0	43.0	
-34.0	115.0	60.0	43.0	
-43.0	115.0	60.0	43.0	
-49.0	115.0	60.0	43.0	
-50.0	115.0	-60.0	43.0	
-44.0	115.0	-60.0	44.0	
-40.0	115.0	-60.0	43.0	
-39.0	115.0	-60.0	50.0	
-45.0	115.0	60.0	44.0	
-50.0	115.0	60.0	43.0	
-58.0	115.0	-60.0	43.0	
-56.0	115.0	60.0	44.0	
-54.0	115.0	-60.0	43.0	
-51.0	115.0	60.0	43.0	
-49.0	115.0	-60.0	43.0	
-42.0	115.0	-60.0	43.0	
-33.0	115.0	-60.0	50.0	
-21.0	115.0	-60.0	43.0	
-14.0	115.0	-60.0	44.0	
-9.0	115.0	-60.0	43.0	
-13.0	115.0	-60.0	43.0	
-18.0	115.0	-60.0	44.0	
-17.0	115.0	-60.0	44.0	
-13.0	115.0	-60.0	44.0	
7.0	115.0	-60.0	50.0	
51.0	115.0	-60.0	43.0	
81.0	115.0	60.0	43.0	
107.0	115.0	-60.0	43.0	
130.0	115.0	60.0	44.0	
148.0	115.0	60.0	43.0	
166.0	115.0	60.0	43.0	
169.0	115.0	60.0	43.0	
166.0	115.0	60.0	44.0	
166.0	115.0	60.0	50.0	
162.0	115.0	60.0	44.0	
159.0	115.0	60.0	44.0	
163.0	115.0	60.0	44.0	
165.0	115.0	60.0	44.0	
165.0	115.0	60.0	43.0	
165.0	115.0	60.0	44.0	
162.0	115.0	60.0	44.0	
162.0	115.0	60.0	44.0	
162.0	115.0	60.0	50.0	
162.0	115.0	60.0	44.0	
162.0	115.0	60.0	44.0	
161.0	115.0	60.0	44.0	
159.0	115.0	60.0	44.0	
158.0	115.0	60.0	44.0	
156.0	115.0	60.0	44.0	
155.0	115.0	60.0	44.0	
152.0	115.0	60.0	44.0	
152.0	115.0	60.0	50.0	
151.0	115.0	60.0	44.0	
153.0	115.0	60.0	44.0	
154.0	115.0	60.0	44.0	
153.0	115.0	60.0	44.0	
153.0	115.0	60.0	44.0	
151.0	115.0	60.0	44.0	
147.0	115.0	60.0	44.0	
143.0	115.0	60.0	50.0	
139.0	115.0	60.0	44.0	
133.0	115.0	60.0	44.0	
125.0	115.0	60.0	44.0	
120.0	115.0	60.0	44.0	
109.0	115.0	-60.0	43.0	
110.0	115.0	-60.0	44.0	
104.0	115.0	-60.0	44.0	
98.0	115.0	-60.0	44.0	
98.0	115.0	-60.0	49.0	
95.0	115.0	-60.0	44.0	
96.0	115.0	-60.0	43.0	
95.0	115.0	-60.0	43.0	
95.0	115.0	-60.0	43.0	
97.0	115.0	-60.0	43.0	
98.0	115.0	-60.0	43.0	
101.0	115.0	-60.0	43.0	
103.0	115.0	-60.0	44.0	
103.0	115.0	-60.0	50.0	
101.0	115.0	-60.0	44.0	
99.0	115.0	-60.0	44.0	
99.0	115.0	-60.0	43.0	
104.0	115.0	-60.0	43.0	
108.0	115.0	-60.0	44.0	
110.0	115.0	-60.0	44.0	
108.0	115.0	-60.0	44.0	
110.0	115.0	-60.0	50.0	
112.0	115.0	-60.0	44.0	
114.0	115.0	-45.440965111311	44.0	
117.0	115.0	51.9503990347753	46.0	
117.0	115.0	60.0	46.0	
120.0	115.0	60.0	44.0	
118.0	115.0	60.0	44.0	
117.0	115.0	60.0	44.0	
115.0	115.0	18.4043602950501	44.0	
115.0	115.0	16.366774530426	52.0	
116.0	115.0	55.8414720208757	46.0	
117.0	115.0	60.0	46.0	
117.0	115.0	60.0	44.0	
120.0	115.0	60.0	44.0	
123.0	115.0	60.0	44.0	
116.0	115.0	-52.9423606464352	44.0	
122.0	115.0	60.0	46.0	
125.0	115.0	60.0	50.0	
125.0	115.0	60.0	44.0	
126.0	115.0	60.0	44.0	
123.0	115.0	60.0	44.0	
127.0	115.0	60.0	44.0	
130.0	115.0	60.0	44.0	
138.0	115.0	60.0	44.0	
145.0	115.0	60.0	44.0	
150.0	115.0	60.0	44.0	
159.0	115.0	60.0	50.0	
167.0	115.0	60.0	44.0	
172.0	115.0	60.0	44.0	
180.0	115.0	60.0	44.0	
187.0	115.0	60.0	44.0	
192.0	115.0	60.0	44.0	
201.0	115.0	60.0	44.0	
208.0	115.0	60.0	44.0	
214.0	115.0	60.0	44.0	
223.0	115.0	60.0	50.0	
233.0	115.0	60.0	44.0	
239.0	115.0	60.0	44.0	
248.0	115.0	60.0	44.0	
258.0	115.0	60.0	44.0	
264.0	115.0	60.0	43.0	
272.0	115.0	-60.0	43.0	
283.0	115.0	60.0	44.0	
288.0	115.0	60.0	49.0	
291.0	115.0	60.0	44.0	
295.0	115.0	60.0	43.0	
301.0	115.0	60.0	43.0	
310.0	115.0	60.0	44.0	
320.0	115.0	60.0	43.0	
328.0	115.0	60.0	43.0	
338.0	115.0	60.0	44.0	
346.0	115.0	60.0	43.0	
357.0	115.0	60.0	49.0	
368.0	115.0	60.0	44.0	
375.0	115.0	60.0	43.0	
387.0	115.0	60.0	43.0	
399.0	115.0	60.0	43.0	
407.0	115.0	60.0	43.0	
418.0	115.0	60.0	43.0	
425.0	115.0	60.0	43.0	
436.0	115.0	60.0	43.0	
445.0	115.0	60.0	50.0	
453.0	115.0	60.0	43.0	
460.0	115.0	60.0	43.0	
468.0	115.0	60.0	43.0	
473.0	115.0	60.0	43.0	
482.0	115.0	60.0	43.0	
487.0	115.0	60.0	44.0	
496.0	115.0	60.0	43.0	
503.0	115.0	60.0	43.0	
511.0	115.0	60.0	50.0	
516.0	115.0	60.0	43.0	
524.0	115.0	60.0	43.0	
528.0	115.0	60.0	44.0	
535.0	115.0	60.0	43.0	
541.0	115.0	60.0	43.0	
547.0	115.0	60.0	43.0	
554.0	115.0	60.0	43.0	
560.0	115.0	60.0	49.0	
567.0	115.0	60.0	44.0	
576.0	115.0	60.0	43.0	
581.0	115.0	60.0	43.0	
590.0	115.0	60.0	43.0	
599.0	115.0	60.0	43.0	
605.0	115.0	60.0	44.0	
614.0	115.0	60.0	43.0	
620.0	115.0	60.0	43.0	
629.0	115.0	-60.0	50.0	
638.0	115.0	-60.0	44.0	
644.0	115.0	-60.0	44.0	
646.0	115.0	-60.0	44.0	
640.0	115.0	-60.0	44.0	
631.0	115.0	-60.0	44.0	
626.0	115.0	-60.0	44.0	
616.0	115.0	-60.0	44.0	
607.0	115.0	-60.0	44.0	
597.0	115.0	-60.0	50.0	
591.0	115.0	-60.0	44.0	
582.0	115.0	-60.0	44.0	
576.0	115.0	-60.0	44.0	
567.0	115.0	-60.0	44.0	
558.0	115.0	-60.0	44.0	
553.0	115.0	-60.0	44.0	
545.0	115.0	-60.0	44.0	
538.0	115.0	-60.0	50.0	
530.0	115.0	-60.0	44.0	
525.0	115.0	-60.0	44.0	
518.0	115.0	-60.0	44.0	
510.0	115.0	-60.0	44.0	
506.0	115.0	-60.0	44.0	
498.0	115.0	-60.0	44.0	
492.0	115.0	-60.0	44.0	
485.0	115.0	-60.0	50.0	
477.0	115.0	-60.0	44.0	
469.0	115.0	-60.0	44.0	
464.0	115.0	-60.0	44.0	
456.0	115.0	-60.0	44.0	
449.0	115.0	-60.0	44.0	
443.0	115.0	-60.0	44.0	
434.0	115.0	-60.0	44.0	
424.0	115.0	-60.0	44.0	
414.0	115.0	-60.0	50.0	
406.0	115.0	-60.0	44.0	
395.0	115.0	-60.0	44.0	
385.0	115.0	-60.0	44.0	
376.0	115.0	-60.0	44.0	
365.0	115.0	-60.0	44.0	
358.0	115.0	-60.0	44.0	
346.0	115.0	-60.0	44.0	
335.0	115.0	-60.0	50.0	
323.0	115.0	-60.0	44.0	
315.0	115.0	-60.0	44.0	
305.0	115.0	-60.0	44.0	
295.0	115.0	-60.0	44.0	
288.0	115.0	-60.0	44.0	
278.0	115.0	-60.0	44.0	
268.0	115.0	-60.0	44.0	
261.0	115.0	-60.0	44.0	
252.0	115.0	-60.0	50.0	
243.0	115.0	-60.0	44.0	
237.0	115.0	-60.0	44.0	
228.0	115.0	-60.0	44.0	
218.0	115.0	-60.0	44.0	
212.0	115.0	-60.0	44.0	
204.0	115.0	-60.0	44.0	
195.0	115.0	-60.0	44.0	
190.0	115.0	-60.0	50.0	
182.0	115.0	-60.0	44.0	
176.0	115.0	-60.0	44.0	
168.0	115.0	-60.0	44.0	
163.0	115.0	-60.0	44.0	
155.0	115.0	-60.0	44.0	
151.0	115.0	-60.0	44.0	
143.0	115.0	-60.0	44.0	
136.0	115.0	-60.0	50.0	
128.0	115.0	-43.2399998801399	44.0	
120.0	115.0	-6.64545899633467	46.0	
116.0	115.0	3.5601807052802	46.0	
109.0	115.0	39.5911985007081	46.0	
107.0	115.0	39.0863205423283	46.0	
108.0	115.0	30.7830540327561	46.0	
110.0	115.0	20.9730938997276	46.0	
115.0	115.0	-5.38376234916922	46.0	
120.0	115.0	-26.3064659017596	52.0	
123.0	115.0	-35.8871854412562	46.0	
123.0	115.0	-31.1931705513085	46.0	
122.0	115.0	-25.7827720291806	46.0	
119.0	115.0	-9.67218832033586	46.0	
114.0	115.0	14.750955371577	46.0	
110.0	115.0	29.8260356798023	46.0	
109.0	115.0	29.2160465280213	46.0	
111.0	115.0	16.1243668379377	52.0	
113.0	115.0	8.12320997986052	46.0	
117.0	115.0	-12.3942679216449	46.0	
120.0	115.0	-23.0937086332744	46.0	
121.0	115.0	-24.1950917891941	46.0	
120.0	115.0	-16.8905465286439	46.0	
119.0	115.0	-12.9993207711604	46.0	
115.0	115.0	9.19413726001318	46.0	
113.0	115.0	13.6939308072468	52.0	
112.0	115.0	16.7149542117184	46.0	
114.0	115.0	3.24215758327068	46.0	
114.0	115.0	7.21625300364644	46.0	
117.0	115.0	-11.0827692916304	46.0	
117.0	115.0	-5.38063637642196	46.0	
118.0	115.0	-11.9826704878805	46.0	
118.0	115.0	-10.0366029279532	46.0	
117.0	115.0	-4.32047527126983	52.0	
116.0	115.0	-0.234226132485333	46.0	
115.0	115.0	4.0397508660746	46.0	
115.0	115.0	2.35141536028348	46.0	
115.0	115.0	2.54326201436783	46.0	
115.0	115.0	2.52146274721892	46.0	
116.0	115.0	-3.41784126249229	46.0	
116.0	115.0	-1.54424384697265	46.0	
117.0	115.0	-7.70173535306191	52.0	
117.0	115.0	-5.80637264303781	46.0	
117.0	115.0	-6.02714497548641	46.0	
116.0	115.0	-0.0654842138031313	46.0	
115.0	115.0	3.99577993878188	46.0	
115.0	115.0	2.33393691445582	46.0	
115.0	115.0	2.52246708658183	46.0	
115.0	115.0	2.50107938566615	46.0	
116.0	115.0	-3.43608904428018	52.0	
116.0	115.0	-1.56535300939743	46.0	
117.0	115.0	-7.71998013648965	46.0	
117.0	115.0	-5.82758520806328	46.0	
117.0	115.0	-6.04764689041039	46.0	
116.0	115.0	-0.0882610291167509	46.0	
115.0	115.0	3.97372575448054	46.0	
115.0	115.0	2.31408787932739	46.0	
115.0	115.0	2.50206305369582	52.0	
116.0	115.0	-3.45664945157836	46.0	
116.0	115.0	-1.58610851867456	46.0	
116.0	115.0	-1.80037110273469	46.0	
116.0	115.0	-1.77860555468556	46.0	
117.0	115.0	-7.72132464574887	46.0	
116.0	115.0	0.0791451244791688	46.0	
116.0	115.0	-2.001932851693	46.0	
115.0	115.0	4.16426562566247	52.0	
116.0	115.0	-3.65885699648882	46.0	
115.0	115.0	4.34183218687272	46.0	
116.0	115.0	-3.67691126016064	46.0	
116.0	115.0	-1.59025664244942	46.0	
116.0	115.0	-1.82668538513775	46.0	
116.0	115.0	-1.80265659058853	46.0	
116.0	115.0	-1.80782563333852	46.0	
116.0	115.0	-1.80972009979155	52.0	
115.0	115.0	4.11467755615681	46.0	
115.0	115.0	2.26113250443183	46.0	
115.0	115.0	2.46874213503148	46.0	
116.0	115.0	-3.47981271703037	46.0	
116.0	115.0	-1.6277350083096	46.0	
117.0	115.0	-7.76326280624596	46.0	
116.0	115.0	0.0289572664590594	46.0	
117.0	115.0	-7.95362093497982	52.0	
117.0	115.0	-5.88373620286342	46.0	
116.0	115.0	-0.198265892729722	46.0	
116.0	115.0	-2.01888195142058	46.0	
115.0	115.0	4.10051910531905	46.0	
115.0	115.0	2.23588541182573	46.0	
115.0	115.0	2.44330102689167	46.0	
115.0	115.0	2.42022928757791	46.0	
115.0	115.0	2.42279565224646	52.0	
116.0	115.0	-3.49541133516891	49.0	
116.0	115.0	-1.65732104650951	46.0	
116.0	115.0	-1.86414916585642	46.0	
116.0	115.0	-1.84360190840522	46.0	
116.0	115.0	-1.84833339293391	46.0	
116.0	115.0	-1.8502530890724	46.0	
116.0	115.0	-1.85248420912677	46.0	
116.0	115.0	-1.85467950039532	51.0	
116.0	115.0	-1.85687757380077	46.0	
115.0	115.0	4.05849003935762	46.0	
115.0	115.0	2.21878685033406	46.0	
115.0	115.0	2.42315079534413	46.0	
116.0	115.0	-3.51576587756915	46.0	
116.0	115.0	-1.67756760680538	46.0	
116.0	115.0	-1.88411134473844	46.0	
116.0	115.0	-1.86361249568057	46.0	
116.0	115.0	-1.86832063483354	52.0	
116.0	115.0	-1.87022883845867	46.0	
116.0	115.0	-1.87244673465145	46.0	
115.0	115.0	4.0410730413208	46.0	
