163.0	115.0	60.0	50.0	
163.0	115.0	60.0	50.0	
164.0	115.0	60.0	50.0	
166.0	115.0	60.0	50.0	
168.0	115.0	60.0	50.0	
169.0	115.0	60.0	50.0	
170.0	115.0	60.0	50.0	
171.0	115.0	60.0	50.0	
172.0	115.0	32.6992118591183	50.0	
173.0	115.0	56.1652854458231	50.0	
173.0	115.0	-60.0	75.0	
173.0	115.0	-60.0	50.0	
174.0	115.0	-60.0	50.0	
176.0	115.0	60.0	50.0	
179.0	115.0	60.0	50.0	
178.0	115.0	60.0	50.0	
175.0	115.0	60.0	50.0	
173.0	115.0	60.0	50.0	
172.0	115.0	60.0	50.0	
170.0	115.0	60.0	50.0	
167.0	115.0	60.0	50.0	
165.0	115.0	60.0	50.0	
162.0	115.0	60.0	50.0	
161.0	115.0	60.0	50.0	
160.0	115.0	60.0	50.0	
160.0	115.0	60.0	50.0	
160.0	115.0	60.0	50.0	
160.0	115.0	60.0	50.0	
161.0	115.0	60.0	50.0	
161.0	115.0	60.0	50.0	
160.0	115.0	60.0	50.0	
160.0	115.0	60.0	50.0	
160.0	115.0	60.0	50.0	
160.0	115.0	60.0	50.0	
160.0	115.0	60.0	50.0	
160.0	115.0	60.0	50.0	
160.0	115.0	60.0	50.0	
160.0	115.0	60.0	50.0	
160.0	115.0	60.0	50.0	
160.0	115.0	60.0	50.0	
160.0	115.0	60.0	50.0	
160.0	115.0	60.0	50.0	
160.0	115.0	60.0	50.0	
160.0	115.0	60.0	50.0	
160.0	115.0	60.0	50.0	
160.0	115.0	60.0	50.0	
160.0	115.0	60.0	50.0	
160.0	115.0	60.0	50.0	
160.0	115.0	60.0	50.0	
160.0	115.0	60.0	50.0	
160.0	115.0	60.0	50.0	
159.0	115.0	60.0	50.0	
159.0	115.0	60.0	50.0	
159.0	115.0	60.0	50.0	
159.0	115.0	60.0	50.0	
159.0	115.0	60.0	50.0	
159.0	115.0	60.0	50.0	
159.0	115.0	60.0	50.0	
159.0	115.0	60.0	50.0	
159.0	115.0	60.0	50.0	
159.0	115.0	60.0	50.0	
159.0	115.0	60.0	50.0	
159.0	115.0	60.0	50.0	
159.0	115.0	60.0	50.0	
159.0	115.0	60.0	50.0	
159.0	115.0	60.0	50.0	
159.0	115.0	60.0	50.0	
159.0	115.0	60.0	50.0	
158.0	115.0	60.0	50.0	
159.0	115.0	60.0	50.0	
159.0	115.0	60.0	50.0	
159.0	115.0	60.0	50.0	
159.0	115.0	60.0	50.0	
159.0	115.0	60.0	50.0	
159.0	115.0	60.0	50.0	
159.0	115.0	60.0	50.0	
159.0	115.0	60.0	50.0	
158.0	115.0	60.0	50.0	
159.0	115.0	60.0	50.0	
159.0	115.0	60.0	50.0	
159.0	115.0	60.0	50.0	
159.0	115.0	60.0	50.0	
158.0	115.0	60.0	50.0	
159.0	115.0	60.0	50.0	
159.0	115.0	60.0	50.0	
159.0	115.0	60.0	50.0	
159.0	115.0	60.0	50.0	
159.0	115.0	60.0	50.0	
159.0	115.0	60.0	50.0	
159.0	115.0	60.0	50.0	
159.0	115.0	60.0	50.0	
159.0	115.0	60.0	50.0	
158.0	115.0	60.0	50.0	
158.0	115.0	60.0	50.0	
158.0	115.0	60.0	50.0	
159.0	115.0	60.0	50.0	
158.0	115.0	60.0	50.0	
159.0	115.0	60.0	50.0	
159.0	115.0	60.0	50.0	
159.0	115.0	60.0	50.0	
