161.0	201.0	60.0	50.0	
160.0	201.0	-48.1272190254329	50.0	
160.0	201.0	-34.7816026622115	50.0	
160.0	201.0	-29.893603029157	50.0	
161.0	201.0	-19.2710136033787	50.0	
161.0	201.0	60.0	50.0	
160.0	201.0	-60.0	50.0	
160.0	201.0	-60.0	50.0	
161.0	201.0	-60.0	50.0	
161.0	201.0	-60.0	50.0	
161.0	201.0	-60.0	50.0	
161.0	201.0	-60.0	50.0	
161.0	201.0	-60.0	50.0	
161.0	201.0	-60.0	50.0	
161.0	201.0	-60.0	50.0	
161.0	201.0	-60.0	50.0	
161.0	201.0	-60.0	50.0	
161.0	201.0	-60.0	50.0	
161.0	201.0	-60.0	50.0	
162.0	201.0	-60.0	50.0	
161.0	121.0	60.0	50.0	
161.0	121.0	60.0	50.0	
161.0	121.0	60.0	50.0	
161.0	121.0	60.0	50.0	
161.0	121.0	60.0	50.0	
161.0	121.0	60.0	50.0	
161.0	121.0	60.0	50.0	
161.0	121.0	60.0	50.0	
161.0	121.0	60.0	50.0	
161.0	121.0	60.0	50.0	
161.0	121.0	60.0	50.0	
161.0	121.0	60.0	50.0	
161.0	121.0	60.0	50.0	
161.0	121.0	60.0	50.0	
161.0	121.0	60.0	50.0	
161.0	121.0	60.0	50.0	
161.0	121.0	60.0	50.0	
161.0	121.0	60.0	50.0	
161.0	121.0	60.0	50.0	
161.0	121.0	60.0	50.0	
161.0	121.0	60.0	50.0	
161.0	201.0	-60.0	50.0	
161.0	201.0	-60.0	50.0	
161.0	201.0	-60.0	50.0	
161.0	201.0	-60.0	50.0	
161.0	201.0	-60.0	50.0	
161.0	201.0	-60.0	50.0	
161.0	201.0	-60.0	50.0	
161.0	201.0	-60.0	50.0	
161.0	201.0	-60.0	50.0	
161.0	201.0	-60.0	50.0	
161.0	201.0	-60.0	50.0	
161.0	201.0	-60.0	50.0	
161.0	201.0	-60.0	50.0	
161.0	201.0	-60.0	50.0	
161.0	201.0	-60.0	50.0	
161.0	201.0	-60.0	50.0	
161.0	201.0	-60.0	50.0	
161.0	201.0	-60.0	50.0	
161.0	201.0	-60.0	50.0	
161.0	201.0	-60.0	50.0	
161.0	201.0	-60.0	50.0	
161.0	121.0	60.0	50.0	
161.0	121.0	60.0	50.0	
161.0	121.0	60.0	50.0	
161.0	121.0	60.0	50.0	
161.0	121.0	60.0	50.0	
161.0	121.0	60.0	50.0	
161.0	121.0	60.0	50.0	
161.0	121.0	60.0	50.0	
161.0	121.0	60.0	50.0	
161.0	121.0	60.0	50.0	
161.0	121.0	60.0	50.0	
161.0	121.0	60.0	50.0	
161.0	121.0	60.0	50.0	
161.0	121.0	60.0	50.0	
161.0	121.0	60.0	50.0	
161.0	121.0	60.0	50.0	
161.0	121.0	60.0	50.0	
161.0	121.0	60.0	50.0	
161.0	121.0	60.0	50.0	
161.0	121.0	60.0	50.0	
161.0	121.0	60.0	50.0	
161.0	201.0	-60.0	50.0	
161.0	201.0	-60.0	50.0	
161.0	201.0	-60.0	50.0	
161.0	201.0	-60.0	50.0	
161.0	201.0	-60.0	50.0	
161.0	201.0	-60.0	50.0	
161.0	201.0	-60.0	50.0	
161.0	201.0	-60.0	50.0	
161.0	201.0	-60.0	50.0	
161.0	201.0	-60.0	50.0	
161.0	201.0	-60.0	50.0	
161.0	201.0	-60.0	50.0	
161.0	201.0	-60.0	50.0	
161.0	201.0	-60.0	50.0	
161.0	201.0	-60.0	50.0	
161.0	201.0	-60.0	50.0	
161.0	201.0	-60.0	50.0	
