115,0	155,0	-60,0	
115,0	155,0	-54,4586342431259	
112,0	155,0	-53,4046383893997	
107,0	155,0	-60,0	
99,0	155,0	-60,0	
91,0	155,0	34,8159680792694	
84,0	155,0	60,0	
77,0	155,0	-60,0	
78,0	155,0	60,0	
81,0	155,0	60,0	
82,0	155,0	60,0	
86,0	155,0	60,0	
94,0	155,0	60,0	
102,0	155,0	60,0	
110,0	155,0	60,0	
120,0	155,0	60,0	
128,0	155,0	60,0	
138,0	155,0	53,9729565706579	
147,0	155,0	34,064269254658	
155,0	155,0	11,5855391515134	
162,0	155,0	-10,9543841747646	
167,0	155,0	-30,9875279446956	
171,0	155,0	-50,2183332675602	
171,0	155,0	-59,3955539234363	
168,0	155,0	-57,3207803318071	
164,0	155,0	-48,9893008074147	
158,0	155,0	-33,5233402228646	
152,0	155,0	-15,9668376116727	
145,0	155,0	3,95396050205428	
140,0	155,0	20,8510724279673	
136,0	155,0	35,1233884269205	
136,0	155,0	41,3073096782938	
138,0	155,0	40,8398357342283	
142,0	155,0	34,0601397241119	
147,0	155,0	22,9476011078996	
153,0	155,0	8,27610146490445	
157,0	155,0	-4,08988648087121	
162,0	155,0	-17,7571179905974	
162,0	155,0	-22,6974014755794	
162,0	155,0	-24,6085719851089	
161,0	155,0	-23,73278198393	
158,0	155,0	-18,0009835547412	
154,0	155,0	-8,66527065623314	
150,0	155,0	1,8863056235356	
148,0	155,0	9,29283162824766	
147,0	155,0	13,8018208177653	
146,0	155,0	17,3947596585261	
147,0	155,0	17,2058254897818	
148,0	155,0	15,5918337910256	
151,0	155,0	9,9617230662317	
153,0	155,0	4,53276202839339	
155,0	155,0	-0,765682810087245	
157,0	155,0	-6,11642860130205	
158,0	155,0	-9,80008760498655	
158,0	155,0	-11,1248311261602	
158,0	155,0	-11,6320743075654	
156,0	155,0	-8,35525051707111	
155,0	155,0	-5,39223722940853	
153,0	155,0	-0,899299767855503	
152,0	155,0	2,50753306192208	
152,0	75,0	-60,0	
150,0	75,0	-60,0	
150,0	75,0	-60,0	
145,0	75,0	-60,0	
137,0	75,0	-60,0	
129,0	75,0	-60,0	
121,0	75,0	-60,0	
112,0	75,0	-60,0	
104,0	75,0	-60,0	
97,0	75,0	-58,1067079924295	
89,0	75,0	-43,7331060512704	
79,0	75,0	-22,4505711420925	
70,0	75,0	-0,701817842991661	
63,0	75,0	17,7843882234566	
57,0	75,0	33,5406923050225	
55,0	75,0	42,4813832709804	
58,0	75,0	41,0185125692092	
62,0	75,0	34,1378338776416	
68,0	75,0	22,3532799738994	
75,0	75,0	7,34087821164471	
82,0	75,0	-8,64694543129109	
85,0	75,0	-18,9081713524578	
86,0	75,0	-23,8778446936309	
85,0	75,0	-24,0237499401921	
83,0	75,0	-20,9526402827886	
80,0	75,0	-15,2772087874755	
76,0	75,0	-7,18343144989872	
72,0	75,0	1,7583417019185	
69,0	75,0	9,44887952618494	
68,0	75,0	13,6433309545751	
68,0	75,0	15,0261249818024	
69,0	75,0	13,956594232247	
72,0	75,0	9,01820975501825	
74,0	75,0	4,14100851025185	
76,0	75,0	-0,540759015983248	
77,0	75,0	-3,68676536315922	
78,0	75,0	-6,23384270399706	
78,0	75,0	-7,13195714023346	
77,0	75,0	-5,90090760361182	
77,0	75,0	-5,39215169097055	
76,0	75,0	-3,77388753697468	
75,0	75,0	-1,66022027706145	
74,0	75,0	0,593412732211039	
74,0	75,0	1,39909896637264	
73,0	75,0	3,11568309774553	
73,0	75,0	3,78224819733808	
73,0	75,0	3,97542045636893	
74,0	75,0	2,54758402885382	
74,0	75,0	1,97803630250249	
75,0	75,0	0,337879369063002	
75,0	75,0	-0,29562753417086	
76,0	75,0	-1,95883945413118	
76,0	75,0	-2,6045655567136	
76,0	75,0	-2,78553169187046	
75,0	75,0	-1,34937286245414	
75,0	75,0	-0,771061733708466	
74,0	75,0	0,876462716808126	
74,0	75,0	1,51804146712653	
74,0	75,0	1,69783062145354	
74,0	75,0	1,75248454951756	
75,0	75,0	0,282424566275182	
75,0	155,0	60,0	
76,0	155,0	60,0	
78,0	155,0	60,0	
85,0	155,0	60,0	
94,0	155,0	60,0	
103,0	155,0	60,0	
112,0	155,0	60,0	
122,0	155,0	60,0	
130,0	155,0	57,427259816126	
140,0	155,0	40,4025819186451	
148,0	155,0	22,3273941528757	
155,0	155,0	5,75884398535119	
162,0	155,0	-10,303400731036	
166,0	155,0	-21,8705875135158	
168,0	155,0	-28,8502476895205	
168,0	155,0	-31,3348167321536	
166,0	155,0	-29,2479892405141	
163,0	155,0	-24,0504214644978	
159,0	155,0	-16,2841807144233	
155,0	155,0	-7,62446510926436	
151,0	155,0	1,30679824120996	
149,0	155,0	7,37060915587187	
148,0	155,0	10,8772015900497	
148,0	155,0	12,0782419503378	
148,0	155,0	12,5119802784713	
150,0	155,0	9,76393588691677	
152,0	155,0	5,80365065370974	
153,0	155,0	2,99263589498553	
155,0	155,0	-0,848044065857678	
156,0	155,0	-3,68158664864356	
157,0	155,0	-6,09127157754653	
157,0	155,0	-6,92159652428943	
156,0	155,0	-5,67663110636103	
155,0	155,0	-3,70425614258799	
155,0	155,0	-3,01804710094043	
154,0	155,0	-1,36034130565904	
154,0	155,0	-0,736575910636468	
153,0	155,0	0,918816576536955	
153,0	155,0	1,55799277049852	
154,0	155,0	0,271125580894374	
153,0	155,0	1,25084002712855	
154,0	155,0	0,239872686072314	
154,0	155,0	-0,190178591922777	
154,0	155,0	-0,284265334832881	
155,0	155,0	-1,77041162818585	
155,0	155,0	-2,33657857190422	
155,0	155,0	-2,48038527748674	
153,0	155,0	0,432710486418078	
153,0	155,0	1,58058793888018	
153,0	155,0	1,9008410561769	
153,0	155,0	2,0104170346388	
153,0	155,0	2,0661841375077	
153,0	155,0	2,10803495144388	
153,0	155,0	2,14611876623585	
153,0	155,0	2,18302092978482	
154,0	155,0	0,749831683336229	
155,0	155,0	-1,26111561014158	
155,0	155,0	-1,96331076474068	
155,0	155,0	-2,14216160208431	
154,0	155,0	-0,719814507713551	
155,0	75,0	-60,0	
153,0	75,0	-60,0	
153,0	75,0	-60,0	
148,0	75,0	-60,0	
143,0	75,0	-60,0	
134,0	75,0	-60,0	
126,0	75,0	-60,0	
118,0	75,0	-60,0	
109,0	75,0	-60,0	
102,0	75,0	-60,0	
93,0	75,0	-47,4813624634128	
83,0	75,0	-28,0690481592827	
75,0	75,0	-9,68388819335295	
67,0	75,0	7,92653011534698	
61,0	75,0	22,478004306541	
58,0	75,0	31,6580219544462	
58,0	75,0	34,6696368371065	
62,0	75,0	29,8061283365074	
68,0	75,0	19,3096417952562	
73,0	75,0	8,44173964304103	
78,0	75,0	-2,30456320014635	
82,0	75,0	-11,6075954269538	
83,0	75,0	-16,1401026179046	
82,0	75,0	-16,076547768128	
82,0	75,0	-15,8899506748133	
80,0	75,0	-13,0475381310795	
77,0	75,0	-7,73031263485474	
75,0	75,0	-3,00498231009953	
72,0	75,0	2,78015328867737	
71,0	75,0	6,22457952511276	
71,0	75,0	7,28452649450435	
71,0	75,0	7,55678728917511	
72,0	75,0	6,22886128808194	
73,0	75,0	4,30217389195592	
74,0	75,0	2,2258468796922	
76,0	75,0	-1,29530965098095	
76,0	75,0	-2,56864117192406	
77,0	75,0	-4,28917204959395	
76,0	75,0	-3,51467517829521	
76,0	75,0	-3,12409357966872	
76,0	75,0	-3,03111271147554	
75,0	75,0	-1,60569791068395	
75,0	75,0	-1,05255882362607	
74,0	75,0	0,488266962065906	
73,0	75,0	2,47766562620763	
74,0	75,0	1,76944816035315	
74,0	75,0	1,39491595724362	
73,0	75,0	2,71103258654758	
74,0	75,0	1,83780725864466	
75,0	75,0	0,0176871216866825	
75,0	75,0	-0,632507702084675	
75,0	75,0	-0,792050860274149	
76,0	75,0	-2,23609225937616	
74,0	75,0	0,0124551675410096	
75,0	75,0	-0,430539927811587	
75,0	75,0	-0,742742652632243	
75,0	75,0	-0,819464601670056	
74,0	75,0	0,566287494632714	
75,0	75,0	-0,291776722721172	
