112,0	152,0	0,0	-60,0	1067400,0	
112,0	152,0	0,0	-60,0	1067431,0	
112,0	152,0	3,53140340064679	60,0	1067468,0	
111,0	152,0	3,53140340064679	60,0	1067498,0	
108,0	152,0	11,8104992226369	-60,0	1067538,0	
108,0	152,0	11,8104992226369	-60,0	1067568,0	
109,0	152,0	22,9407464461723	-60,0	1067608,0	
111,0	152,0	22,9407464461723	-60,0	1067638,0	
110,0	152,0	35,5379361588886	-60,0	1067678,0	
104,0	152,0	35,5379361588886	-60,0	1067708,0	
99,0	152,0	48,6162439197583	3,73606121394322	1067753,0	
94,0	152,0	48,6162439197583	3,73606121394322	1067785,0	
89,0	152,0	61,4960198966416	52,4949161003927	1067827,0	
83,0	152,0	61,4960198966416	52,4949161003927	1067858,0	
83,0	152,0	73,7298154711081	60,0	1067900,0	
87,0	152,0	73,7298154711081	60,0	1067929,0	
90,0	152,0	85,0435741760158	60,0	1067969,0	
93,0	152,0	85,0435741760158	60,0	1067998,0	
100,0	152,0	95,2903247251918	60,0	1068038,0	
106,0	152,0	95,2903247251918	60,0	1068067,0	
112,0	152,0	104,414094547459	52,1949695308321	1068113,0	
121,0	152,0	104,414094547459	52,1949695308321	1068145,0	
126,0	152,0	112,422108138743	40,3421987694844	1068187,0	
134,0	152,0	112,422108138743	40,3421987694844	1068219,0	
137,0	152,0	119,363643388209	28,3369974799058	1068261,0	
144,0	152,0	119,363643388209	28,3369974799058	1068293,0	
148,0	152,0	125,31419074707	16,3705868947155	1068335,0	
152,0	152,0	125,31419074707	16,3705868947155	1068366,0	
156,0	152,0	130,363796123524	5,48280166774945	1068408,0	
160,0	152,0	130,363796123524	5,48280166774945	1068440,0	
162,0	152,0	134,608671085269	-3,89081923981979	1068488,0	
163,0	152,0	134,608671085269	-3,89081923981979	1068520,0	
164,0	152,0	138,145326254209	-10,315503313927	1068562,0	
165,0	152,0	138,145326254209	-10,315503313927	1068594,0	
165,0	152,0	141,066628854812	-14,4874730554185	1068636,0	
164,0	152,0	141,066628854812	-14,4874730554185	1068668,0	
163,0	152,0	143,459306434987	-16,0142489509277	1068710,0	
162,0	152,0	143,459306434987	-16,0142489509277	1068742,0	
161,0	152,0	145,402518921867	-15,9456640744105	1068784,0	
158,0	152,0	145,402518921867	-15,9456640744105	1068821,0	
157,0	152,0	146,967203317783	-14,3866433348866	1068863,0	
155,0	152,0	146,967203317783	-14,3866433348866	1068895,0	
155,0	152,0	148,215962153061	-12,4350809361634	1068937,0	
153,0	152,0	148,215962153061	-12,4350809361634	1068969,0	
152,0	152,0	149,203320690685	-10,3274768279187	1069011,0	
150,0	152,0	149,203320690685	-10,3274768279187	1069043,0	
149,0	152,0	149,976220945632	-7,984397623766	1069085,0	
148,0	152,0	149,976220945632	-7,984397623766	1069116,0	
147,0	152,0	150,574654691175	-5,72735305659999	1069162,0	
147,0	152,0	150,574654691175	-5,72735305659999	1069195,0	
145,0	152,0	151,032364373484	-3,70064666850228	1069237,0	
145,0	152,0	151,032364373484	-3,70064666850228	1069269,0	
145,0	152,0	151,377561608293	-2,13661464706214	1069311,0	
144,0	152,0	151,377561608293	-2,13661464706214	1069343,0	
144,0	152,0	151,633628841469	-1,0447025275993	1069385,0	
144,0	152,0	151,633628841469	-1,0447025275993	1069417,0	
144,0	152,0	151,819781784399	-0,169236620479467	1069459,0	
144,0	152,0	151,819781784399	-0,169236620479467	1069491,0	
144,0	152,0	151,951679186035	0,389804772189148	1069539,0	
143,0	152,0	151,951679186035	0,389804772189148	1069571,0	
144,0	152,0	152,041973035669	0,773351842240427	1069613,0	
144,0	152,0	152,041973035669	0,773351842240427	1069645,0	
144,0	152,0	152,10079694206	1,05821228525708	1069687,0	
144,0	152,0	152,10079694206	1,05821228525708	1069718,0	
144,0	152,0	152,136193640765	1,28645344238699	1069760,0	
144,0	152,0	152,136193640765	1,28645344238699	1069792,0	
145,0	152,0	152,154484691778	1,34909432859111	1069834,0	
145,0	152,0	152,154484691778	1,34909432859111	1069872,0	
145,0	152,0	152,160586721438	1,23997850567814	1069914,0	
145,0	152,0	152,160586721438	1,23997850567814	1069946,0	
145,0	152,0	152,158279254702	1,23668721883046	1069988,0	
145,0	152,0	152,158279254702	1,23668721883046	1070020,0	
145,0	152,0	152,15042944661	1,29012138686401	1070062,0	
146,0	152,0	152,15042944661	1,29012138686401	1070093,0	
146,0	152,0	152,139178986385	1,25473159676144	1070135,0	
147,0	152,0	152,139178986385	1,25473159676144	1070167,0	
147,0	152,0	152,12609821385	0,956612533664945	1070211,0	
147,0	152,0	152,12609821385	0,956612533664945	1070246,0	
148,0	152,0	152,112312130523	0,505229500276574	1070288,0	
148,0	152,0	152,112312130523	0,505229500276574	1070320,0	
148,0	152,0	152,098602561872	0,0772293701230993	1070362,0	
148,0	72,0	152,098602561872	0,0772293701230993	1070394,0	
149,0	72,0	152,085490272337	-19,9681265155847	1070436,0	
149,0	72,0	152,085490272337	-19,9681265155847	1070467,0	
148,0	72,0	151,299674846447	-31,7350200566979	1070509,0	
147,0	72,0	151,299674846447	-31,7350200566979	1070540,0	
146,0	72,0	147,61489626431	-38,5403214605998	1070588,0	
144,0	72,0	147,61489626431	-38,5403214605998	1070619,0	
140,0	72,0	142,13460894053	-41,6300251093556	1070661,0	
135,0	72,0	142,13460894053	-41,6300251093556	1070692,0	
131,0	72,0	135,669621756083	-41,3102686836761	1070734,0	
127,0	72,0	135,669621756083	-41,3102686836761	1070765,0	
123,0	72,0	128,802382950517	-38,7614077333872	1070807,0	
117,0	72,0	128,802382950517	-38,7614077333872	1070838,0	
114,0	72,0	121,939145067095	-35,0608222799118	1070880,0	
109,0	72,0	121,939145067095	-35,0608222799118	1070917,0	
105,0	72,0	115,351932117836	-30,5513583264561	1070959,0	
99,0	72,0	115,351932117836	-30,5513583264561	1070991,0	
96,0	72,0	109,212002942892	-25,651674792056	1071033,0	
91,0	72,0	109,212002942892	-25,651674792056	1071064,0	
89,0	72,0	103,616284386587	-20,6523750815729	1071106,0	
83,0	72,0	103,616284386587	-20,6523750815729	1071137,0	
82,0	72,0	98,6080415891867	-16,097515344589	1071179,0	
78,0	72,0	98,6080415891867	-16,097515344589	1071210,0	
76,0	72,0	94,1928639868343	-11,8254198828497	1071252,0	
72,0	72,0	94,1928639868343	-11,8254198828497	1071289,0	
70,0	72,0	90,3508762237941	-7,98568207964105	1071331,0	
68,0	72,0	90,3508762237941	-7,98568207964105	1071362,0	
67,0	72,0	87,0459334823709	-4,34202018130335	1071404,0	
65,0	72,0	87,0459334823709	-4,34202018130335	1071435,0	
65,0	72,0	84,2324301907077	-1,55156584820603	1071477,0	
63,0	72,0	84,2324301907077	-1,55156584820603	1071508,0	
63,0	72,0	81,8602385555193	0,501828834189897	1071550,0	
63,0	72,0	81,8602385555193	0,501828834189897	1071581,0	
63,0	72,0	79,8781974159204	2,18356299414922	1071623,0	
62,0	72,0	79,8781974159204	2,18356299414922	1071660,0	
62,0	72,0	78,2364908815486	3,1224722459535	1071702,0	
63,0	72,0	78,2364908815486	3,1224722459535	1071733,0	
63,0	72,0	76,8881884073577	3,93941049896272	1071775,0	
63,0	72,0	76,8881884073577	3,93941049896272	1071806,0	
63,0	72,0	75,7901617059959	4,15503336075587	1071848,0	
64,0	72,0	75,7901617059959	4,15503336075587	1071879,0	
65,0	72,0	74,9035476321691	4,32388866074174	1071921,0	
65,0	72,0	74,9035476321691	4,32388866074174	1071952,0	
66,0	72,0	74,1938884393245	3,93490980437161	1071994,0	
67,0	72,0	74,1938884393245	3,93490980437161	1072031,0	
68,0	72,0	73,6310502943832	3,50290681437818	1072073,0	
68,0	72,0	73,6310502943832	3,50290681437818	1072104,0	
68,0	72,0	73,1889964738968	2,75412256665962	1072146,0	
69,0	72,0	73,1889964738968	2,75412256665962	1072177,0	
70,0	72,0	72,8454722318379	2,37078257312354	1072219,0	
71,0	72,0	72,8454722318379	2,37078257312354	1072250,0	
72,0	72,0	72,5816430395279	1,68271091321671	1072297,0	
72,0	72,0	72,5816430395279	1,68271091321671	1072328,0	
72,0	72,0	72,3817159935032	0,785704991297951	1072370,0	
72,0	72,0	72,3817159935032	0,785704991297951	1072401,0	
72,0	72,0	72,2325650244506	0,27966661822909	1072443,0	
73,0	72,0	72,2325650244506	0,27966661822909	1072474,0	
72,0	72,0	72,1233735797297	-0,00583249284775889	1072516,0	
73,0	72,0	72,1233735797297	-0,00583249284775889	1072548,0	
73,0	72,0	72,0453032439443	-0,149591428452567	1072590,0	
73,0	72,0	72,0453032439443	-0,149591428452567	1072627,0	
73,0	72,0	71,9911929355879	-0,486245004079844	1072669,0	
73,0	72,0	71,9911929355879	-0,486245004079844	1072700,0	
74,0	72,0	71,9552905694106	-0,660543141894752	1072742,0	
74,0	72,0	71,9552905694106	-0,660543141894752	1072773,0	
74,0	72,0	71,9330171575211	-1,01526360918344	1072815,0	
74,0	72,0	71,9330171575211	-1,01526360918344	1072846,0	
74,0	72,0	71,9207620391949	-1,21776748671986	1072888,0	
74,0	72,0	71,9207620391949	-1,21776748671986	1072919,0	
74,0	72,0	71,9157071219169	-1,33438168525434	1072964,0	
74,0	72,0	71,9157071219169	-1,33438168525434	1072998,0	
74,0	72,0	71,9156775595404	-1,40252312396938	1073040,0	
74,0	72,0	71,9156775595404	-1,40252312396938	1073071,0	
74,0	72,0	71,9190160900233	-1,44330154811241	1073113,0	
74,0	72,0	71,9190160900233	-1,44330154811241	1073144,0	
74,0	72,0	71,9244782295322	-1,46862745577174	1073186,0	
74,0	72,0	71,9244782295322	-1,46862745577174	1073217,0	
74,0	72,0	71,9311456141499	-1,4852214142498	1073259,0	
74,0	72,0	71,9311456141499	-1,4852214142498	1073290,0	
74,0	72,0	71,9383549515838	-1,49687579358717	1073338,0	
74,0	72,0	71,9383549515838	-1,49687579358717	1073369,0	
74,0	152,0	71,9456402610143	16,4074021513748	1073411,0	
74,0	152,0	71,9456402610143	16,4074021513748	1073442,0	
74,0	152,0	72,7920399754174	26,6218333807438	1073484,0	
76,0	152,0	72,7920399754174	26,6218333807438	1073515,0	
77,0	152,0	76,5137564034601	32,5557788519256	1073557,0	
81,0	152,0	76,5137564034601	32,5557788519256	1073588,0	
82,0	152,0	82,0136676614469	35,3323817468377	1073630,0	
89,0	152,0	82,0136676614469	35,3323817468377	1073661,0	
91,0	152,0	88,485897139696	35,6244099341588	1073709,0	
98,0	152,0	88,485897139696	35,6244099341588	1073740,0	
102,0	152,0	95,3517942770093	33,4851225689566	1073782,0	
105,0	152,0	95,3517942770093	33,4851225689566	1073814,0	
109,0	152,0	102,207992796175	29,7054971342214	1073856,0	
115,0	152,0	102,207992796175	29,7054971342214	1073888,0	
117,0	152,0	108,784629365861	25,9505904582992	1073930,0	
123,0	152,0	108,784629365861	25,9505904582992	1073962,0	
126,0	152,0	114,912033640724	21,9252360405089	1074004,0	
131,0	152,0	114,912033640724	21,9252360405089	1074041,0	
134,0	152,0	120,494420649457	17,5124679025515	1074083,0	
137,0	152,0	120,494420649457	17,5124679025515	1074115,0	
140,0	152,0	125,489322416887	13,1335613362664	1074157,0	
143,0	152,0	125,489322416887	13,1335613362664	1074189,0	
144,0	152,0	129,891683973675	9,26424063449013	1074231,0	
147,0	152,0	129,891683973675	9,26424063449013	1074263,0	
147,0	152,0	133,721717851901	6,16714236966976	1074305,0	
149,0	152,0	133,721717851901	6,16714236966976	1074337,0	
150,0	152,0	137,015760435005	3,73535964791873	1074382,0	
151,0	152,0	137,015760435005	3,73535964791873	1074416,0	
153,0	152,0	139,819503674036	1,65521683388516	1074458,0	
153,0	152,0	139,819503674036	1,65521683388516	1074490,0	
154,0	152,0	142,183087827739	-0,246887352568301	1074532,0	
154,0	152,0	142,183087827739	-0,246887352568301	1074564,0	
155,0	152,0	144,157636504858	-1,54630724031837	1074607,0	
155,0	152,0	144,157636504858	-1,54630724031837	1074639,0	
155,0	152,0	145,792896028142	-2,52172600236614	1074682,0	
155,0	152,0	145,792896028142	-2,52172600236614	1074714,0	
155,0	152,0	147,135708695809	-3,06564134405427	1074763,0	
155,0	152,0	147,135708695809	-3,06564134405427	1074795,0	
154,0	152,0	148,229105548215	-3,37729213693519	1074837,0	
154,0	152,0	148,229105548215	-3,37729213693519	1074869,0	
154,0	152,0	149,111850326759	-3,29918812793289	1074911,0	
154,0	152,0	149,111850326759	-3,29918812793289	1074943,0	
154,0	152,0	149,818303888	-3,2636201999066	1074985,0	
153,0	152,0	149,818303888	-3,2636201999066	1075016,0	
154,0	152,0	150,378508718169	-3,25118442250944	1075058,0	
153,0	152,0	150,378508718169	-3,25118442250944	1075095,0	
153,0	152,0	150,818417545796	-3,25785480022426	1075137,0	
153,0	152,0	150,818417545796	-3,25785480022426	1075169,0	
153,0	152,0	151,160209392969	-3,00863274018845	1075211,0	
153,0	152,0	151,160209392969	-3,00863274018845	1075243,0	
153,0	152,0	151,422651621742	-2,87535772637666	1075285,0	
152,0	152,0	151,422651621742	-2,87535772637666	1075317,0	
152,0	152,0	151,621478377306	-2,81462192829368	1075359,0	
152,0	152,0	151,621478377306	-2,81462192829368	1075391,0	
152,0	152,0	151,769764944353	-2,52456353119594	1075440,0	
152,0	152,0	151,769764944353	-2,52456353119594	1075472,0	
151,0	152,0	151,878284455755	-2,37643414066541	1075515,0	
151,0	152,0	151,878284455755	-2,37643414066541	1075547,0	
150,0	152,0	151,955838570776	-2,04738707018158	1075589,0	
150,0	152,0	151,955838570776	-2,04738707018158	1075621,0	
150,0	152,0	152,009557543227	-1,60273761310449	1075663,0	
150,0	152,0	152,009557543227	-1,60273761310449	1075695,0	
150,0	152,0	152,045167830419	-1,35262377097044	1075737,0	
150,0	152,0	152,045167830419	-1,35262377097044	1075769,0	
150,0	152,0	152,067227296755	-1,20944936745173	1075817,0	
150,0	152,0	152,067227296755	-1,20944936745173	1075849,0	
150,0	152,0	152,07932933868	-1,12511218567866	1075891,0	
150,0	152,0	152,07932933868	-1,12511218567866	1075923,0	
150,0	152,0	152,084278057636	-1,07318757820339	1075965,0	
150,0	152,0	152,084278057636	-1,07318757820339	1075997,0	
150,0	152,0	152,084237058924	-1,03915391617328	1076039,0	
150,0	152,0	152,084237058924	-1,03915391617328	1076071,0	
149,0	152,0	152,080854654045	-1,03229968752281	1076113,0	
149,0	152,0	152,080854654045	-1,03229968752281	1076150,0	
149,0	152,0	152,075368267239	-0,761297990579664	1076193,0	
149,0	152,0	152,075368267239	-0,761297990579664	1076225,0	
150,0	152,0	152,068690750903	-0,586307333647511	1076268,0	
149,0	152,0	152,068690750903	-0,586307333647511	1076300,0	
149,0	152,0	152,061481142506	-0,762389478988695	1076343,0	
149,0	152,0	152,061481142506	-0,762389478988695	1076375,0	
149,0	72,0	152,054202179467	-17,5487550053603	1076418,0	
149,0	72,0	152,054202179467	-17,5487550053603	1076449,0	
149,0	72,0	151,169370941088	-27,0041757418016	1076497,0	
148,0	72,0	151,169370941088	-27,0041757418016	1076528,0	
147,0	72,0	147,4234428448	-32,4994711469229	1076570,0	
144,0	72,0	147,4234428448	-32,4994711469229	1076601,0	
143,0	72,0	141,909811303153	-35,3202734998495	1076643,0	
138,0	72,0	141,909811303153	-35,3202734998495	1076675,0	
135,0	72,0	135,431437060077	-36,0617077295827	1076717,0	
131,0	72,0	135,431437060077	-36,0617077295827	1076748,0	
127,0	72,0	128,564715376061	-34,6598535524312	1076790,0	
122,0	72,0	128,564715376061	-34,6598535524312	1076827,0	
118,0	72,0	121,711289619265	-32,0748443228326	1076869,0	
115,0	72,0	121,711289619265	-32,0748443228326	1076901,0	
112,0	72,0	115,139725525565	-28,5735924125874	1076943,0	
106,0	72,0	115,139725525565	-28,5735924125874	1076975,0	
103,0	72,0	109,018732478593	-25,3669933284848	1077017,0	
98,0	72,0	109,018732478593	-25,3669933284848	1077048,0	
95,0	72,0	103,443398300236	-21,5410666287845	1077090,0	
92,0	72,0	103,443398300236	-21,5410666287845	1077121,0	
89,0	72,0	98,4556983322778	-17,5724062182018	1077169,0	
86,0	72,0	98,4556983322778	-17,5724062182018	1077200,0	
83,0	72,0	94,0603515537387	-14,063349010389	1077242,0	
80,0	72,0	94,0603515537387	-14,063349010389	1077273,0	
79,0	72,0	90,2369277724131	-10,7133362466351	1077315,0	
76,0	72,0	90,2369277724131	-10,7133362466351	1077346,0	
74,0	72,0	86,9489608930815	-8,04896093983377	1077388,0	
72,0	72,0	86,9489608930815	-8,04896093983377	1077419,0	
71,0	72,0	84,1506933431174	-5,38294319866262	1077461,0	
70,0	72,0	84,1506933431174	-5,38294319866262	1077498,0	
68,0	72,0	81,7919647952398	-3,26212394473541	1077540,0	
68,0	72,0	81,7919647952398	-3,26212394473541	1077571,0	
67,0	72,0	79,8216628913286	-1,32290568238713	1077613,0	
66,0	72,0	79,8216628913286	-1,32290568238713	1077644,0	
65,0	72,0	78,1900730945627	-0,0924048987380814	1077686,0	
65,0	72,0	78,1900730945627	-0,0924048987380814	1077717,0	
66,0	72,0	76,850397385061	1,20036715624195	1077759,0	
65,0	72,0	76,850397385061	1,20036715624195	1077790,0	
65,0	72,0	75,7596556070539	1,58725451807384	1077832,0	
65,0	72,0	75,7596556070539	1,58725451807384	1077869,0	
65,0	72,0	74,8791373032204	2,07812201354485	1077911,0	
66,0	72,0	74,8791373032204	2,07812201354485	1077942,0	
67,0	72,0	74,1745343865446	2,47095051658317	1077984,0	
67,0	72,0	74,1745343865446	2,47095051658317	1078015,0	
68,0	72,0	73,6158546939371	2,20374088483021	1078057,0	
68,0	72,0	73,6158546939371	2,20374088483021	1078088,0	
68,0	72,0	73,1771921767214	1,78467054424241	1078130,0	
68,0	72,0	73,1771921767214	1,78467054424241	1078161,0	
69,0	72,0	72,8364101925783	1,61289967509434	1078205,0	
70,0	72,0	72,8364101925783	1,61289967509434	1078240,0	
70,0	72,0	72,5747791903516	1,30468503847223	1078282,0	
71,0	72,0	72,5747791903516	1,30468503847223	1078313,0	
71,0	72,0	72,376598268771	0,920334737367295	1078355,0	
72,0	72,0	72,376598268771	0,920334737367295	1078386,0	
72,0	72,0	72,2288210032316	0,493270472721051	1078428,0	
72,0	72,0	72,2288210032316	0,493270472721051	1078459,0	
72,0	72,0	72,1206990344295	-0,0162614519922997	1078501,0	
72,0	72,0	72,1206990344295	-0,0162614519922997	1078532,0	
72,0	72,0	72,0434517520924	-0,29857112447765	1078580,0	
72,0	72,0	72,0434517520924	-0,29857112447765	1078611,0	
72,0	72,0	71,9899666176618	-0,454987837525785	1078653,0	
72,0	72,0	71,9899666176618	-0,454987837525785	1078684,0	
72,0	72,0	71,9545319499755	-0,541653181854407	1078726,0	
72,0	72,0	71,9545319499755	-0,541653181854407	1078757,0	
72,0	72,0	71,9326021031239	-0,589672141746871	1078799,0	
73,0	72,0	71,9326021031239	-0,589672141746871	1078830,0	
72,0	72,0	71,9205936989338	-0,616278456555499	1078872,0	
72,0	72,0	71,9205936989338	-0,616278456555499	1078903,0	
72,0	72,0	71,9157107811183	-0,631020617343427	1078951,0	
72,0	72,0	71,9157107811183	-0,631020617343427	1078982,0	
72,0	72,0	71,9157963101703	-0,639189108192543	1079024,0	
72,0	72,0	71,9157963101703	-0,639189108192543	1079055,0	
72,0	72,0	71,9192072207348	-0,643715234405445	1079097,0	
72,0	72,0	71,9192072207348	-0,643715234405445	1079128,0	
73,0	72,0	71,9247102416328	-0,587858145107074	1079170,0	
72,0	72,0	71,9247102416328	-0,587858145107074	1079201,0	
72,0	72,0	71,9313957757726	-0,888489636797076	1079243,0	
72,0	72,0	71,9313957757726	-0,888489636797076	1079274,0	
72,0	72,0	71,938607309858	-0,782380790710821	1079322,0	
72,0	72,0	71,938607309858	-0,782380790710821	1079353,0	
72,0	72,0	71,9458840402596	-0,723572274423543	1079395,0	
