104.0	144.0	0.0	-60.0	57876.0	
104.0	144.0	0.0	-60.0	57903.0	
104.0	144.0	2.57664870093868	-60.0	57939.0	
102.0	144.0	2.57664870093868	-60.0	57969.0	
98.0	144.0	9.93547937141754	-60.0	58009.0	
93.0	144.0	9.93547937141754	-60.0	58038.0	
89.0	144.0	20.2052206394365	-56.0318997296351	58078.0	
82.0	144.0	20.2052206394365	-56.0318997296351	58109.0	
79.0	144.0	32.0162138443831	-59.0091928956388	58151.0	
70.0	144.0	32.0162138443831	-59.0091928956388	58182.0	
64.0	144.0	44.3894234583444	-50.8040081893542	58229.0	
55.0	144.0	44.3894234583444	-50.8040081893542	58260.0	
49.0	144.0	56.6465181928764	-30.4839213820595	58302.0	
36.0	144.0	68.3376503903902	-17.0379345828799	58373.0	
32.0	144.0	68.3376503903902	-17.0379345828799	58404.0	
27.0	144.0	79.1839693648698	-6.4782786599191	58446.0	
21.0	144.0	79.1839693648698	-6.4782786599191	58477.0	
19.0	144.0	89.0322958162165	6.39456073436359	58519.0	
18.0	144.0	89.0322958162165	6.39456073436359	58550.0	
17.0	144.0	97.8197491855468	16.3081740875597	58598.0	
16.0	144.0	97.8197491855468	16.3081740875597	58629.0	
17.0	144.0	105.546452135358	26.232341055371	58671.0	
18.0	144.0	105.546452135358	26.232341055371	58702.0	
19.0	144.0	112.25473369454	34.7363076942008	58744.0	
23.0	144.0	112.25473369454	34.7363076942008	58775.0	
25.0	144.0	118.013514698322	37.9432435561463	58817.0	
30.0	144.0	118.013514698322	37.9432435561463	58848.0	
35.0	144.0	122.906787177344	36.0313741210582	58890.0	
54.0	144.0	127.02529546878	24.0669723139445	59042.0	
58.0	144.0	127.02529546878	24.0669723139445	59073.0	
62.0	144.0	130.460693754234	20.8568652387313	59115.0	
68.0	144.0	130.460693754234	20.8568652387313	59146.0	
72.0	144.0	133.30159545753	16.2924110555573	59188.0	
74.0	144.0	133.30159545753	16.2924110555573	59219.0	
76.0	144.0	135.631047503315	15.4763217405078	59261.0	
79.0	144.0	135.631047503315	15.4763217405078	59292.0	
81.0	144.0	137.525059805419	14.4720441141683	59334.0	
83.0	144.0	137.525059805419	14.4720441141683	59371.0	
85.0	144.0	139.051900310499	13.939322686523	59413.0	
88.0	144.0	139.051900310499	13.939322686523	59444.0	
90.0	144.0	140.271931029226	12.7625749374667	59486.0	
90.0	144.0	140.271931029226	12.7625749374667	59517.0	
92.0	144.0	141.237813051796	12.9583733660742	59559.0	
94.0	144.0	141.237813051796	12.9583733660742	59590.0	
96.0	144.0	141.994950612388	12.3287502293493	59632.0	
98.0	144.0	141.994950612388	12.3287502293493	59663.0	
100.0	144.0	142.582077627099	11.3920351427866	59705.0	
103.0	144.0	142.582077627099	11.3920351427866	59742.0	
103.0	144.0	143.031916326808	10.7110178897947	59784.0	
105.0	144.0	143.031916326808	10.7110178897947	59815.0	
107.0	144.0	143.371857961036	9.51225864528484	59857.0	
108.0	144.0	143.371857961036	9.51225864528484	59888.0	
110.0	144.0	143.624631178438	8.52477223502021	59930.0	
112.0	144.0	143.624631178438	8.52477223502021	59961.0	
114.0	144.0	143.808935531007	7.04466088697122	60003.0	
115.0	144.0	143.808935531007	7.04466088697122	60034.0	
116.0	144.0	143.940026380911	6.20490089636899	60081.0	
118.0	144.0	143.940026380911	6.20490089636899	60112.0	
119.0	144.0	144.030243952494	5.07248394725728	60154.0	
120.0	144.0	144.030243952494	5.07248394725728	60185.0	
121.0	144.0	144.089483891642	4.22980149032178	60227.0	
122.0	144.0	144.089483891642	4.22980149032178	60258.0	
123.0	144.0	144.12560989479	3.43345845928083	60300.0	
124.0	144.0	144.12560989479	3.43345845928083	60331.0	
125.0	144.0	144.144811091527	2.63135688061667	60373.0	
126.0	144.0	144.144811091527	2.63135688061667	60410.0	
126.0	144.0	144.151908179302	2.17948271892831	60452.0	
127.0	144.0	144.151908179302	2.17948271892831	60487.0	
127.0	144.0	144.150613030262	1.83455154900018	60529.0	
129.0	144.0	144.150613030262	1.83455154900018	60560.0	
129.0	144.0	144.143746785635	1.1709178066161	60602.0	
130.0	144.0	144.143746785635	1.1709178066161	60633.0	
130.0	144.0	144.133421451258	0.725485547868264	60675.0	
131.0	144.0	144.133421451258	0.725485547868264	60706.0	
131.0	144.0	144.121189806924	0.328123737271078	60748.0	
132.0	144.0	144.121189806924	0.328123737271078	60779.0	
132.0	144.0	144.108168115969	-0.0543123747686902	60824.0	
133.0	144.0	144.108168115969	-0.0543123747686902	60858.0	
133.0	64.0	144.095135724203	-14.0397201091704	60900.0	
133.0	64.0	144.095135724203	-14.0397201091704	60931.0	
133.0	64.0	144.382216150011	-22.6378344821663	60973.0	
133.0	64.0	144.382216150011	-22.6378344821663	61004.0	
132.0	64.0	141.373147630272	-27.8758154951827	61046.0	
130.0	64.0	141.373147630272	-27.8758154951827	61077.0	
128.0	64.0	136.275549884424	-30.3034956755942	61119.0	
126.0	64.0	136.275549884424	-30.3034956755942	61150.0	
125.0	64.0	129.981691269452	-31.494107275932	61198.0	
122.0	64.0	129.981691269452	-31.494107275932	61229.0	
119.0	64.0	123.137022609693	-30.971667529959	61271.0	
116.0	64.0	123.137022609693	-30.971667529959	61302.0	
113.0	64.0	116.195923957544	-29.5122206609837	61344.0	
110.0	64.0	116.195923957544	-29.5122206609837	61375.0	
107.0	64.0	109.466663957798	-27.4643651439364	61417.0	
102.0	64.0	109.466663957798	-27.4643651439364	61448.0	
99.0	64.0	103.147341200612	-24.495529333088	61490.0	
95.0	64.0	103.147341200612	-24.495529333088	61526.0	
94.0	64.0	97.354352188875	-21.8164511857521	61567.0	
90.0	64.0	97.354352188875	-21.8164511857521	61598.0	
89.0	64.0	92.1447184418807	-19.1958834592788	61639.0	
86.0	64.0	92.1447184418807	-19.1958834592788	61670.0	
84.0	64.0	87.5334100800058	-16.5971006713127	61712.0	
81.0	64.0	87.5334100800058	-16.5971006713127	61743.0	
80.0	64.0	83.5066271716894	-14.2484855640583	61785.0	
77.0	64.0	83.5066271716894	-14.2484855640583	61816.0	
76.0	64.0	80.0318438788683	-12.0130127364265	61858.0	
74.0	64.0	80.0318438788683	-12.0130127364265	61895.0	
72.0	64.0	77.0652836925601	-9.84366681341819	61937.0	
71.0	64.0	77.0652836925601	-9.84366681341819	61968.0	
70.0	64.0	74.5573758172113	-8.18335410497817	62010.0	
69.0	64.0	74.5573758172113	-8.18335410497817	62041.0	
68.0	64.0	72.4566416406005	-6.7666552256338	62083.0	
67.0	64.0	72.4566416406005	-6.7666552256338	62114.0	
66.0	64.0	70.7123745959724	-5.4978396680467	62155.0	
65.0	64.0	70.7123745959724	-5.4978396680467	62186.0	
65.0	64.0	69.2764048826035	-4.55135168193922	62232.0	
64.0	64.0	69.2764048826035	-4.55135168193922	62264.0	
64.0	64.0	68.1041807705922	-3.76873971251002	62306.0	
63.0	64.0	68.1041807705922	-3.76873971251002	62337.0	
63.0	64.0	67.1553489614435	-3.08636696496613	62379.0	
63.0	64.0	67.1553489614435	-3.08636696496613	62410.0	
63.0	64.0	66.3939762090362	-2.69690701071283	62452.0	
63.0	64.0	66.3939762090362	-2.69690701071283	62483.0	
63.0	64.0	65.7885217636398	-2.45439682852244	62525.0	
63.0	64.0	65.7885217636398	-2.45439682852244	62556.0	
63.0	64.0	65.311643968442	-2.30290633676611	62603.0	
63.0	64.0	65.311643968442	-2.30290633676611	62634.0	
63.0	64.0	64.9399034433855	-2.20778776280838	62675.0	
63.0	64.0	64.9399034433855	-2.20778776280838	62706.0	
63.0	64.0	64.6534088053843	-2.14758641355018	62748.0	
63.0	64.0	64.6534088053843	-2.14758641355018	62779.0	
63.0	64.0	64.4354379987538	-2.10901813134291	62821.0	
63.0	64.0	64.4354379987538	-2.10901813134291	62852.0	
63.0	64.0	64.2720583662309	-2.08385734743739	62894.0	
64.0	64.0	64.2720583662309	-2.08385734743739	62931.0	
64.0	64.0	64.1517610077597	-2.29857638831909	62975.0	
64.0	64.0	64.1517610077597	-2.29857638831909	63006.0	
65.0	64.0	64.065119274385	-2.62847067948356	63048.0	
65.0	64.0	64.065119274385	-2.62847067948356	63079.0	
65.0	64.0	64.0044770335933	-2.80012795026883	63120.0	
65.0	64.0	64.0044770335933	-2.80012795026883	63151.0	
65.0	64.0	63.9636692966517	-2.9076943959309	63193.0	
65.0	64.0	63.9636692966517	-2.9076943959309	63224.0	
66.0	64.0	63.9377756546841	-3.20715846690406	63265.0	
67.0	64.0	63.9377756546841	-3.20715846690406	63296.0	
67.0	64.0	63.9229055161097	-3.59223193260008	63343.0	
68.0	64.0	63.9229055161097	-3.59223193260008	63374.0	
68.0	64.0	63.9160132039537	-4.03187753748192	63416.0	
68.0	64.0	63.9160132039537	-4.03187753748192	63447.0	
68.0	64.0	63.9147404230216	-4.27602662168794	63488.0	
68.0	64.0	63.9147404230216	-4.27602662168794	63519.0	
69.0	64.0	63.9172833385985	-4.66394044105893	63561.0	
69.0	64.0	63.9172833385985	-4.66394044105893	63592.0	
70.0	64.0	63.9222814384154	-5.10817571254762	63634.0	
70.0	64.0	63.9222814384154	-5.10817571254762	63671.0	
71.0	64.0	63.9287254154205	-5.58890407535569	63713.0	
72.0	64.0	63.9287254154205	-5.58890407535569	63744.0	
73.0	64.0	63.9358814629989	-6.32363888898683	63786.0	
73.0	64.0	63.9358814629989	-6.32363888898683	63817.0	
72.0	64.0	63.9432295814154	-6.49755270918141	63859.0	
72.0	64.0	63.9432295814154	-6.49755270918141	63890.0	
72.0	144.0	63.9504137286632	6.93577350356966	63932.0	
72.0	144.0	63.9504137286632	6.93577350356966	63963.0	
72.0	144.0	63.6695492720645	15.3057873051739	64005.0	
72.0	144.0	63.6695492720645	15.3057873051739	64042.0	
73.0	144.0	66.6807207236783	20.360720722755	64084.0	
77.0	144.0	66.6807207236783	20.360720722755	64115.0	
80.0	144.0	71.7775819714309	21.9597438234223	64156.0	
82.0	144.0	71.7775819714309	21.9597438234223	64187.0	
86.0	144.0	78.068831043832	21.8183401380033	64229.0	
90.0	144.0	78.068831043832	21.8183401380033	64260.0	
91.0	144.0	84.909739179264	20.8625806124002	64301.0	
96.0	144.0	84.909739179264	20.8625806124002	64332.0	
98.0	144.0	91.8464559374777	18.8902460048975	64380.0	
103.0	144.0	91.8464559374777	18.8902460048975	64411.0	
104.0	144.0	98.5710922536874	16.5547372052839	64453.0	
108.0	144.0	98.5710922536874	16.5547372052839	64484.0	
109.0	144.0	104.885813480707	14.2103008605482	64526.0	
112.0	144.0	104.885813480707	14.2103008605482	64557.0	
113.0	144.0	110.674399071335	12.0671682673276	64599.0	
115.0	144.0	110.674399071335	12.0671682673276	64630.0	
117.0	144.0	115.8799375039	10.0134976568149	64672.0	
117.0	144.0	115.8799375039	10.0134976568149	64703.0	
118.0	144.0	120.487520083787	8.69782376112625	64750.0	
120.0	144.0	120.487520083787	8.69782376112625	64781.0	
121.0	144.0	124.510973179447	7.33446406784384	64823.0	
122.0	144.0	124.510973179447	7.33446406784384	64854.0	
122.0	144.0	127.982824570881	6.3928294578478	64896.0	
123.0	144.0	127.982824570881	6.3928294578478	64927.0	
123.0	144.0	130.946836220402	5.69077868161959	64969.0	
123.0	144.0	130.946836220402	5.69077868161959	65000.0	
124.0	144.0	133.452553909121	5.12819053654445	65042.0	
124.0	144.0	133.452553909121	5.12819053654445	65079.0	
125.0	144.0	135.551425217815	4.64480529077857	65121.0	
125.0	144.0	135.551425217815	4.64480529077857	65152.0	
126.0	144.0	137.294122886391	4.20459080663286	65194.0	
126.0	144.0	137.294122886391	4.20459080663286	65225.0	
126.0	144.0	138.728782363076	3.99554605613914	65267.0	
126.0	144.0	138.728782363076	3.99554605613914	65298.0	
127.0	144.0	139.899922041268	3.72799429527582	65340.0	
127.0	144.0	139.899922041268	3.72799429527582	65371.0	
127.0	144.0	140.847863891361	3.61271215520527	65419.0	
127.0	144.0	140.847863891361	3.61271215520527	65453.0	
127.0	144.0	141.608512424689	3.60131976040615	65495.0	
127.0	144.0	141.608512424689	3.60131976040615	65526.0	
127.0	144.0	142.213382538112	3.65114829501414	65568.0	
128.0	144.0	142.213382538112	3.65114829501414	65599.0	
129.0	144.0	142.689792996059	3.34469345788974	65641.0	
129.0	144.0	142.689792996059	3.34469345788974	65672.0	
129.0	144.0	143.061163181438	3.16837547428679	65714.0	
129.0	144.0	143.061163181438	3.16837547428679	65745.0	
130.0	144.0	143.347367216375	2.91748361332918	65791.0	
130.0	144.0	143.347367216375	2.91748361332918	65824.0	
130.0	144.0	143.565112416268	2.79010067969272	65866.0	
130.0	144.0	143.565112416268	2.79010067969272	65897.0	
130.0	144.0	143.728318973967	2.75832191652699	65939.0	
130.0	144.0	143.728318973967	2.75832191652699	65970.0	
130.0	144.0	143.848485346348	2.78295060787388	66012.0	
130.0	144.0	143.848485346348	2.78295060787388	66043.0	
130.0	144.0	143.935029509303	2.84056386664627	66085.0	
131.0	144.0	143.935029509303	2.84056386664627	66116.0	
131.0	144.0	143.995600453662	2.73307170247887	66164.0	
131.0	144.0	143.995600453662	2.73307170247887	66195.0	
131.0	144.0	144.03635733691	2.67728590145702	66237.0	
131.0	144.0	144.03635733691	2.67728590145702	66268.0	
131.0	144.0	144.062215846891	2.68246675308663	66310.0	
131.0	144.0	144.062215846891	2.68246675308663	66341.0	
132.0	144.0	144.07706278601	2.54351107811439	66383.0	
132.0	144.0	144.07706278601	2.54351107811439	66414.0	
132.0	144.0	144.083940817306	2.46173242450407	66456.0	
133.0	144.0	144.083940817306	2.46173242450407	66493.0	
132.0	144.0	144.085205861477	2.44727020762382	66535.0	
132.0	144.0	144.085205861477	2.44727020762382	66566.0	
133.0	144.0	144.082659901727	2.29623297580437	66608.0	
133.0	144.0	144.082659901727	2.29623297580437	66639.0	
133.0	144.0	144.077662022943	2.20062858363215	66681.0	
133.0	144.0	144.077662022943	2.20062858363215	66712.0	
132.0	144.0	144.071220445809	2.34621339785464	66754.0	
132.0	144.0	144.071220445809	2.34621339785464	66785.0	
132.0	144.0	144.064068162312	2.50524288038216	66832.0	
132.0	144.0	144.064068162312	2.50524288038216	66864.0	
131.0	144.0	144.056724572065	2.79909758616875	66906.0	
130.0	64.0	144.056724572065	2.79909758616875	66937.0	
131.0	64.0	144.04954528457	-11.2876776699986	66979.0	
130.0	64.0	144.04954528457	-11.2876776699986	67010.0	
130.0	64.0	143.756489826921	-19.6909643884397	67052.0	
129.0	64.0	143.756489826921	-19.6909643884397	67083.0	
128.0	64.0	140.383659616132	-24.4329542449139	67125.0	
127.0	64.0	140.383659616132	-24.4329542449139	67156.0	
125.0	64.0	135.081755427933	-26.8417698199306	67204.0	
123.0	64.0	135.081755427933	-26.8417698199306	67235.0	
121.0	64.0	128.698560070814	-27.6630643014864	67277.0	
120.0	64.0	128.698560070814	-27.6630643014864	67308.0	
117.0	64.0	121.845140756682	-27.470139742103	67350.0	
112.0	64.0	121.845140756682	-27.470139742103	67381.0	
110.0	64.0	114.949631484454	-26.2110243996958	67423.0	
108.0	64.0	114.949631484454	-26.2110243996958	67454.0	
106.0	64.0	108.300552202815	-24.5304969103101	67496.0	
102.0	64.0	108.300552202815	-24.5304969103101	67533.0	
99.0	64.0	102.081392479405	-22.3654563331621	67575.0	
98.0	64.0	102.081392479405	-22.3654563331621	67606.0	
95.0	64.0	96.3979651401633	-20.1190591392834	67648.0	
91.0	64.0	96.3979651401633	-20.1190591392834	67679.0	
90.0	64.0	91.29982647053	-17.8821029493189	67721.0	
88.0	64.0	91.29982647053	-17.8821029493189	67752.0	
85.0	64.0	86.7968679892898	-15.5749220323148	67793.0	
84.0	64.0	86.7968679892898	-15.5749220323148	67824.0	
82.0	64.0	82.8720124396536	-13.488045095965	67872.0	
80.0	64.0	82.8720124396536	-13.488045095965	67905.0	
78.0	64.0	79.4907940146552	-11.5337972949137	67946.0	
76.0	64.0	79.4907940146552	-11.5337972949137	67977.0	
75.0	64.0	76.6084695096661	-9.71836618349224	68019.0	
73.0	64.0	76.6084695096661	-9.71836618349224	68050.0	
72.0	64.0	74.17519201346	-8.05207533485357	68092.0	
71.0	64.0	74.17519201346	-8.05207533485357	68122.0	
70.0	64.0	72.1396804737346	-6.6015894740109	68163.0	
69.0	64.0	72.1396804737346	-6.6015894740109	68194.0	
68.0	64.0	70.4517353712029	-5.34701325568099	68235.0	
67.0	64.0	70.4517353712029	-5.34701325568099	68272.0	
66.0	64.0	69.063881110471	-4.20914126405167	68314.0	
65.0	64.0	69.063881110471	-4.20914126405167	68345.0	
65.0	64.0	67.9323579117038	-3.26669042985093	68386.0	
65.0	64.0	67.9323579117038	-3.26669042985093	68417.0	
64.0	64.0	67.0176383727901	-2.50835567079817	68459.0	
64.0	64.0	67.0176383727901	-2.50835567079817	68490.0	
64.0	64.0	66.284604994297	-1.98576384079098	68532.0	
63.0	64.0	66.284604994297	-1.98576384079098	68563.0	
63.0	64.0	65.7024934840282	-1.54602310034696	68609.0	
63.0	64.0	65.7024934840282	-1.54602310034696	68641.0	
63.0	64.0	65.2446813953139	-1.21463745305326	68683.0	
63.0	64.0	65.2446813953139	-1.21463745305326	68714.0	
63.0	64.0	64.8883815590986	-1.01505997778514	68756.0	
63.0	64.0	64.8883815590986	-1.01505997778514	68787.0	
63.0	64.0	64.6142839390211	-0.894662107990222	68829.0	
63.0	64.0	64.6142839390211	-0.894662107990222	68860.0	
63.0	64.0	64.4061771945935	-0.821826069851297	68902.0	
63.0	64.0	64.4061771945935	-0.821826069851297	68933.0	
63.0	64.0	64.2505717212243	-0.777560203299518	68981.0	
64.0	64.0	64.2505717212243	-0.777560203299518	69012.0	
63.0	64.0	64.1363386930103	-0.75045722047428	69054.0	
63.0	64.0	64.1363386930103	-0.75045722047428	69085.0	
64.0	64.0	64.0543742031127	-0.859649477878954	69126.0	
64.0	64.0	64.0543742031127	-0.859649477878954	69158.0	
64.0	64.0	63.997293595541	-0.991926046269414	69199.0	
64.0	64.0	63.997293595541	-0.991926046269414	69230.0	
64.0	64.0	63.9591581986937	-1.07138299692935	69271.0	
64.0	64.0	63.9591581986937	-1.07138299692935	69308.0	
65.0	64.0	63.9352346510779	-1.24536803273284	69350.0	
65.0	64.0	63.9352346510779	-1.24536803273284	69381.0	
65.0	64.0	63.9217856487343	-1.4169028627556	69423.0	
65.0	64.0	63.9217856487343	-1.4169028627556	69454.0	
65.0	64.0	63.9158900787195	-1.5204603703142	69495.0	
65.0	64.0	63.9158900787195	-1.5204603703142	69526.0	
65.0	64.0	63.9152900044271	-1.58318613383876	69567.0	
65.0	64.0	63.9152900044271	-1.58318613383876	69598.0	
66.0	64.0	63.9182617354177	-1.74782713635921	69640.0	
66.0	64.0	63.9182617354177	-1.74782713635921	69677.0	
66.0	64.0	63.9235081684676	-1.91420417523138	69719.0	
66.0	64.0	63.9235081684676	-1.91420417523138	69750.0	
67.0	64.0	63.9300696677944	-2.14189888768028	69792.0	
67.0	64.0	63.9300696677944	-2.14189888768028	69823.0	
67.0	64.0	63.9372509156674	-2.34657981787517	69865.0	
