114,0	155,0	0,0	60,0	
115,0	155,0	-2,08254563175262	60,0	
120,0	155,0	17,9285906676105	57,2406603323129	
127,0	155,0	45,1612375508479	47,7808760796966	
136,0	155,0	71,9955203319081	34,4809448756229	
142,0	155,0	95,0737576471542	23,526629688929	
148,0	155,0	113,393772192345	13,5864348998727	
153,0	155,0	127,141370112398	4,95976348559173	
157,0	155,0	137,009347523974	-2,09869614723309	
158,0	155,0	143,825070116703	-5,26829754362201	
159,0	155,0	148,365829296085	-7,15716681240478	
160,0	155,0	151,282868493678	-8,82477579945672	
159,0	155,0	153,08418154644	-8,17751340047948	
158,0	155,0	154,145911957235	-6,72440538509102	
158,0	155,0	154,735034600518	-6,27040199575661	
156,0	155,0	155,034063574501	-3,91532172884653	
155,0	155,0	155,163372773025	-1,96420645124591	
155,0	155,0	155,19947193592	-1,42416693869261	
155,0	155,0	155,189035609946	-1,33086929110672	
155,0	155,0	155,159160598343	-1,31475111670888	
155,0	155,0	155,124567620067	-1,31196652832278	
155,0	155,0	155,092474967338	-1,31148546066034	
155,0	155,0	155,065780318026	-1,3114023510356	
155,0	155,0	155,045061026448	-1,31138799295197	
155,0	155,0	155,029778851219	-1,31138551243824	
155,0	155,0	155,018967952127	-1,31138508390276	
155,0	155,0	155,011599860416	-1,31138500986864	
155,0	155,0	155,006755196159	-1,31138499707844	
155,0	155,0	155,003685987598	-1,3113849948688	
155,0	155,0	155,0018207131	-1,31138499448706	
155,0	155,0	155,000743032484	-1,31138499442113	
155,0	155,0	155,000161576929	-1,31138499440973	
155,0	155,0	154,999879764341	-1,31138499440777	
155,0	155,0	154,999769650562	-1,31138499440743	
155,0	155,0	154,999751073405	-1,31138499440737	
155,0	155,0	154,999775946532	-1,31138499440734	
156,0	155,0	154,999816952539	-2,44970813796044	
155,0	155,0	154,999859712712	-1,71100590365431	
155,0	155,0	154,999897557003	-1,38042381451628	
156,0	155,0	154,999928155196	-2,46163533839401	
156,0	155,0	154,999951430343	-2,8513895996612	
156,0	155,0	154,999968324361	-2,91872384996613	
156,0	155,0	154,999980109642	-2,93035656759024	
156,0	155,0	154,999988036867	-2,93236624496409	
156,0	155,0	154,999993180243	-2,93271343839537	
155,0	155,0	154,999996391768	-1,79445027625037	
155,0	155,0	154,999998310379	-1,3948397294383	
155,0	155,0	154,999999394456	-1,32580269955169	
155,0	155,0	154,999999960444	-1,31387580839833	
155,0	155,0	155,000000219064	-1,31181530937604	
155,0	155,0	155,00000030562	-1,31145933595712	
155,0	155,0	155,000000303617	-1,31139783771149	
155,0	155,0	155,00000026224	-1,31138721322659	
155,0	155,0	155,000000208755	-1,3113853777323	
155,0	155,0	155,000000156982	-1,31138506063086	
155,0	155,0	155,000000112877	-1,31138500584816	
156,0	155,0	155,000000078086	-2,44970813993697	
156,0	155,0	155,000000052101	-2,84932904754886	
155,0	155,0	155,000000033524	-1,78004472382223	
156,0	155,0	155,000000020739	-2,53067415851313	
155,0	75,0	155,000000012251	-60,0	
155,0	75,0	156,074862268368	-60,0	
153,0	75,0	145,746533852452	-60,0	
147,0	75,0	131,690974168823	-60,0	
141,0	75,0	117,841021764615	-60,0	
134,0	75,0	105,929673472334	-60,0	
126,0	75,0	96,4741820939422	-60,0	
119,0	75,0	89,3786476835339	-60,0	
112,0	75,0	84,2854980517789	-60,0	
104,0	75,0	80,7677057459143	-51,4115779325161	
95,0	75,0	78,4240881050101	-38,0592206247528	
88,0	75,0	76,9185194869593	-25,9575251199238	
82,0	75,0	75,9888095242944	-15,6161446970724	
76,0	75,0	75,440819634891	-5,78184099609551	
71,0	75,0	75,1367563351607	2,8265365911812	
67,0	75,0	74,9824188002225	9,88183576817796	
67,0	75,0	74,9156785687399	11,9125680181988	
68,0	75,0	74,8970467427386	11,1250757627561	
69,0	75,0	74,9024332335697	9,64774152794216	
71,0	75,0	74,9178525944003	6,91290651092973	
72,0	75,0	74,9357070348027	4,89618450637573	
74,0	75,0	74,9522709845995	2,06816443737436	
76,0	75,0	74,9660488681161	-1,10297943302735	
76,0	75,0	74,9767426960273	-2,0567553519951	
76,0	75,0	74,9846302703393	-2,22153042399503	
76,0	75,0	74,9902100892253	-2,24999709400905	
76,0	75,0	74,9940129752697	-2,25491501813345	
76,0	75,0	74,9965134471443	-2,25576464254268	
76,0	75,0	74,9980975547885	-2,25591142431857	
76,0	75,0	74,99906027711	-2,25593678245271	
76,0	75,0	74,999616499363	-2,25594116334375	
75,0	75,0	74,9999166054562	-1,11761877663684	
75,0	75,0	75,0000620571141	-0,717997998143201	
75,0	75,0	75,0001188900323	-0,64895920062332	
74,0	75,0	75,0001284782426	0,501291139460822	
74,0	75,0	75,0001156404995	0,902972600487384	
74,0	75,0	75,0000944761092	0,972367403129621	
75,0	75,0	75,0000724063422	-0,153967040169665	
75,0	75,0	75,0000528738049	-0,551516772205897	
75,0	75,0	75,0000370811892	-0,620197774123749	
75,0	75,0	75,00002506821	-0,632063157607416	
75,0	75,0	75,0000163487172	-0,634113030516712	
75,0	75,0	75,0000102659912	-0,634467168160054	
74,0	75,0	75,0000061745206	0,503794794297423	
74,0	75,0	75,0000035198748	0,90340513385058	
75,0	75,0	75,0000018623134	-0,165881015622123	
75,0	75,0	75,0000008720625	-0,553575039901642	
76,0	75,0	75,0000003125389	-1,75887650561003	
75,0	75,0	75,0000000204162	-1,03174549850319	
75,0	75,0	74,9999998869348	-0,703162463605221	
76,0	75,0	74,9999998422607	-1,78471934565334	
76,0	75,0	74,9999998432947	-2,17453327126753	
75,0	75,0	74,9999998646505	-1,10355468567851	
75,0	75,0	74,9999998922555	-0,71556827481491	
75,0	75,0	74,9999999189772	-0,648539439725195	
75,0	75,0	74,9999999417409	-0,636959485871952	
75,0	75,0	74,9999999596978	-0,634958924008341	
75,0	75,0	74,999999973109	-0,634613305379727	
74,0	75,0	74,9999999826974	0,503769547517326	
75,0	75,0	74,9999999892963	-0,234922371355939	
75,0	75,0	74,9999999936771	-0,565502678391749	
75,0	155,0	74,9999999964811	60,0	
75,0	155,0	73,9251377366556	60,0	
80,0	155,0	84,2534661502412	60,0	
88,0	155,0	98,3090258324692	60,0	
96,0	155,0	112,158978235877	60,0	
104,0	155,0	124,070326527735	60,0	
114,0	155,0	133,525817905927	60,0	
120,0	155,0	140,621352316264	57,4436236470368	
128,0	155,0	145,714501948014	46,6776170367692	
137,0	155,0	149,232294253904	32,9490585242078	
143,0	155,0	151,575911894844	21,9206933492382	
148,0	155,0	153,08148051293	13,1060287699786	
154,0	155,0	154,011190475625	3,73844500417339	
157,0	155,0	154,559180365053	-2,51265539581158	
158,0	155,0	154,863243664802	-5,33981346642217	
159,0	155,0	155,017581199753	-7,16952195903219	
159,0	155,0	155,084321431245	-7,68858714067579	
158,0	155,0	155,102953257252	-6,63993810293422	
158,0	155,0	155,097566766425	-6,25580936218069	
157,0	155,0	155,082147405597	-5,05112383763626	
156,0	155,0	155,064292965196	-3,50171496811306	
155,0	155,0	155,0477290154	-1,89275142452091	
155,0	155,0	155,033951131884	-1,41182231251869	
155,0	155,0	155,023257303973	-1,32873662385631	
155,0	155,0	155,015369729661	-1,31438267545055	
154,0	155,0	155,009789910775	-0,173579732570396	
154,0	155,0	155,005987024731	0,226469588743328	
154,0	155,0	155,003486552856	0,295582421655212	
154,0	155,0	155,001902445212	0,307522408598373	
155,0	155,0	155,00093972289	-0,82873797349356	
154,0	155,0	155,000383500637	-0,0896793749078242	
155,0	155,0	155,000083394544	-0,897358863551858	
155,0	155,0	154,999937942886	-1,23985751697281	
155,0	155,0	154,999881109968	-1,29902785159228	
155,0	155,0	154,999871521757	-1,30925016477223	
154,0	155,0	154,999884359501	-0,172693036020654	
154,0	155,0	154,999905523891	0,226622775131148	
154,0	155,0	154,999927593658	0,295608886255081	
154,0	155,0	154,999947126195	0,307526980643274	
155,0	155,0	154,999962918811	-0,828737183623531	
154,0	155,0	154,99997493179	-0,0896792384492571	
154,0	155,0	154,999983651283	0,240964303575936	
154,0	155,0	154,999989734009	0,298086539900027	
154,0	155,0	154,999993825479	0,307955022020309	
154,0	155,0	154,999996480125	0,309659908691884	
154,0	155,0	154,999998137687	0,30995444624358	
155,0	155,0	154,999999127938	-0,828317812772241	
155,0	155,0	154,999999687461	-1,22792993116683	
155,0	155,0	154,999999979584	-1,29696723256125	
155,0	155,0	155,000000113065	-1,30889417062053	
155,0	155,0	155,000000157739	-1,31095467774633	
155,0	155,0	155,000000156705	-1,31131065256522	
155,0	155,0	155,000000135349	-1,31137215105269	
155,0	155,0	155,000000107744	-1,31138277557937	
155,0	155,0	155,000000081023	-1,3113846110809	
155,0	155,0	155,000000058259	-1,31138492818356	
155,0	155,0	155,000000040302	-1,31138498296647	
155,0	155,0	155,000000026891	-1,31138499243081	
155,0	155,0	155,000000017303	-1,31138499406588	
155,0	155,0	155,000000010704	-1,31138499434837	
155,0	155,0	155,000000006323	-1,31138499439717	
155,0	75,0	155,000000003519	-60,0	
155,0	75,0	156,074862263344	-60,0	
151,0	75,0	145,746533849759	-60,0	
145,0	75,0	131,690974167531	-60,0	
138,0	75,0	117,841021764123	-60,0	
130,0	75,0	105,929673472265	-60,0	
123,0	75,0	96,4741820940725	-60,0	
115,0	75,0	89,3786476837357	-60,0	
108,0	75,0	84,2854980519859	-56,5737604509004	
99,0	75,0	80,7677057460959	-44,3161891378298	
91,0	75,0	78,4240881051562	-31,2653065721613	
84,0	75,0	76,91851948707	-19,4186573937439	
78,0	75,0	75,9888095243745	-9,12133897325799	
73,0	75,0	75,4408196349467	-0,432970601744778	
70,0	75,0	75,136756335198	5,49782470200106	
69,0	75,0	74,9824188002466	8,2696466142487	
68,0	75,0	74,9156785687549	10,0897951889607	
69,0	75,0	74,8970467427475	9,46888564817548	
71,0	75,0	74,9024332335747	6,88200722957854	
72,0	75,0	74,9178525944029	4,89084632241853	
74,0	75,0	74,9357070348039	2,06724220854849	
74,0	75,0	74,9522709845998	1,17350752910722	
75,0	75,0	74,966048868116	-0,119217915054509	
76,0	75,0	74,9767426960271	-1,68383662978907	
76,0	75,0	74,984630270339	-2,15710469455522	
76,0	75,0	74,990210089225	-2,23886685471911	
76,0	75,0	74,9940129752694	-2,2529921493087	
75,0	75,0	74,9965134471441	-1,117109302671	
76,0	75,0	74,9980975547884	-1,8562331245764	
75,0	75,0	74,9990602771099	-1,04856490396397	
75,0	75,0	74,9996164993629	-0,706068197216947	
75,0	75,0	74,9999166054562	-0,646898198906381	
75,0	75,0	75,0000620571141	-0,636675943827424	
75,0	75,0	75,0001188900323	-0,634909939063473	
75,0	75,0	75,0001284782426	-0,634604842702427	
75,0	75,0	75,0001156404995	-0,634552134017024	
74,0	75,0	75,0000944761092	0,503780115529683	
75,0	75,0	75,0000724063422	-0,234920545617872	
74,0	75,0	75,0000528738049	0,572820780577264	
75,0	75,0	75,0000370811892	-0,222993026451267	
75,0	75,0	75,00002506821	-0,563441755457443	
75,0	75,0	75,0000163487172	-0,622257943535441	
75,0	75,0	75,0000102659912	-0,632419074082545	
75,0	75,0	75,0000061745206	-0,634174518924677	
75,0	75,0	75,0000035198748	-0,634477790945393	
74,0	75,0	75,0000018623134	0,503792959096746	
73,0	75,0	75,0000008720625	2,04172796035295	
73,0	75,0	75,0000003125389	2,51038612595707	
74,0	75,0	75,0000000204162	1,4530287327915	
74,0	75,0	74,9999998869348	1,06739552975972	
74,0	75,0	74,9999998422607	1,00077323669124	
75,0	75,0	74,9999998432947	-0,149059626198255	
75,0	75,0	74,9999998646505	-0,550668963538907	
76,0	75,0	74,9999998922555	-1,75837444958996	
76,0	75,0	74,9999999189772	-2,16998190646648	
76,0	75,0	74,9999999417409	-2,24109153189709	
76,0	75,0	74,9999999596978	-2,2533764862739	
76,0	75,0	74,999999973109	-2,25549884457809	
