0.0	53.6608776515568	7.0	
0.0	53.6608776515568	31.0	
0.0	53.6608776515568	55.0	
-4.87737659665092	35.3040135479196	80.0	
-4.87737659665092	35.3040135479196	107.0	
1.05804397484392	26.16322192117	135.0	
1.05804397484392	26.16322192117	162.0	
14.0014911565911	21.6115691393041	190.0	
14.0014911565911	21.6115691393041	217.0	
31.1247125044291	19.345075831871	245.0	
31.1247125044291	19.345075831871	272.0	
50.366350374487	18.2312465092519	300.0	
50.366350374487	18.2312465092519	327.0	
70.2609539547565	17.4194948825213	355.0	
70.2609539547565	17.4194948825213	382.0	
89.8006864144597	17.2576344775757	410.0	
89.8006864144597	17.2576344775757	441.0	
108.324445145523	17.1770361669995	474.0	
108.324445145523	17.1770361669995	501.0	
125.429764424952	17.1369022771213	529.0	
125.429764424952	17.1369022771213	556.0	
140.903490652265	17.1169176260133	584.0	
140.903490652265	17.1169176260133	611.0	
154.667795961597	17.1069662786329	639.0	
154.667795961597	17.1069662786329	666.0	
166.738618457293	17.1020110100044	694.0	
166.738618457293	17.1020110100044	721.0	
177.19408332246	17.0995435363808	749.0	
177.19408332246	17.0995435363808	776.0	
186.15086867141	17.09831485908	804.0	
186.15086867141	17.09831485908	830.0	
193.746835550948	17.0977030398107	858.0	
193.746835550948	17.0977030398107	885.0	
200.128546631752	17.0973983847006	913.0	
200.128546631752	17.0973983847006	940.0	
205.44255734884	17.0972466818355	968.0	
205.44255734884	17.0972466818355	1000.0	
209.829581379183	17.097171141467	1028.0	
209.829581379183	17.097171141467	1055.0	
213.420814257227	17.0971335261769	1083.0	
213.420814257227	17.0971335261769	1110.0	
216.335849332317	17.0971147956613	1138.0	
216.335849332317	17.0971147956613	1165.0	
218.681743574094	17.0971054688102	1193.0	
218.681743574094	17.0971054688102	1220.0	
220.552890965969	17.0971008245091	1248.0	
220.552890965969	17.0971008245091	1275.0	
222.031442013384	17.0970985118816	1303.0	
222.031442013384	17.0970985118816	1330.0	
223.188072433225	17.0970973603099	1358.0	
223.188072433225	17.0970973603099	1385.0	
224.082955174747	17.1118667135553	1413.0	
224.082955174747	17.1118667135553	1440.0	
224.766829956707	16.8621002531397	1468.0	
224.766829956707	16.8621002531397	1495.0	
225.282095542128	16.9948500173808	1523.0	
225.282095542128	16.9948500173808	1550.0	
225.663873744609	16.8038318457176	1578.0	
225.663873744609	16.8038318457176	1605.0	
225.941012118621	16.9658352920083	1639.0	
225.941012118621	16.9658352920083	1666.0	
226.137005634519	16.7893839772124	1694.0	
226.137005634519	16.7893839772124	1721.0	
226.270827366604	16.9438710561844	1749.0	
226.270827366604	16.9438710561844	1776.0	
226.35766513719	17.0207978226483	1804.0	
226.35766513719	17.0207978226483	1831.0	
226.409565813961	17.0591034689066	1859.0	
226.409565813961	17.0591034689066	1886.0	
226.43599207574	17.0781777469858	1914.0	
226.43599207574	17.0781777469858	1941.0	
226.444298358855	17.0876757745556	1969.0	
226.444298358855	17.0876757745556	1996.0	
226.440133700013	17.0924053128031	2024.0	
226.440133700013	17.0924053128031	2051.0	
226.427779556718	17.1095303107623	2079.0	
226.427779556718	17.1095303107623	2106.0	
226.410430609109	16.8609368424957	2134.0	
226.410430609109	16.8609368424957	2161.0	
226.390426176579	16.9795007709418	2189.0	
226.390426176579	16.9795007709418	2216.0	
226.369439330308	17.0385396219272	2250.0	
226.369439330308	17.0385396219272	2277.0	
226.348630130816	17.0679379893005	2305.0	
226.348630130816	17.0679379893005	2332.0	
226.328768726765	17.097346818825	2360.0	
226.328768726765	17.097346818825	2387.0	
226.310333358522	16.8548700785617	2415.0	
226.310333358522	16.8548700785617	2442.0	
226.293587645068	16.9764798287669	2470.0	
226.293587645068	16.9764798287669	2497.0	
226.278640912901	17.0370353452282	2526.0	
226.278640912901	17.0370353452282	2553.0	
226.265494760602	17.0671889354438	2581.0	
226.265494760602	17.0671889354438	2608.0	
226.254078546921	17.0969738278183	2642.0	
226.254078546921	17.0969738278183	2669.0	
226.244276044421	16.8546843478699	2697.0	
226.244276044421	16.8546843478699	2724.0	
226.235945112598	16.9763873442585	2752.0	
226.235945112598	16.9763873442585	2779.0	
226.228931910644	17.0517592192819	2807.0	
226.228931910644	17.0517592192819	2834.0	
226.22308088578	16.8321697553565	2862.0	
226.22308088578	16.8321697553565	2889.0	
226.218241533486	16.9651762137754	2917.0	
226.218241533486	16.9651762137754	2944.0	
226.214272725688	17.031406715595	2972.0	
226.214272725688	17.031406715595	2999.0	
226.211045237157	17.0643861620327	3027.0	
226.211045237157	17.0643861620327	3054.0	
226.208442964086	17.08080826148	3082.0	
226.208442964086	17.08080826148	3109.0	
226.206363217939	17.0889856379793	3137.0	
226.206363217939	17.0889856379793	3164.0	
226.204716388029	17.0930575586632	3192.0	
226.204716388029	17.0930575586632	3225.0	
226.20342519459	17.0950851696037	3253.0	
226.20342519459	17.0950851696037	3280.0	
226.202423697244	17.0960948174937	3308.0	
226.202423697244	17.0960948174937	3335.0	
226.201656179067	17.1113674978435	3363.0	
226.201656179067	17.1113674978435	3390.0	
226.201075991759	16.8618516689167	3418.0	
226.201075991759	16.8618516689167	3445.0	
226.200644420742	16.9947262349869	3473.0	
226.200644420742	16.9947262349869	3500.0	
226.200329608821	16.8037702083343	3528.0	
226.200329608821	16.8037702083343	3555.0	
226.200105561927	16.951034673033	3583.0	
226.200105561927	16.951034673033	3610.0	
226.199951249484	17.0391348688729	3638.0	
226.199951249484	17.0391348688729	3665.0	
226.19984980397	16.8258834661592	3693.0	
226.19984980397	16.8258834661592	3720.0	
226.19978781884	16.9620459591015	3748.0	
226.19978781884	16.9620459591015	3775.0	
226.199754740303	17.0298480067899	3809.0	
226.199754740303	17.0298480067899	3836.0	
226.199742346195	17.0636100037349	3864.0	
226.199742346195	17.0636100037349	3891.0	
226.199744303982	17.0951917005	3919.0	
226.199744303982	17.0951917005	3946.0	
226.199755799358	16.8685668651013	3974.0	
226.199755799358	16.8685668651013	4001.0	
226.199773226952	-1.28816250613466	4029.0	
226.199773226952	-1.28816250613466	4056.0	
227.926928618382	-10.0869462133407	4085.0	
227.926928618382	-10.0869462133407	4112.0	
225.825150576665	-14.4682963166229	4141.0	
225.825150576665	-14.4682963166229	4168.0	
221.241750420373	-16.6499874873935	4197.0	
221.241750420373	-16.6499874873935	4224.0	
215.178243704152	-17.7363595536323	4253.0	
215.178243704152	-17.7363595536323	4280.0	
208.364580115966	-18.2773180000503	4309.0	
208.364580115966	-18.2773180000503	4336.0	
201.319692180859	-18.5466879975358	4365.0	
201.319692180859	-18.5466879975358	4392.0	
194.400466269326	-18.6660507311944	4426.0	
194.400466269326	-18.6660507311944	4453.0	
187.841006332347	-18.982608199591	4482.0	
187.841006332347	-18.982608199591	4509.0	
181.783830133603	-18.8978869122302	4537.0	
181.783830133603	-18.8978869122302	4564.0	
176.304417908581	-18.8556999880506	4593.0	
176.304417908581	-18.8556999880506	4620.0	
171.430329538023	-18.8199231028324	4649.0	
171.430329538023	-18.8199231028324	4676.0	
167.155921318368	-19.0592288728343	4705.0	
167.155921318368	-19.0592288728343	4732.0	
163.453528395957	-18.9212702128469	4761.0	
163.453528395957	-18.9212702128469	4788.0	
160.281833880441	-19.0949246907156	4817.0	
160.281833880441	-19.0949246907156	4844.0	
157.592019754367	-19.1961657808854	4873.0	
157.592019754367	-19.1961657808854	4900.0	
155.332186643887	-18.9894578801652	4929.0	
155.332186643887	-18.9894578801652	4956.0	
153.450437723696	-19.1288787067693	4985.0	
153.450437723696	-19.1288787067693	5012.0	
151.89694478746	-19.213073166803	5047.0	
151.89694478746	-19.213073166803	5074.0	
150.625250097733	-19.0126468314984	5102.0	
150.625250097733	-19.0126468314984	5129.0	
149.593004369907	-18.8980747078306	5158.0	
149.593004369907	-18.8980747078306	5185.0	
148.762297582185	-19.09814442685	5214.0	
148.762297582185	-19.09814442685	5241.0	
148.099703809554	-18.9554181208698	5269.0	
148.099703809554	-18.9554181208698	5296.0	
147.576132672345	-18.8843476256449	5325.0	
147.576132672345	-18.8843476256449	5352.0	
147.166557135751	-18.8341881801555	5381.0	
147.166557135751	-18.8341881801555	5408.0	
146.849669307283	-19.0663321612072	5437.0	
146.849669307283	-19.0663321612072	5464.0	
146.60750170255	-18.9395772185362	5493.0	
146.60750170255	-18.9395772185362	5520.0	
146.425040459272	-18.8616897292981	5548.0	
146.425040459272	-18.8616897292981	5575.0	
146.289848561386	-19.0800265443386	5609.0	
146.289848561386	-19.0800265443386	5636.0	
146.191710775735	-18.9463963300116	5665.0	
146.191710775735	-18.9463963300116	5692.0	
146.122307277103	-18.8650853025684	5721.0	
146.122307277103	-18.8650853025684	5748.0	
146.074919492662	-19.0669474417408	5777.0	
146.074919492662	-19.0669474417408	5804.0	
146.044169248396	-19.182234523252	5833.0	
146.044169248396	-19.182234523252	5860.0	
146.025790616463	-18.9972907438159	5888.0	
146.025790616463	-18.9972907438159	5915.0	
146.016432758428	-18.9051980780454	5944.0	
146.016432758428	-18.9051980780454	5971.0	
146.013491387505	-18.859340579542	6000.0	
146.013491387505	-18.859340579542	6027.0	
146.014966117537	-18.8365058602797	6055.0	
146.014966117537	-18.8365058602797	6082.0	
146.019340837116	-18.8251353228364	6111.0	
146.019340837116	-18.8251353228364	6138.0	
146.025484274601	-18.8194733692006	6167.0	
146.025484274601	-18.8194733692006	6194.0	
146.03256805098	-18.8166540021184	6228.0	
146.03256805098	-18.8166540021184	6255.0	
146.039999713055	-18.8152500996397	6283.0	
146.039999713055	-18.8152500996397	6310.0	
146.047368470354	-18.8145510270775	6339.0	
146.047368470354	-18.8145510270775	6366.0	
146.0544016045	-18.8142029242323	6395.0	
146.0544016045	-18.8142029242323	6422.0	
146.060929765077	-18.7992596599185	6450.0	
146.060929765077	-18.7992596599185	6477.0	
146.066859601486	-19.0341695947315	6506.0	
146.066859601486	-19.0341695947315	6533.0	
146.072152399819	-19.1511428834727	6562.0	
146.072152399819	-19.1511428834727	6589.0	
146.076807593832	-19.2093896761843	6618.0	
146.076807593832	-19.2093896761843	6645.0	
146.080850198223	-19.2531635651922	6674.0	
146.080850198223	-19.2531635651922	6701.0	
146.084321370282	-19.0326098260404	6730.0	
146.084321370282	-19.0326098260404	6757.0	
146.087271443421	-18.9227851980044	6786.0	
146.087271443421	-18.9227851980044	6813.0	
146.089754894272	-18.8680980774432	6847.0	
146.089754894272	-18.8680980774432	6874.0	
146.091826805714	-18.8408666521358	6903.0	
146.091826805714	-18.8408666521358	6930.0	
146.093540472993	-18.8125368503679	6959.0	
146.093540472993	-18.8125368503679	6986.0	
146.094945871061	-19.0407809653121	7015.0	
146.094945871061	-19.0407809653121	7042.0	
146.096088759956	-19.1544350122646	7071.0	
146.096088759956	-19.1544350122646	7098.0	
146.097010253279	-19.2110289901284	7127.0	
146.097010253279	-19.2110289901284	7154.0	
146.097746714146	-19.25397986078	7183.0	
146.097746714146	-19.25397986078	7210.0	
146.098329874667	-19.0330163000346	7238.0	
146.098329874667	-19.0330163000346	7265.0	
146.098787100441	-18.9229876015338	7294.0	
146.098787100441	-18.9229876015338	7321.0	
146.099141741669	-18.8681988641831	7355.0	
146.099141741669	-18.8681988641831	7382.0	
146.099413528318	-18.8409168388443	7411.0	
146.099413528318	-18.8409168388443	7438.0	
146.099618979058	-18.8273317674852	7467.0	
146.099618979058	-18.8273317674852	7494.0	
146.09977180314	-18.8205670877541	7523.0	
146.09977180314	-18.8205670877541	7550.0	
146.099883281545	-18.8024286920746	7578.0	
146.099883281545	-18.8024286920746	7605.0	
146.099962619056	-19.0505175394352	7634.0	
146.099962619056	-19.0505175394352	7661.0	
146.100017262829	-18.9169324085824	7690.0	
146.100017262829	-18.9169324085824	7717.0	
146.100053185839	-19.1075346098442	7746.0	
146.100053185839	-19.1075346098442	7773.0	
146.100075135489	-18.9600939579628	7802.0	
146.100075135489	-18.9600939579628	7829.0	
146.100086848993	-18.8866759564702	7858.0	
146.100086848993	-18.8866759564702	7885.0	
146.10009123791	-18.835347571367	7914.0	
146.10009123791	-18.835347571367	7947.0	
146.100090544659	-19.0669094795018	7975.0	
146.100090544659	-19.0669094795018	8002.0	
146.10008647404	-0.910752976820582	8031.0	
146.10008647404	-0.910752976820582	8058.0	
144.372945619326	8.13009639683575	8086.0	
144.372945619326	8.13009639683575	8113.0	
146.474738409207	12.6319829819768	8141.0	
146.474738409207	12.6319829819768	8168.0	
151.058152867952	14.8736952357533	8196.0	
151.058152867952	14.8736952357533	8223.0	
157.121673018378	15.9899547713263	8251.0	
157.121673018378	15.9899547713263	8278.0	
163.935348924006	16.5457956686843	8306.0	
163.935348924006	16.5457956686843	8333.0	
170.98024793777	16.8373463021074	8361.0	
170.98024793777	16.8373463021074	8388.0	
177.899483656758	16.7401728733325	8416.0	
177.899483656758	16.7401728733325	8443.0	
184.458952158901	16.6917854113415	8471.0	
184.458952158901	16.6917854113415	8498.0	
190.516135749364	16.6676908979807	8526.0	
190.516135749364	16.6676908979807	8559.0	
195.995554285521	16.6556930466737	8587.0	
195.995554285521	16.6556930466737	8614.0	
200.869647991883	16.649718722402	8642.0	
200.869647991883	16.649718722402	8669.0	
205.144060681374	16.6467438105124	8697.0	
205.144060681374	16.6467438105124	8724.0	
208.846457315412	16.6304925279018	8752.0	
208.846457315412	16.6304925279018	8779.0	
212.018154886743	16.8647511356348	8807.0	
212.018154886743	16.8647511356348	8834.0	
214.707971507542	16.9961700230407	8862.0	
214.707971507542	16.9961700230407	8889.0	
216.967806637466	16.8192590685693	8917.0	
216.967806637466	16.8192590685693	8944.0	
218.849557178242	16.7163964174458	8972.0	
218.849557178242	16.7163964174458	8999.0	
220.403051403288	16.9222968626711	9027.0	
220.403051403288	16.9222968626711	9054.0	
221.674747108212	16.7824739639929	9082.0	
221.674747108212	16.7824739639929	9109.0	
222.706993627485	16.7128492190337	9137.0	
222.706993627485	16.7128492190337	9164.0	
223.537701025224	16.6634096841918	9198.0	
223.537701025224	16.6634096841918	9225.0	
224.20029526202	16.8811422177332	9253.0	
224.20029526202	16.8811422177332	9280.0	
224.72386674719	16.9895620277961	9308.0	
224.72386674719	16.9895620277961	9335.0	
225.133442540031	17.0583195465952	9363.0	
225.133442540031	17.0583195465952	9390.0	
225.450330553093	16.8354364671781	9418.0	
225.450330553093	16.8354364671781	9445.0	
225.692498287063	16.9815727980214	9473.0	
225.692498287063	16.9815727980214	9500.0	
225.874959617341	16.7972204607413	9528.0	
225.874959617341	16.7972204607413	9555.0	
226.010151570465	16.9625431560481	9583.0	
226.010151570465	16.9625431560481	9610.0	
226.108289387873	16.7877446596988	9638.0	
226.108289387873	16.7877446596988	9665.0	
226.177692901266	16.9430547588192	9693.0	
226.177692901266	16.9430547588192	9726.0	
226.225080688493	17.020391347769	9754.0	
226.225080688493	17.020391347769	9781.0	
226.25583092741	17.0589010649365	9809.0	
226.25583092741	17.0589010649365	9836.0	
226.274209548757	17.0780769600265	9864.0	
226.274209548757	17.0780769600265	9891.0	
226.28356739312	17.0876255877379	9919.0	
226.28356739312	17.0876255877379	9946.0	
226.286508748847	17.0923803223014	9974.0	
226.286508748847	17.0923803223014	10001.0	
226.285034003203	17.094747940084	10030.0	
226.285034003203	17.094747940084	10057.0	
226.280659268356	17.095926894217	10085.0	
226.280659268356	17.095926894217	10112.0	
226.27451581644	17.1112838805289	10140.0	
226.27451581644	17.1112838805289	10167.0	
226.267432026767	16.8618100317152	10195.0	
226.267432026767	16.8618100317152	10222.0	
226.260000352689	16.9947055017625	10251.0	
226.260000352689	16.9947055017625	10284.0	
226.25263158473	16.8037598842352	10313.0	
226.25263158473	16.8037598842352	10340.0	
226.245598441248	16.9657994588228	10368.0	
226.245598441248	16.9657994588228	10395.0	
226.239070272594	16.789366134095	10424.0	
226.239070272594	16.789366134095	10451.0	
226.233140429273	16.9438621712127	10479.0	
226.233140429273	16.9438621712127	10506.0	
226.227847625084	17.0207933983809	10535.0	
226.227847625084	17.0207933983809	10562.0	
226.223192426156	17.0591012658447	10591.0	
226.223192426156	17.0591012658447	10618.0	
226.219149817675	17.0929465766422	10647.0	
226.219149817675	17.0929465766422	10674.0	
226.215678642243	16.8526789800891	10703.0	
226.215678642243	16.8526789800891	10730.0	
226.212728566346	16.9753887723392	10759.0	
226.212728566346	16.9753887723392	10786.0	
226.210245113257	17.0364920542063	10815.0	
226.210245113257	17.0364920542063	10842.0	
226.208173200016	17.0669184039414	10871.0	
226.208173200016	17.0669184039414	10904.0	
226.206459531304	17.0968391167872	10933.0	
226.206459531304	17.0968391167872	10960.0	
226.205054132104	16.8546172685769	10989.0	
226.205054132104	16.8546172685769	11016.0	
226.203911242325	16.9763539421569	11045.0	
226.203911242325	16.9763539421569	11072.0	
226.202989748319	17.0369726600515	11101.0	
226.202989748319	17.0369726600515	11128.0	
226.20225328693	17.0671577213902	11157.0	
226.20225328693	17.0671577213902	11184.0	
226.201670126017	17.0821883581254	11212.0	
226.201670126017	17.0821883581254	11239.0	
226.201212899953	17.0896728564383	11268.0	
226.201212899953	17.0896728564383	11295.0	
226.200858258515	17.0933997587633	11324.0	
226.200858258515	17.0933997587633	11351.0	
226.200586471718	17.0952555679786	11380.0	
226.200586471718	17.0952555679786	11407.0	
226.200381020878	17.0961796672822	11436.0	
226.200381020878	17.0961796672822	11463.0	
226.200228196731	17.1114097487548	11492.0	
226.200228196731	17.1114097487548	11519.0	
226.200116718287	16.8766426344076	11554.0	
226.200116718287	16.8766426344076	11581.0	
226.200037380757	16.7449705363785	11610.0	
226.200037380757	16.7449705363785	11637.0	
226.199982736979	16.9365253314121	11666.0	
226.199982736979	16.9365253314121	11693.0	
226.199946813973	16.78955902314	11722.0	
226.199946813973	16.78955902314	11749.0	
226.199924864333	16.7016072941488	11777.0	
226.199924864333	16.7016072941488	11804.0	
226.199913150843	16.9149326258583	11833.0	
226.199913150843	16.9149326258583	11860.0	
226.199908761942	16.7640370191537	11889.0	
226.199908761942	16.7640370191537	11916.0	
226.199909455209	16.9460194773142	11945.0	
226.199909455209	16.9460194773142	11972.0	
226.199913525844	16.7795167018428	12001.0	
