0.0	45.4306305824626	1.0	
0.0	45.4306305824626	1.0	
0.0	45.4306305824626	1.0	
-4.1356358586987	30.973099480619	0.0	
-4.1356358586987	30.973099480619	0.0	
0.897138967175346	23.7739788414343	1.0	
0.897138967175346	23.7739788414343	1.0	
11.8721750832633	20.1891801913435	0.0	
11.8721750832633	20.1891801913435	0.0	
26.391334475462	18.4041314325067	1.0	
26.391334475462	18.4041314325067	1.0	
42.7067462503387	17.5152672639867	0.0	
42.7067462503387	17.5152672639867	0.0	
59.5758221420084	17.0726577799781	1.0	
59.5758221420084	17.0726577799781	1.0	
76.143994934984	16.85226060089	0.0	
76.143994934984	16.85226060089	0.0	
91.8507010561949	16.7425139318624	1.0	
91.8507010561949	16.7425139318624	1.0	
106.354680887294	16.6878656309517	0.0	
106.354680887294	16.6878656309517	0.0	
119.475196759966	16.6606535358705	1.0	
119.475196759966	16.6606535358705	1.0	
131.146256699533	16.6471032862495	0.0	
131.146256699533	16.6471032862495	0.0	
141.381374978377	16.6403559459861	1.0	
141.381374978377	16.6403559459861	1.0	
150.246795673068	16.6369961111562	0.0	
150.246795673068	16.6369961111562	0.0	
157.841452746138	16.6353230830231	1.0	
157.841452746138	16.6353230830231	1.0	
164.282241638691	16.6344899994712	0.0	
164.282241638691	16.6344899994712	0.0	
169.693436091821	16.6340751659183	1.0	
169.693436091821	16.6340751659183	1.0	
174.199303711351	16.6338685997507	0.0	
174.199303711351	16.6338685997507	0.0	
177.919158746805	16.6337657402272	1.0	
177.919158746805	16.6337657402272	1.0	
180.964244803432	16.633714521377	0.0	
180.964244803432	16.633714521377	0.0	
183.435967736245	16.6336890169753	1.0	
183.435967736245	16.6336890169753	1.0	
185.425103525691	16.6336763170708	0.0	
185.425103525691	16.6336763170708	0.0	
187.011690925168	16.6336699931595	1.0	
187.011690925168	16.6336699931595	1.0	
188.265387171385	16.6336668441709	0.0	
188.265387171385	16.6336668441709	0.0	
189.246119773177	16.6336652761335	1.0	
189.246119773177	16.6336652761335	1.0	
190.004910709623	16.6336644953301	0.0	
190.004910709623	16.6336644953301	0.0	
190.584783314308	16.6336641065294	1.0	
190.584783314308	16.6336641065294	1.0	
191.021688439347	16.6336639129262	0.0	
191.021688439347	16.6336639129262	0.0	
191.345406649938	16.6336638165217	1.0	
191.345406649938	16.6336638165217	1.0	
191.580398427726	16.633663768517	0.0	
191.580398427726	16.633663768517	0.0	
191.74658567949	16.6336637446132	1.0	
191.74658567949	16.6336637446132	1.0	
191.860056095998	16.6336637327102	0.0	
191.860056095998	16.6336637327102	0.0	
191.933687768847	16.6336637267832	1.0	
191.933687768847	16.6336637267832	1.0	
191.9776955045	16.6336637238318	0.0	
191.9776955045	16.6336637238318	0.0	
192.000102918333	16.6336637223622	1.0	
192.000102918333	16.6336637223622	1.0	
192.007146000126	16.6336637216304	0.0	
192.007146000126	16.6336637216304	0.0	
192.003614693468	16.633663721266	1.0	
192.003614693468	16.633663721266	1.0	
191.993139341197	16.6336637210845	0.0	
191.993139341197	16.6336637210845	0.0	
191.978428783498	16.6336637209942	1.0	
191.978428783498	16.6336637209942	1.0	
191.961466581203	16.6336637209492	0.0	
191.961466581203	16.6336637209492	0.0	
191.943671368493	16.6336637209268	1.0	
191.943671368493	16.6336637209268	1.0	
191.926026786431	16.6336637209156	0.0	
191.926026786431	16.6336637209156	0.0	
191.909185861157	16.6336637209101	1.0	
191.909185861157	16.6336637209101	1.0	
191.893554103292	16.6336637209073	0.0	
191.893554103292	16.6336637209073	0.0	
191.879355041221	16.6336637209059	1.0	
191.879355041221	16.6336637209059	1.0	
191.866681375308	16.6336637209052	0.0	
191.866681375308	16.6336637209052	0.0	
191.855534461023	16.6336637209049	1.0	
191.855534461023	16.6336637209049	1.0	
191.845854400086	16.6336637209047	0.0	
191.845854400086	16.6336637209047	0.0	
191.837542640672	16.6336637209046	1.0	
191.837542640672	16.6336637209046	1.0	
191.830478658693	16.6336637209046	0.0	
191.830478658693	16.6336637209046	0.0	
191.824532009114	16.6336637209046	1.0	
191.824532009114	16.6336637209046	1.0	
191.819570795282	16.6336637209046	0.0	
191.819570795282	16.6336637209046	0.0	
191.815467401073	16.6336637209046	1.0	
191.815467401073	16.6336637209046	1.0	
191.812102160863	16.6336637209046	0.0	
191.812102160863	16.6336637209046	0.0	
191.80936550171	16.6336637209046	1.0	
191.80936550171	16.6336637209046	1.0	
191.807158976621	16.6336637209046	0.0	
191.807158976621	16.6336637209046	0.0	
191.805395513708	16.6336637209046	1.0	
191.805395513708	16.6336637209046	1.0	
191.80399913008	16.6336637209046	0.0	
191.80399913008	16.6336637209046	0.0	
191.802904298508	16.6336637209046	1.0	
191.802904298508	16.6336637209046	1.0	
191.802055106682	16.6336637209046	0.0	
191.802055106682	16.6336637209046	0.0	
191.801404310986	16.6336637209046	1.0	
191.801404310986	16.6336637209046	1.0	
191.800912357292	16.6336637209046	0.0	
191.800912357292	16.6336637209046	0.0	
191.800546418649	16.6336637209046	1.0	
191.800546418649	16.6336637209046	1.0	
191.800279482634	16.6336637209046	0.0	
191.800279482634	16.6336637209046	0.0	
191.800089508301	16.6336637209046	1.0	
191.800089508301	16.6336637209046	1.0	
191.799958663356	16.6336637209046	0.0	
191.799958663356	16.6336637209046	0.0	
191.799872645453	16.6336637209046	1.0	
191.799872645453	16.6336637209046	1.0	
191.799820086886	16.6336637209046	0.0	
191.799820086886	16.6336637209046	0.0	
191.79979203886	16.6336637209046	1.0	
191.79979203886	16.6336637209046	1.0	
191.799781529621	16.6336637209046	0.0	
191.799781529621	16.6336637209046	0.0	
191.799783189672	16.6336637209046	1.0	
191.799783189672	16.6336637209046	1.0	
191.799792936857	16.6336637209046	0.0	
191.799792936857	16.6336637209046	0.0	
191.7998077141	16.6336637209046	1.0	
191.7998077141	16.6336637209046	1.0	
191.799825272873	-1.10284068990771	0.0	
191.799825272873	-1.10284068990771	0.0	
193.49894777936	-9.93472450681934	1.0	
193.49894777936	-9.93472450681934	1.0	
191.431278026434	-14.3325567937651	0.0	
191.431278026434	-14.3325567937651	0.0	
186.922261409379	-16.5224552599414	1.0	
186.922261409379	-16.5224552599414	1.0	
180.957159573587	-17.612914144969	0.0	
180.957159573587	-17.612914144969	0.0	
174.254075616066	-18.1559076208319	1.0	
174.254075616066	-18.1559076208319	1.0	
167.32352012871	-18.4262909602478	0.0	
167.32352012871	-18.4262909602478	0.0	
160.516587443351	-18.560928213702	1.0	
160.516587443351	-18.560928213702	1.0	
154.063582145138	-18.627970769123	0.0	
154.063582145138	-18.627970769123	0.0	
148.104709012612	-18.6613545772597	1.0	
148.104709012612	-18.6613545772597	1.0	
142.714223269792	-18.6779780284201	0.0	
142.714223269792	-18.6779780284201	0.0	
137.919237501579	-18.6862556679078	1.0	
137.919237501579	-18.6862556679078	1.0	
133.714199581444	-18.6903775144984	0.0	
133.714199581444	-18.6903775144984	0.0	
130.071893622566	-18.6924299860201	1.0	
130.071893622566	-18.6924299860201	1.0	
126.951673266312	-18.6934520132245	0.0	
126.951673266312	-18.6934520132245	0.0	
124.305512766746	-18.6939609311779	1.0	
124.305512766746	-18.6939609311779	1.0	
122.082355031397	-18.6942143466274	0.0	
122.082355031397	-18.6942143466274	0.0	
120.231145476417	-18.6943405347282	1.0	
120.231145476417	-18.6943405347282	1.0	
118.702864565962	-18.6944033700322	0.0	
118.702864565962	-18.6944033700322	0.0	
117.451808533828	-18.6944346588415	1.0	
117.451808533828	-18.6944346588415	1.0	
116.436315390293	-18.694450239089	0.0	
116.436315390293	-18.694450239089	0.0	
115.619090363129	-18.6944579972657	1.0	
115.619090363129	-18.6944579972657	1.0	
114.967250003826	-18.6944618604461	0.0	
114.967250003826	-18.6944618604461	0.0	
114.452176046922	-18.6944637841149	1.0	
114.452176046922	-18.6944637841149	1.0	
114.049247627054	-18.6944647420048	0.0	
114.049247627054	-18.6944647420048	0.0	
113.737502662489	-18.6944652189857	1.0	
113.737502662489	-18.6944652189857	1.0	
113.499265267425	-18.694465456498	0.0	
113.499265267425	-18.694465456498	0.0	
113.31976524321	-18.6944655747672	1.0	
113.31976524321	-18.6944655747672	1.0	
113.186767417205	-18.6944656336593	0.0	
113.186767417205	-18.6944656336593	0.0	
113.090222341857	-18.6944656629846	1.0	
113.090222341857	-18.6944656629846	1.0	
113.021945216543	-18.6944656775871	0.0	
113.021945216543	-18.6944656775871	0.0	
112.975326505918	-18.6944656848584	1.0	
112.975326505918	-18.6944656848584	1.0	
112.945075319794	-18.6944656884792	0.0	
112.945075319794	-18.6944656884792	0.0	
112.92699496324	-18.6944656902821	1.0	
112.92699496324	-18.6944656902821	1.0	
112.917788979511	-18.6944656911799	0.0	
112.917788979511	-18.6944656911799	0.0	
112.914895347536	-18.6944656916269	1.0	
112.914895347536	-18.6944656916269	1.0	
112.916346146011	-18.6944656918495	0.0	
112.916346146011	-18.6944656918495	0.0	
112.920649868954	-18.6944656919604	1.0	
112.920649868954	-18.6944656919604	1.0	
112.926693604485	-18.6944656920156	0.0	
112.926693604485	-18.6944656920156	0.0	
112.933662417621	-18.6944656920431	1.0	
112.933662417621	-18.6944656920431	1.0	
112.940973470286	-18.6944656920567	0.0	
112.940973470286	-18.6944656920567	0.0	
112.948222638875	-18.6944656920636	1.0	
112.948222638875	-18.6944656920636	1.0	
112.955141631063	-18.694465692067	0.0	
112.955141631063	-18.694465692067	0.0	
112.961563844895	-18.6944656920686	1.0	
112.961563844895	-18.6944656920686	1.0	
112.96739744481	-18.6944656920695	0.0	
112.96739744481	-18.6944656920695	0.0	
112.972604345218	-18.6944656920699	1.0	
112.972604345218	-18.6944656920699	1.0	
112.977183989084	-18.6944656920701	0.0	
112.977183989084	-18.6944656920701	0.0	
112.981160985149	-18.6944656920702	1.0	
112.981160985149	-18.6944656920702	1.0	
112.984575822764	-18.6944656920703	0.0	
112.984575822764	-18.6944656920703	0.0	
112.987478018474	-18.6944656920703	1.0	
112.987478018474	-18.6944656920703	1.0	
112.989921164807	-18.6944656920703	0.0	
112.989921164807	-18.6944656920703	0.0	
112.991959450692	-18.6944656920703	1.0	
112.991959450692	-18.6944656920703	1.0	
112.993645306437	-18.6944656920703	0.0	
112.993645306437	-18.6944656920703	0.0	
112.995027895943	-18.6944656920703	1.0	
112.995027895943	-18.6944656920703	1.0	
112.996152236598	-18.6944656920703	0.0	
112.996152236598	-18.6944656920703	0.0	
112.997058774763	-18.6944656920703	1.0	
112.997058774763	-18.6944656920703	1.0	
112.997783283408	-18.6944656920703	0.0	
112.997783283408	-18.6944656920703	0.0	
112.998356979657	-18.6944656920703	1.0	
112.998356979657	-18.6944656920703	1.0	
112.998806784986	-18.6944656920703	0.0	
112.998806784986	-18.6944656920703	0.0	
112.99915567064	-18.6944656920703	1.0	
112.99915567064	-18.6944656920703	1.0	
112.999423046384	-18.6944656920703	0.0	
112.999423046384	-18.6944656920703	0.0	
112.999625162801	-18.6944656920703	1.0	
112.999625162801	-18.6944656920703	1.0	
112.999775506653	-18.6944656920703	0.0	
112.999775506653	-18.6944656920703	0.0	
112.999885175839	-18.6944656920703	1.0	
112.999885175839	-18.6944656920703	1.0	
112.999963225754	-18.6944656920703	0.0	
112.999963225754	-18.6944656920703	0.0	
113.000016982694	-18.6944656920703	1.0	
113.000016982694	-18.6944656920703	1.0	
113.000052322695	-18.6944656920703	0.0	
113.000052322695	-18.6944656920703	0.0	
113.000073916114	-18.6944656920703	1.0	
113.000073916114	-18.6944656920703	1.0	
113.000085439514	-18.6944656920703	0.0	
113.000085439514	-18.6944656920703	0.0	
113.000089757199	-18.6944656920703	1.0	
113.000089757199	-18.6944656920703	1.0	
113.000089075197	-18.6944656920703	0.0	
113.000089075197	-18.6944656920703	0.0	
113.000085070639	-18.6944656920703	1.0	
113.000085070639	-18.6944656920703	1.0	
113.000078999507	-0.957961281258058	0.0	
113.000078999507	-0.957961281258058	0.0	
111.300968002149	7.87392253565357	1.0	
111.300968002149	7.87392253565357	1.0	
113.368648820223	12.2717548225993	0.0	
113.368648820223	12.2717548225993	0.0	
117.877675764269	14.4616532887756	1.0	
117.877675764269	14.4616532887756	1.0	
123.842787021201	15.5521121738033	0.0	
123.842787021201	15.5521121738033	0.0	
130.545879417738	16.0951056496661	1.0	
130.545879417738	16.0951056496661	1.0	
137.476442349995	16.3654889890821	0.0	
137.476442349995	16.3654889890821	0.0	
144.283381517704	16.5001262425363	1.0	
144.283381517704	16.5001262425363	1.0	
150.736392395197	16.5671687979572	0.0	
150.736392395197	16.5671687979572	0.0	
156.695270279749	16.5857826794239	1.0	
156.695270279749	16.5857826794239	1.0	
162.085760031089	16.8226324521235	0.0	
162.085760031089	16.8226324521235	0.0	
166.880749150033	17.1829226082756	1.0	
166.880749150033	17.1829226082756	1.0	
171.085789846741	17.3475589910909	0.0	
171.085789846741	17.3475589910909	0.0	
174.72809808693	17.6718905245792	1.0	
174.72809808693	17.6718905245792	1.0	
177.848320301818	17.8333912552521	0.0	
177.848320301818	17.8333912552521	0.0	
180.494482302806	17.9138104661976	1.0	
180.494482302806	17.9138104661976	1.0	
182.717641240452	17.9538551735011	0.0	
182.717641240452	17.9538551735011	0.0	
184.568851749437	17.959025489519	1.0	
184.568851749437	17.959025489519	1.0	
186.097133409548	18.2039509719573	0.0	
186.097133409548	18.2039509719573	0.0	
187.348190024571	18.325911497808	1.0	
187.348190024571	18.325911497808	1.0	
188.363683616048	18.3718717561629	0.0	
188.363683616048	18.3718717561629	0.0	
189.180908982902	18.6371085707145	1.0	
189.180908982902	18.6371085707145	1.0	
189.832749595838	18.7691831145948	0.0	
189.832749595838	18.7691831145948	0.0	
190.347823738616	18.8349495700194	1.0	
190.347823738616	18.8349495700194	1.0	
190.750752291559	18.8676979447784	0.0	
190.750752291559	18.8676979447784	0.0	
191.062497348524	18.8840049821948	1.0	
191.062497348524	18.8840049821948	1.0	
191.300734805056	18.8921250636113	0.0	
191.300734805056	18.8921250636113	0.0	
191.480234867567	18.8961684542363	1.0	
191.480234867567	18.8961684542363	1.0	
191.613232714818	18.8834119319779	0.0	
191.613232714818	18.8834119319779	0.0	
191.709777799142	19.1194107539427	1.0	
191.709777799142	19.1194107539427	1.0	
191.778054924855	19.236926253516	0.0	
191.778054924855	19.236926253516	0.0	
191.824673630115	19.2806731131799	1.0	
191.824673630115	19.2806731131799	1.0	
191.854924807226	19.544807766921	0.0	
191.854924807226	19.544807766921	0.0	
191.873005152685	19.6763334903571	1.0	
191.873005152685	19.6763334903571	1.0	
191.882211124362	19.7418266609063	0.0	
191.882211124362	19.7418266609063	0.0	
191.885104744125	19.7892088802634	1.0	
191.885104744125	19.7892088802634	1.0	
191.883653933818	19.5704519074686	0.0	
191.883653933818	19.5704519074686	0.0	
191.879350199769	19.4615219783737	1.0	
191.879350199769	19.4615219783737	1.0	
191.873306454059	19.4072803727185	0.0	
191.873306454059	19.4072803727185	0.0	
191.866337631772	19.3802707913437	1.0	
191.866337631772	19.3802707913437	1.0	
191.859026571009	19.3668213833251	0.0	
191.859026571009	19.3668213833251	0.0	
191.85177739535	19.3601242570889	1.0	
191.85177739535	19.3601242570889	1.0	
191.844858397062	19.3715593529797	0.0	
191.844858397062	19.3715593529797	0.0	
191.838436178022	19.1349025273925	1.0	
191.838436178022	19.1349025273925	1.0	
191.832602573706	19.0170593752327	0.0	
191.832602573706	19.0170593752327	0.0	
191.827395669612	18.9436095077814	1.0	
191.827395669612	18.9436095077814	1.0	
191.822816022686	19.1493861077803	0.0	
191.822816022686	19.1493861077803	0.0	
191.818839024101	19.2518524665021	1.0	
191.818839024101	19.2518524665021	1.0	
191.815424184431	19.3176454670773	0.0	
191.815424184431	19.3176454670773	0.0	
191.812521987056	19.1080561339104	1.0	
191.812521987056	19.1080561339104	1.0	
191.810078839388	19.0036912265465	0.0	
191.810078839388	19.0036912265465	0.0	
191.808040552441	18.9517227712607	1.0	
191.808040552441	18.9517227712607	1.0	
191.80635469586	18.9110751773459	0.0	
191.80635469586	18.9110751773459	0.0	
191.804972105703	19.1331856536315	1.0	
191.804972105703	19.1331856536315	1.0	
191.803847764546	19.2437854581723	0.0	
191.803847764546	19.2437854581723	0.0	
191.802941225999	19.3136285041703	1.0	
191.802941225999	19.3136285041703	1.0	
191.802941225999	0.0	1.0	
191.802941225999	0.0	1.0	
191.802941225999	0.0	1.0	
191.802941225999	0.0	1.0	
191.802941225999	0.0	1.0	
191.802941225999	0.0	1.0	
191.802941225999	0.0	1.0	
191.802941225999	0.0	1.0	
191.802941225999	0.0	1.0	
191.802941225999	0.0	1.0	
191.802941225999	0.0	1.0	
191.802941225999	0.0	1.0	
191.802941225999	0.0	1.0	
191.802941225999	0.0	1.0	
191.802941225999	0.0	1.0	
191.802941225999	0.0	1.0	
191.802941225999	0.0	1.0	
191.802941225999	0.0	1.0	
191.802941225999	0.0	1.0	
191.802941225999	0.0	1.0	
191.802941225999	0.0	1.0	
191.802941225999	0.0	1.0	
191.802941225999	0.0	1.0	
191.802941225999	0.0	1.0	
191.802941225999	0.0	1.0	
191.802941225999	0.0	1.0	
191.802941225999	0.0	1.0	
191.802941225999	0.0	1.0	
191.802941225999	0.0	1.0	
191.802941225999	0.0	1.0	
191.802941225999	0.0	1.0	
191.802941225999	0.0	1.0	
191.802941225999	0.0	1.0	
191.802941225999	0.0	1.0	
191.802941225999	0.0	1.0	
