0.0	15.0	
0.0	35.0	
0.0	55.0	
5.79118316562518	84.0	
5.79118316562518	107.0	
18.3538995412791	139.0	
18.3538995412791	162.0	
34.9531063957926	194.0	
34.9531063957926	217.0	
53.5956018570286	249.0	
53.5956018570286	272.0	
72.8645906428395	304.0	
72.8645906428395	327.0	
91.785888751486	359.0	
91.785888751486	388.0	
109.720654508267	420.0	
109.720654508267	443.0	
126.280164124071	475.0	
126.280164124071	498.0	
141.25875102082	530.0	
141.25875102082	553.0	
154.581585466337	585.0	
154.581585466337	608.0	
166.264476800176	640.0	
166.264476800176	663.0	
176.383331592025	695.0	
176.383331592025	718.0	
185.051297535694	750.0	
185.051297535694	773.0	
192.401966972812	812.0	
192.401966972812	835.0	
198.577309239855	867.0	
198.577309239855	890.0	
203.719251881061	922.0	
203.719251881061	945.0	
207.964041846696	977.0	
207.964041846696	1000.0	
211.43869381987	1032.0	
211.43869381987	1055.0	
214.258978343079	1087.0	
214.258978343079	1111.0	
216.528521715923	1143.0	
216.528521715923	1167.0	
218.338686612187	1199.0	
218.338686612187	1223.0	
219.768980522356	1261.0	
219.768980522356	1286.0	
220.887801564401	1318.0	
220.887801564401	1342.0	
221.75338062282	1374.0	
221.75338062282	1397.0	
222.414817501897	1429.0	
222.414817501897	1453.0	
222.913138799932	1485.0	
222.913138799932	1509.0	
223.282328203918	1541.0	
223.282328203918	1565.0	
223.550297272429	1597.0	
223.550297272429	1621.0	
223.739777682791	1653.0	
223.739777682791	1677.0	
223.869125324636	1712.0	
223.869125324636	1740.0	
223.953033306914	1772.0	
223.953033306914	1796.0	
224.003155541067	1828.0	
224.003155541067	1852.0	
224.028645575874	1884.0	
224.028645575874	1908.0	
224.036617191795	1940.0	
224.036617191795	1964.0	
224.03253423105	1996.0	
224.03253423105	2019.0	
224.02053749079	2051.0	
224.02053749079	2074.0	
224.003716430151	2106.0	
224.003716430151	2130.0	
223.984333082051	2165.0	
223.984333082051	2192.0	
223.964005025037	2224.0	
223.964005025037	2248.0	
223.943853638686	2280.0	
223.943853638686	2304.0	
223.924623194855	2336.0	
223.924623194855	2360.0	
223.906775666308	2392.0	
223.906775666308	2416.0	
223.890565490338	2448.0	
223.890565490338	2472.0	
223.876097924904	2504.0	
223.876097924904	2527.0	
223.863374087818	2559.0	
223.863374087818	2583.0	
223.852325279967	2615.0	
223.852325279967	2646.0	
223.842838762011	2678.0	
223.842838762011	2702.0	
223.834776778393	2734.0	
223.834776778393	2758.0	
223.827990299486	2790.0	
223.827990299486	2814.0	
223.822328677651	2846.0	
223.822328677651	2870.0	
223.817646181094	2902.0	
223.817646181094	2926.0	
223.813806175675	2958.0	
223.813806175675	2982.0	
223.810683564319	3014.0	
223.810683564319	3038.0	
223.808165961907	3070.0	
223.808165961907	3101.0	
223.806153976138	3133.0	
223.806153976138	3157.0	
223.804560878246	3189.0	
223.804560878246	3213.0	
223.803311878024	3245.0	
223.803311878024	3269.0	
223.802343162621	3301.0	
223.802343162621	3325.0	
223.801600815353	3357.0	
223.801600815353	3381.0	
223.80103969718	3413.0	
223.80103969718	3436.0	
223.800622347725	3468.0	
223.800622347725	3492.0	
223.800317943154	3524.0	
223.800317943154	3555.0	
223.800101333648	3587.0	
223.800101333648	3611.0	
223.799952172549	3643.0	
223.799952172549	3667.0	
223.799854141597	3699.0	
223.799854141597	3723.0	
223.79979427142	3755.0	
223.79979427142	3778.0	
223.799762352881	3810.0	
223.799762352881	3834.0	
223.799750432767	3866.0	
223.799750432767	3890.0	
223.799752386056	3922.0	
223.799752386056	3946.0	
223.799763556532	3978.0	
223.799763556532	4008.0	
223.799780457499	4040.0	
223.799780457499	4064.0	
219.308639172345	4096.0	
219.308639172345	4119.0	
213.300297840393	4151.0	
213.300297840393	4175.0	
206.514750444618	4207.0	
206.514750444618	4230.0	
199.478736340011	4262.0	
199.478736340011	4285.0	
192.555138732506	4317.0	
192.555138732506	4340.0	
185.982606900354	4372.0	
185.982606900354	4395.0	
179.907050416728	4427.0	
179.907050416728	4457.0	
174.406433399599	4489.0	
174.406433399599	4512.0	
169.510092387788	4544.0	
169.510092387788	4567.0	
165.213615746101	4599.0	
165.213615746101	4622.0	
161.490156752	4654.0	
161.490156752	4677.0	
158.298906730285	4709.0	
158.298906730285	4732.0	
155.591327998566	4764.0	
155.591327998566	4788.0	
153.315637676679	4820.0	
153.315637676679	4843.0	
151.419941022012	4875.0	
151.419941022012	4906.0	
149.854335174257	4938.0	
149.854335174257	4962.0	
148.572239302796	4994.0	
148.572239302796	5017.0	
147.531153478757	5049.0	
147.531153478757	5073.0	
146.693004577001	5105.0	
146.693004577001	5128.0	
146.02420171774	5160.0	
146.02420171774	5183.0	
145.4954948958	5215.0	
145.4954948958	5238.0	
145.081707378862	5270.0	
145.081707378862	5293.0	
144.761394190588	5329.0	
144.761394190588	5355.0	
144.516464673392	5387.0	
144.516464673392	5411.0	
144.331796017396	5443.0	
144.331796017396	5467.0	
144.194856128976	5499.0	
144.194856128976	5523.0	
144.095347776823	5555.0	
144.095347776823	5579.0	
144.024881166349	5611.0	
144.024881166349	5635.0	
143.976678601161	5667.0	
143.976678601161	5691.0	
143.945312404941	5723.0	
143.945312404941	5747.0	
143.9264755652	5779.0	
143.9264755652	5809.0	
143.916783434855	5841.0	
143.916783434855	5865.0	
143.913604139792	5897.0	
143.913604139792	5921.0	
143.914914973453	5953.0	
143.914914973453	5977.0	
143.919181921753	6009.0	
143.919181921753	6032.0	
143.925259483206	6064.0	
143.925259483206	6087.0	
143.93230807643	6119.0	
143.93230807643	6142.0	
143.939726520387	6174.0	
143.939726520387	6198.0	
143.947097302268	6236.0	
143.947097302268	6260.0	
143.954142592754	6292.0	
143.954142592754	6316.0	
143.960689213648	6348.0	
143.960689213648	6372.0	
143.966640998722	6404.0	
143.966640998722	6428.0	
143.971957208707	6460.0	
143.971957208707	6483.0	
143.97663586213	6515.0	
143.97663586213	6538.0	
143.980701023601	6570.0	
143.980701023601	6593.0	
143.984193249805	6625.0	
143.984193249805	6649.0	
143.987162531612	6688.0	
143.987162531612	6712.0	
143.989663189661	6744.0	
143.989663189661	6768.0	
143.991750282027	6800.0	
143.991750282027	6823.0	
143.993477168039	6855.0	
143.993477168039	6879.0	
143.994893943736	6911.0	
143.994893943736	6935.0	
143.996046523604	6967.0	
143.996046523604	6991.0	
143.996976191901	7023.0	
143.996976191901	7047.0	
143.997719486456	7079.0	
143.997719486456	7103.0	
143.998308309855	7141.0	
143.998308309855	7166.0	
143.998770188545	7198.0	
143.998770188545	7222.0	
143.999128620715	7254.0	
143.999128620715	7278.0	
143.999403469814	7310.0	
143.999403469814	7334.0	
143.999611372953	7366.0	
143.999611372953	7390.0	
143.999766143039	7422.0	
143.999766143039	7446.0	
143.999879150665	7478.0	
143.999879150665	7502.0	
143.999959677254	7534.0	
143.999959677254	7558.0	
144.000015234857	7594.0	
144.000015234857	7621.0	
144.000051850887	7653.0	
144.000051850887	7677.0	
144.000074318019	7709.0	
144.000074318019	7732.0	
144.000086410787	7764.0	
144.000086410787	7787.0	
144.000091071257	7819.0	
144.000091071257	7842.0	
144.00009056658	7880.0	
144.00009056658	7903.0	
144.00008662143	7935.0	
144.00008662143	7958.0	
144.000080528337	7990.0	
144.000080528337	8013.0	
144.000073238825	8045.0	
144.000073238825	8069.0	
187.222081858555	8101.0	
187.222081858555	8124.0	
217.637006134339	8156.0	
217.637006134339	8180.0	
238.26002326034	8212.0	
238.26002326034	8235.0	
251.501243991346	8274.0	
251.501243991346	8297.0	
259.269405021503	8329.0	
259.269405021503	8352.0	
263.061309771292	8384.0	
263.061309771292	8407.0	
264.038158626192	8439.0	
264.038158626192	8462.0	
263.090055267798	8494.0	
263.090055267798	8517.0	
260.890022042691	8549.0	
260.890022042691	8572.0	
257.938835250182	8604.0	
257.938835250182	8627.0	
254.601924238422	8659.0	
254.601924238422	8683.0	
251.139483774206	8722.0	
251.139483774206	8745.0	
247.730840108808	8777.0	
247.730840108808	8801.0	
244.493996667745	8833.0	
244.493996667745	8857.0	
241.501171705472	8889.0	
241.501171705472	8912.0	
238.791031811127	8944.0	
238.791031811127	8968.0	
236.37822445426	9000.0	
236.37822445426	9023.0	
234.260721270469	9055.0	
234.260721270469	9079.0	
232.425402110888	9111.0	
232.425402110888	9134.0	
230.852238031041	9173.0	
230.852238031041	9197.0	
229.517368992001	9229.0	
229.517368992001	9253.0	
228.395318458102	9285.0	
228.395318458102	9309.0	
227.460541526271	9341.0	
227.460541526271	9365.0	
226.688464873293	9397.0	
226.688464873293	9421.0	
226.056144810097	9453.0	
226.056144810097	9477.0	
225.542643264689	9509.0	
225.542643264689	9533.0	
225.12919980696	9565.0	
225.12919980696	9588.0	
224.799260173184	9627.0	
224.799260173184	9651.0	
224.538407511334	9683.0	
224.538407511334	9707.0	
224.334231189045	9739.0	
224.334231189045	9763.0	
224.17615899449	9795.0	
224.17615899449	9818.0	
224.055271494012	9850.0	
224.055271494012	9873.0	
223.964111828688	9905.0	
223.964111828688	9929.0	
223.896500030329	9961.0	
223.896500030329	9985.0	
223.847357760738	10017.0	
223.847357760738	10047.0	
223.812547014559	10079.0	
223.812547014559	10103.0	
223.788724601577	10135.0	
223.788724601577	10159.0	
223.773212996587	10191.0	
223.773212996587	10215.0	
223.763887299022	10247.0	
223.763887299022	10271.0	
223.759077487961	10303.0	
223.759077487961	10327.0	
223.75748481776	10359.0	
223.75748481776	10383.0	
223.758111017428	10415.0	
223.758111017428	10439.0	
223.760198888122	10477.0	
223.760198888122	10502.0	
223.763182903077	10534.0	
223.763182903077	10558.0	
223.76664847647	10590.0	
223.76664847647	10614.0	
223.770298662586	10646.0	
223.770298662586	10670.0	
223.773927159439	10702.0	
223.773927159439	10726.0	
223.777396611489	10758.0	
223.777396611489	10782.0	
223.780621326834	10814.0	
223.780621326834	10838.0	
223.783553640335	10870.0	
223.783553640335	10894.0	
223.78617326262	10933.0	
223.78617326262	10957.0	
223.788479053754	10989.0	
223.788479053754	11013.0	
223.790482749051	11045.0	
223.790482749051	11069.0	
223.792204242669	11101.0	
223.792204242669	11125.0	
223.793668102745	11157.0	
223.793668102745	11181.0	
223.794901050432	11213.0	
223.794901050432	11237.0	
223.795930185138	11269.0	
223.795930185138	11293.0	
223.796781780402	11325.0	
223.796781780402	11356.0	
223.797480510038	11388.0	
223.797480510038	11412.0	
223.798048993372	11444.0	
223.798048993372	11468.0	
223.798507572392	11500.0	
223.798507572392	11524.0	
223.798874253129	11556.0	
223.798874253129	11580.0	
223.799164759428	11612.0	
223.799164759428	11636.0	
223.799392659861	11668.0	
223.799392659861	11692.0	
223.799569538602	11724.0	
223.799569538602	11748.0	
223.799705188938	11780.0	
223.799705188938	11811.0	
223.799807814245	11843.0	
223.799807814245	11867.0	
223.799884225968	11899.0	
223.799884225968	11923.0	
223.799940031692	11956.0	
223.799940031692	11980.0	
223.799979809101	12012.0	
