INDEX VERSION 1.130+C:\Users\Arthur Iasbeck\Desktop\WorkspaceTCCDesktop\.metadata\.plugins\org.eclipse.jdt.core
3818029737.index
3363692690.index
806062888.index
2088728460.index
3481879480.index
823384711.index
1227900102.index
239560080.index
2872033403.index
2245125605.index
3609888128.index
890887124.index
1177904427.index
3041506304.index
3305082237.index
1093488887.index
3864195121.index
710797068.index
100574398.index
2043626465.index
3273689814.index
3487609244.index
1100034430.index
916900781.index
4292095467.index
1976318416.index
159265263.index
2569137926.index
1204375214.index
4121661813.index
3648534690.index
4009088449.index
