41.403	127.0	0
41.998	125.0	50
42.262	126.0	100
42.303	129.0	150
42.785	128.0	200
43.157	128.0	250
43.751	126.0	300
44.125	126.0	350
44.499	126.0	400
44.873	126.0	450
45.025	128.0	500
45.508	127.0	550
45.992	126.0	600
46.033	129.0	650
46.737	126.0	700
46.778	129.0	750
47.371	127.0	800
47.411	130.0	850
47.781	130.0	900
48.262	129.0	950
48.522	130.0	1000
48.781	131.0	1050
49.15	131.0	1100
49.63	130.0	1150
49.889	131.0	1200
50.369	130.0	1250
50.85	129.0	1300
51.11	130.0	1350
51.258	132.0	1400
51.626	132.0	1450
51.772	134.0	1500
52.249	133.0	1550
52.505	134.0	1600
52.871	134.0	1650
53.015	136.0	1700
53.379	136.0	1750
53.521	138.0	1800
54.105	136.0	1850
54.247	138.0	1900
54.831	136.0	1950
55.195	136.0	2000
55.781	134.0	2050
56.036	135.0	2100
56.512	134.0	2150
56.656	136.0	2200
56.798	138.0	2250
57.16	138.0	2300
57.411	139.0	2350
57.55	141.0	2400
58.242	138.0	2450
58.493	139.0	2500
58.743	140.0	2550
59.325	138.0	2600
59.798	137.0	2650
60.05	138.0	2700
60.19	140.0	2750
60.772	138.0	2800
61.134	138.0	2850
61.274	140.0	2900
61.634	140.0	2950
62.105	139.0	3000
62.688	137.0	3050
62.94	138.0	3100
63.524	136.0	3150
63.555	139.0	3200
64.138	137.0	3250
64.501	137.0	3300
64.864	137.0	3350
65.116	138.0	3400
65.478	138.0	3450
65.84	138.0	3500
66.313	137.0	3550
66.676	137.0	3600
67.039	137.0	3650
67.069	140.0	3700
67.873	136.0	3750
68.126	137.0	3800
68.489	137.0	3850
68.741	138.0	3900
68.992	139.0	3950
69.464	138.0	4000
69.715	139.0	4050
70.187	138.0	4100
70.66	137.0	4150
71.134	136.0	4200
71.498	136.0	4250
71.751	137.0	4300
72.003	138.0	4350
72.365	138.0	4400
72.949	136.0	4450
73.202	137.0	4500
73.676	136.0	4550
74.151	135.0	4600
74.627	134.0	4650
74.66	137.0	4700
75.134	136.0	4750
75.498	136.0	4800
75.64	138.0	4850
76.224	136.0	4900
76.588	136.0	4950
76.841	137.0	5000
77.093	138.0	5050
77.677	136.0	5100
77.93	137.0	5150
78.293	137.0	5200
78.767	136.0	5250
79.131	136.0	5300
79.384	137.0	5350
79.747	137.0	5400
80.221	136.0	5450
80.696	135.0	5500
81.172	134.0	5550
81.427	135.0	5600
81.57	137.0	5650
81.933	137.0	5700
82.296	137.0	5750
82.659	137.0	5800
83.022	137.0	5850
83.496	136.0	5900
83.86	136.0	5950
84.335	135.0	6000
84.478	137.0	6050
85.063	135.0	6100
85.206	137.0	6150
85.458	138.0	6200
86.042	136.0	6250
85.962	140.0	6300
86.544	138.0	6350
86.906	138.0	6400
87.046	140.0	6450
87.628	138.0	6500
87.657	141.0	6550
88.127	140.0	6600
88.376	141.0	6650
88.846	140.0	6700
88.984	142.0	6750
89.564	140.0	6800
89.813	141.0	6850
90.061	142.0	6900
90.419	142.0	6950
90.555	144.0	7000
91.133	142.0	7050
91.491	142.0	7100
91.516	145.0	7150
91.982	144.0	7200
92.671	141.0	7250
92.808	143.0	7300
93.276	142.0	7350
93.745	141.0	7400
93.993	142.0	7450
94.351	142.0	7500
94.598	143.0	7550
94.844	144.0	7600
95.2	144.0	7650
95.556	144.0	7700
95.801	145.0	7750
96.489	142.0	7800
96.847	142.0	7850
97.094	143.0	7900
97.451	143.0	7950
97.919	142.0	8000
98.166	143.0	8050
98.634	142.0	8100
98.992	142.0	8150
99.35	142.0	8200
99.708	142.0	8250
100.066	142.0	8300
100.424	142.0	8350
100.893	141.0	8400
101.474	139.0	8450
101.613	141.0	8500
101.75	143.0	8550
102.329	141.0	8600
102.466	143.0	8650
102.934	142.0	8700
103.292	142.0	8750
103.65	142.0	8800
103.897	143.0	8850
104.587	140.0	8900
104.836	141.0	8950
105.084	142.0	9000
105.553	141.0	9050
106.023	140.0	9100
106.161	142.0	9150
106.63	141.0	9200
106.989	141.0	9250
107.459	140.0	9300
107.597	142.0	9350
108.066	141.0	9400
108.314	142.0	9450
109.005	139.0	9500
109.144	141.0	9550
109.392	142.0	9600
109.639	143.0	9650
110.107	142.0	9700
110.465	142.0	9750
110.934	141.0	9800
111.293	141.0	9850
111.541	142.0	9900
112.121	140.0	9950
112.259	142.0	10000
112.728	141.0	10050
113.198	140.0	10100
113.336	142.0	10150
113.694	142.0	10200
114.163	141.0	10250
114.522	141.0	10300
114.659	143.0	10350
115.238	141.0	10400
115.486	142.0	10450
115.511	145.0	10500
116.199	142.0	10550
116.335	144.0	10600
117.135	140.0	10650
117.384	141.0	10700
117.743	141.0	10750
118.102	141.0	10800
118.239	143.0	10850
118.707	142.0	10900
118.954	143.0	10950
119.2	144.0	11000
119.778	142.0	11050
119.914	144.0	11100
120.381	143.0	11150
120.849	142.0	11200
121.207	142.0	11250
121.343	144.0	11300
122.143	140.0	11350
122.392	141.0	11400
122.862	140.0	11450
122.889	143.0	11500
123.468	141.0	11550
123.494	144.0	11600
124.072	142.0	11650
124.541	141.0	11700
124.789	142.0	11750
125.258	141.0	11800
125.617	141.0	11850
125.865	142.0	11900
126.334	141.0	11950
126.471	143.0	12000
127.05	141.0	12050
127.187	143.0	12100
127.544	143.0	12150
128.234	140.0	12200
128.261	143.0	12250
128.729	142.0	12300
129.198	141.0	12350
129.335	143.0	12400
129.803	142.0	12450
130.272	141.0	12500
130.742	140.0	12550
130.991	141.0	12600
131.017	144.0	12650
131.262	145.0	12700
131.728	144.0	12750
131.973	145.0	12800
132.55	143.0	12850
132.796	144.0	12900
133.374	142.0	12950
133.843	141.0	13000
134.202	141.0	13050
134.45	142.0	13100
134.808	142.0	13150
135.277	141.0	13200
135.858	139.0	13250
136.33	138.0	13300
136.47	140.0	13350
137.052	138.0	13400
137.303	139.0	13450
137.775	138.0	13500
138.026	139.0	13550
138.609	137.0	13600
138.639	140.0	13650
139.221	138.0	13700
139.472	139.0	13750
139.722	140.0	13800
139.971	141.0	13850
140.552	139.0	13900
140.913	139.0	13950
141.385	138.0	14000
141.414	141.0	14050
141.884	140.0	14100
142.133	141.0	14150
142.603	140.0	14200
142.963	140.0	14250
143.323	140.0	14300
143.683	140.0	14350
144.043	140.0	14400
144.403	140.0	14450
144.763	140.0	14500
145.234	139.0	14550
145.373	141.0	14600
145.732	141.0	14650
146.091	141.0	14700
146.561	140.0	14750
147.032	139.0	14800
147.06	142.0	14850
147.64	140.0	14900
147.889	141.0	14950
148.026	143.0	15000
148.383	143.0	15050
148.518	145.0	15100
148.984	144.0	15150
149.34	144.0	15200
149.696	144.0	15250
150.385	141.0	15300
150.744	141.0	15350
151.103	141.0	15400
151.573	140.0	15450
151.933	140.0	15500
152.182	141.0	15550
152.43	142.0	15600
152.899	141.0	15650
153.369	140.0	15700
153.729	140.0	15750
154.2	139.0	15800
154.45	140.0	15850
154.921	139.0	15900
155.282	139.0	15950
155.865	137.0	16000
156.117	138.0	16050
156.479	138.0	16100
156.841	138.0	16150
157.314	137.0	16200
157.788	136.0	16250
158.041	137.0	16300
158.515	136.0	16350
159.101	134.0	16400
159.356	135.0	16450
159.943	133.0	16500
159.977	136.0	16550
160.341	136.0	16600
160.816	135.0	16650
161.07	136.0	16700
161.545	135.0	16750
161.799	136.0	16800
162.163	136.0	16850
162.527	136.0	16900
162.891	136.0	16950
163.255	136.0	17000
163.397	138.0	17050
163.87	137.0	17100
164.344	136.0	17150
164.486	138.0	17200
164.737	139.0	17250
165.32	137.0	17300
165.683	137.0	17350
166.046	137.0	17400
166.409	137.0	17450
166.883	136.0	17500
167.247	136.0	17550
167.5	137.0	17600
168.196	134.0	17650
168.34	136.0	17700
168.926	134.0	17750
169.07	136.0	17800
169.545	135.0	17850
169.799	136.0	17900
170.496	133.0	17950
170.863	133.0	18000
171.008	135.0	18050
171.595	133.0	18100
171.74	135.0	18150
172.216	134.0	18200
172.582	134.0	18250
172.948	134.0	18300
173.314	134.0	18350
173.791	133.0	18400
174.158	133.0	18450
174.747	131.0	18500
175.005	132.0	18550
175.595	130.0	18600
175.854	131.0	18650
176.112	132.0	18700
176.702	130.0	18750
177.072	130.0	18800
177.442	130.0	18850
177.59	132.0	18900
178.18	130.0	18950
178.328	132.0	19000
178.807	131.0	19050
179.176	131.0	19100
179.323	133.0	19150
179.912	131.0	19200
180.17	132.0	19250
180.76	130.0	19300
180.908	132.0	19350
181.054	134.0	19400
181.642	132.0	19450
181.899	133.0	19500
182.488	131.0	19550
182.857	131.0	19600
183.004	133.0	19650
183.482	132.0	19700
183.85	132.0	19750
184.44	130.0	19800
184.81	130.0	19850
185.291	129.0	19900
185.662	129.0	19950
185.922	130.0	20000
186.292	130.0	20050
186.662	130.0	20100
187.032	130.0	20150
187.402	130.0	20200
187.772	130.0	20250
188.253	129.0	20300
188.735	128.0	20350
188.996	129.0	20400
189.256	130.0	20450
189.848	128.0	20500
190.331	127.0	20550
191.037	124.0	20600
192.523	114.0	20650
193.02	113.0	20700
193.074	116.0	20750
193.014	120.0	20800
193.172	122.0	20850
193.661	121.0	20900
194.151	120.0	20950
194.642	119.0	21000
195.134	118.0	21050
195.516	118.0	21100
195.787	119.0	21150
196.168	119.0	21200
196.549	119.0	21250
196.819	120.0	21300
197.088	121.0	21350
197.467	121.0	21400
197.735	122.0	21450
198.224	121.0	21500
198.27	124.0	21550
198.868	122.0	21600
199.135	123.0	21650
199.623	122.0	21700
199.779	124.0	21750
200.044	125.0	21800
201.196	118.0	21850
201.467	119.0	21900
201.626	121.0	21950
201.783	123.0	22000
202.049	124.0	22050
202.536	123.0	22100
202.802	124.0	22150
203.289	123.0	22200
203.777	122.0	22250
204.155	122.0	22300
204.533	122.0	22350
204.8	123.0	22400
205.177	123.0	22450
205.554	123.0	22500
205.82	124.0	22550
206.418	122.0	22600
206.463	125.0	22650
206.949	124.0	22700
207.325	124.0	22750
207.812	123.0	22800
208.744	118.0	22850
209.57	114.0	22900
208.291	129.0	22950
208.662	129.0	23000
209.033	129.0	23050
209.293	130.0	23100
209.441	132.0	23150
210.031	130.0	23200
210.29	131.0	23250
210.659	131.0	23300
211.028	131.0	23350
211.619	129.0	23400
211.879	130.0	23450
212.36	129.0	23500
212.62	130.0	23550
213.101	129.0	23600
213.25	131.0	23650
213.619	131.0	23700
213.988	131.0	23750
214.246	132.0	23800
214.614	132.0	23850
214.871	133.0	23900
215.349	132.0	23950
215.717	132.0	24000
216.085	132.0	24050
216.564	131.0	24100
217.044	130.0	24150
217.192	132.0	24200
217.782	130.0	24250
217.93	132.0	24300
218.298	132.0	24350
218.666	132.0	24400
218.923	133.0	24450
219.29	133.0	24500
219.657	133.0	24550
220.135	132.0	24600
220.614	131.0	24650
221.205	129.0	24700
221.798	127.0	24750
222.393	125.0	24800
222.768	125.0	24850
223.254	124.0	24900
223.297	127.0	24950
223.337	130.0	25000
223.596	131.0	25050
223.632	134.0	25100
223.554	138.0	25150
222.806	148.0	25200
222.159	157.0	25250
222.391	158.0	25300
223.399	152.0	25350
224.302	147.0	25400
224.211	151.0	25450
224.005	156.0	25500
224.349	156.0	25550
224.249	160.0	25600
224.367	162.0	25650
224.705	162.0	25700
225.265	160.0	25750
225.716	159.0	25800
225.724	162.0	25850
226.062	162.0	25900
225.734	168.0	25950
225.844	170.0	26000
226.507	167.0	26050
