-59.5	139.0	0
-60.0	140.0	57
-61.0	142.0	114
-60.5	141.0	171
-60.0	140.0	228
-60.0	140.0	285
-60.5	141.0	342
-60.5	141.0	399
-60.0	140.0	456
-60.5	141.0	513
-60.5	141.0	570
-60.0	140.0	630
-60.0	140.0	687
-60.0	140.0	744
-59.5	139.0	801
-60.0	140.0	858
-59.5	139.0	915
-60.5	141.0	972
-60.0	140.0	1029
-60.0	140.0	1087
-61.0	142.0	1145
-60.5	141.0	1203
-60.5	141.0	1261
-61.0	142.0	1319
