40	51	596.0	0
40	51	596.0	50
40	51	596.0	100
40	51	595.0	150
40	50	588.0	200
40	48	566.0	250
40	45	539.0	300
40	41	508.0	350
40	39	488.0	400
40	38	481.0	450
40	41	500.0	500
40	43	519.0	550
40	45	540.0	600
40	46	547.0	650
40	45	538.0	700
40	45	536.0	750
40	42	515.0	800
40	39	487.0	850
40	39	480.0	900
40	37	468.0	950
40	39	484.0	1000
40	41	501.0	1050
40	41	506.0	1100
40	43	517.0	1150
40	42	512.0	1200
40	41	507.0	1250
40	42	509.0	1300
40	40	494.0	1350
40	41	504.0	1400
40	42	514.0	1450
40	43	521.0	1500
40	44	529.0	1550
40	44	532.0	1600
40	44	533.0	1650
40	45	535.0	1700
40	45	533.0	1750
40	44	526.0	1800
40	44	526.0	1850
40	44	528.0	1900
40	45	539.0	1950
40	45	536.0	2000
40	45	534.0	2050
40	45	538.0	2100
40	44	526.0	2150
40	43	514.0	2200
40	42	504.0	2250
40	41	496.0	2300
40	41	496.0	2350
40	41	500.0	2400
40	41	501.0	2450
40	42	508.0	2500
40	42	506.0	2550
40	42	505.0	2600
40	42	511.0	2650
40	42	503.0	2700
40	42	505.0	2750
40	40	487.0	2800
40	38	468.0	2850
40	38	467.0	2900
40	39	483.0	2950
40	43	513.0	3000
40	44	528.0	3050
40	45	536.0	3100
40	45	534.0	3150
40	44	527.0	3200
40	45	533.0	3250
40	44	524.0	3300
40	43	515.0	3350
40	44	523.0	3400
40	42	504.0	3450
40	41	496.0	3500
40	40	487.0	3550
40	40	487.0	3600
40	41	497.0	3650
40	41	499.0	3700
40	43	518.0	3750
40	45	533.0	3800
40	44	528.0	3850
40	45	535.0	3900
40	46	539.0	3950
40	46	541.0	4000
40	46	543.0	4050
40	45	530.0	4100
40	44	523.0	4150
40	44	520.0	4200
40	44	518.0	4250
40	44	522.0	4300
40	45	526.0	4350
40	44	522.0	4400
40	44	523.0	4450
40	44	522.0	4500
40	46	535.0	4550
40	46	536.0	4600
40	44	520.0	4650
40	44	515.0	4700
40	40	487.0	4750
40	38	469.0	4800
40	37	452.0	4850
40	37	459.0	4900
40	39	479.0	4950
40	42	499.0	5000
40	43	509.0	5050
40	43	511.0	5100
40	41	493.0	5150
40	41	495.0	5200
40	41	495.0	5250
40	41	498.0	5300
40	42	502.0	5350
40	42	501.0	5400
40	43	512.0	5450
40	42	506.0	5500
40	44	517.0	5550
40	44	519.0	5600
40	44	519.0	5650
40	44	518.0	5700
40	42	506.0	5750
40	43	509.0	5800
40	43	514.0	5850
40	44	518.0	5900
40	45	529.0	5950
40	44	517.0	6000
40	43	510.0	6050
40	40	486.0	6100
40	37	459.0	6150
40	38	467.0	6200
40	39	473.0	6250
40	41	490.0	6300
40	43	508.0	6350
40	42	506.0	6400
40	41	496.0	6450
40	40	482.0	6500
40	42	499.0	6550
40	43	510.0	6600
40	42	506.0	6650
40	43	511.0	6700
40	43	510.0	6750
40	43	508.0	6800
40	43	512.0	6850
40	44	520.0	6900
40	45	524.0	6950
40	44	521.0	7000
40	44	515.0	7050
40	43	510.0	7100
40	41	496.0	7150
40	43	511.0	7200
40	44	523.0	7250
40	45	523.0	7300
40	46	535.0	7350
40	44	520.0	7400
40	43	509.0	7450
40	41	490.0	7500
40	40	480.0	7550
40	41	488.0	7600
40	42	497.0	7650
40	44	514.0	7700
40	43	512.0	7750
40	42	503.0	7800
40	42	504.0	7850
40	44	514.0	7900
40	45	524.0	7950
40	45	522.0	8000
40	44	516.0	8050
40	43	510.0	8100
40	42	496.0	8150
40	44	514.0	8200
40	46	532.0	8250
40	46	535.0	8300
40	46	534.0	8350
40	45	522.0	8400
40	44	513.0	8450
40	44	517.0	8500
40	45	520.0	8550
40	45	527.0	8600
40	45	524.0	8650
40	44	518.0	8700
40	44	511.0	8750
40	41	491.0	8800
40	41	491.0	8850
40	42	497.0	8900
40	42	493.0	8950
40	43	506.0	9000
40	43	502.0	9050
40	42	501.0	9100
40	42	500.0	9150
40	42	499.0	9200
40	43	509.0	9250
40	42	497.0	9300
40	42	496.0	9350
40	41	489.0	9400
40	41	488.0	9450
40	42	501.0	9500
40	42	500.0	9550
40	44	511.0	9600
40	45	521.0	9650
40	43	507.0	9700
40	43	502.0	9750
40	41	490.0	9800
40	43	503.0	9850
40	44	513.0	9900
40	43	509.0	9950
40	44	513.0	10000
40	43	502.0	10050
40	42	495.0	10100
40	40	474.0	10150
40	40	481.0	10200
40	42	495.0	10250
40	43	506.0	10300
40	45	527.0	10350
40	45	526.0	10400
40	45	519.0	10450
40	45	521.0	10500
40	44	513.0	10550
40	44	515.0	10600
40	43	509.0	10650
40	43	502.0	10700
40	43	502.0	10750
40	43	504.0	10800
40	45	521.0	10850
40	45	526.0	10900
40	45	523.0	10950
40	45	519.0	11000
40	42	498.0	11050
40	42	493.0	11100
40	43	503.0	11150
40	44	516.0	11200
40	45	525.0	11250
40	45	522.0	11300
40	45	517.0	11350
40	43	500.0	11400
40	40	479.0	11450
40	40	472.0	11500
40	40	474.0	11550
40	40	480.0	11600
40	42	495.0	11650
40	43	505.0	11700
40	44	512.0	11750
40	43	504.0	11800
40	44	512.0	11850
40	44	512.0	11900
40	42	499.0	11950
40	42	497.0	12000
40	42	496.0	12050
40	44	511.0	12100
40	45	523.0	12150
40	46	531.0	12200
40	47	537.0	12250
40	46	534.0	12300
40	45	521.0	12350
40	44	508.0	12400
40	41	488.0	12450
40	42	492.0	12500
40	42	491.0	12550
40	41	488.0	12600
40	42	492.0	12650
40	41	486.0	12700
40	40	479.0	12750
40	38	458.0	12800
40	40	472.0	12850
40	42	491.0	12900
40	41	490.0	12950
40	42	499.0	13000
40	41	489.0	13050
40	40	473.0	13100
40	40	474.0	13150
40	40	481.0	13200
40	43	504.0	13250
40	43	505.0	13300
40	43	507.0	13350
40	43	501.0	13400
40	43	501.0	13450
40	43	505.0	13500
40	43	507.0	13550
40	45	518.0	13600
40	46	527.0	13650
40	45	523.0	13700
40	45	518.0	13750
40	43	502.0	13800
40	44	509.0	13850
40	44	515.0	13900
40	43	507.0	13950
40	44	516.0	14000
40	43	507.0	14050
40	42	498.0	14100
40	41	483.0	14150
40	40	477.0	14200
40	40	480.0	14250
40	42	490.0	14300
40	42	498.0	14350
40	42	496.0	14400
40	40	480.0	14450
40	42	497.0	14500
40	42	496.0	14550
40	42	493.0	14600
40	42	493.0	14650
40	41	482.0	14700
40	41	485.0	14750
40	41	487.0	14800
40	43	505.0	14850
40	45	518.0	14900
40	45	526.0	14950
40	46	529.0	15000
40	44	512.0	15050
40	43	502.0	15100
40	44	509.0	15150
40	45	519.0	15200
40	46	531.0	15250
40	45	523.0	15300
40	44	516.0	15350
40	43	502.0	15400
40	40	475.0	15450
40	39	469.0	15500
40	40	474.0	15550
40	43	505.0	15600
40	53	594.0	15650
40	53	595.0	15700
40	53	592.0	15750
40	51	576.0	15800
40	47	537.0	15850
40	39	465.0	15900
40	30	384.0	15950
40	28	362.0	16000
40	34	422.0	16050
40	43	506.0	16100
40	47	543.0	16150
40	48	549.0	16200
40	47	538.0	16250
40	43	502.0	16300
40	40	472.0	16350
40	37	444.0	16400
40	36	442.0	16450
40	38	459.0	16500
40	39	470.0	16550
40	42	496.0	16600
40	42	497.0	16650
40	40	480.0	16700
40	40	474.0	16750
40	38	461.0	16800
40	38	463.0	16850
40	40	480.0	16900
40	41	489.0	16950
40	43	506.0	17000
40	43	502.0	17050
40	43	501.0	17100
40	42	494.0	17150
40	40	478.0	17200
40	40	479.0	17250
40	40	476.0	17300
40	41	492.0	17350
40	44	512.0	17400
40	44	519.0	17450
40	45	522.0	17500
40	44	517.0	17550
40	44	516.0	17600
40	43	501.0	17650
40	41	489.0	17700
40	42	498.0	17750
40	43	502.0	17800
40	42	500.0	17850
40	42	495.0	17900
40	40	477.0	17950
40	39	471.0	18000
40	37	455.0	18050
40	38	458.0	18100
40	40	481.0	18150
40	41	493.0	18200
40	44	514.0	18250
40	44	519.0	18300
40	42	495.0	18350
40	40	479.0	18400
40	38	464.0	18450
40	38	466.0	18500
40	40	477.0	18550
40	41	488.0	18600
40	44	514.0	18650
40	43	508.0	18700
40	45	521.0	18750
40	45	524.0	18800
40	45	521.0	18850
40	45	527.0	18900
40	43	511.0	18950
40	43	505.0	19000
40	43	509.0	19050
40	42	500.0	19100
40	44	519.0	19150
40	46	529.0	19200
40	45	524.0	19250
40	44	517.0	19300
40	41	487.0	19350
40	40	477.0	19400
40	40	480.0	19450
40	42	495.0	19500
40	44	519.0	19550
40	45	526.0	19600
40	44	519.0	19650
40	43	503.0	19700
40	40	481.0	19750
40	41	486.0	19800
40	41	487.0	19850
40	42	498.0	19900
40	44	515.0	19950
40	45	524.0	20000
40	46	534.0	20050
40	46	529.0	20100
40	46	528.0	20150
40	45	523.0	20200
40	43	507.0	20250
40	43	500.0	20300
40	42	496.0	20350
40	42	496.0	20400
40	43	503.0	20450
40	43	505.0	20500
40	44	511.0	20550
40	43	508.0	20600
40	43	503.0	20650
40	41	488.0	20700
40	39	468.0	20750
40	40	476.0	20800
40	42	493.0	20850
40	43	501.0	20900
40	44	510.0	20950
40	42	497.0	21000
40	40	481.0	21050
40	39	472.0	21100
40	40	480.0	21150
40	42	497.0	21200
40	43	501.0	21250
40	45	519.0	21300
40	44	516.0	21350
40	44	513.0	21400
40	44	515.0	21450
40	43	505.0	21500
40	43	505.0	21550
40	42	497.0	21600
40	41	491.0	21650
40	42	496.0	21700
40	41	487.0	21750
40	42	493.0	21800
40	42	496.0	21850
40	42	499.0	21900
40	42	498.0	21950
40	41	484.0	22000
40	42	492.0	22050
40	40	479.0	22100
40	39	469.0	22150
40	39	473.0	22200
40	41	485.0	22250
40	43	504.0	22300
40	43	503.0	22350
40	42	497.0	22400
40	41	490.0	22450
40	42	495.0	22500
40	42	498.0	22550
40	41	484.0	22600
40	42	500.0	22650
40	44	516.0	22700
40	45	522.0	22750
40	45	528.0	22800
40	46	535.0	22850
40	47	540.0	22900
40	47	538.0	22950
40	45	522.0	23000
40	44	511.0	23050
40	43	505.0	23100
40	44	510.0	23150
40	46	532.0	23200
40	46	528.0	23250
40	45	526.0	23300
40	43	506.0	23350
40	41	485.0	23400
40	40	474.0	23450
40	41	488.0	23500
40	42	499.0	23550
40	43	507.0	23600
40	44	514.0	23650
40	45	518.0	23700
40	44	510.0	23750
40	44	514.0	23800
40	43	506.0	23850
40	41	487.0	23900
40	41	489.0	23950
40	42	497.0	24000
40	45	521.0	24050
40	47	537.0	24100
40	48	545.0	24150
40	48	546.0	24200
40	46	533.0	24250
40	45	516.0	24300
40	43	504.0	24350
40	42	495.0	24400
40	43	505.0	24450
40	44	515.0	24500
40	45	519.0	24550
40	44	514.0	24600
40	42	489.0	24650
40	40	473.0	24700
40	38	455.0	24750
40	38	458.0	24800
40	40	478.0	24850
40	42	494.0	24900
40	44	509.0	24950
40	42	496.0	25000
40	39	468.0	25050
40	39	465.0	25100
40	40	476.0	25150
40	42	497.0	25200
40	43	503.0	25250
40	45	520.0	25300
40	45	520.0	25350
40	45	517.0	25400
40	45	521.0	25450
40	45	518.0	25500
40	44	516.0	25550
40	44	515.0	25600
40	43	502.0	25650
40	44	512.0	25700
40	45	516.0	25750
40	47	535.0	25800
40	48	547.0	25850
40	47	534.0	25900
40	46	525.0	25950
40	43	500.0	26000
40	41	484.0	26050
40	40	476.0	26100
40	42	488.0	26150
40	43	504.0	26200
40	44	514.0	26250
40	43	504.0	26300
40	43	497.0	26350
40	41	486.0	26400
40	42	490.0	26450
40	43	501.0	26500
40	43	499.0	26550
40	43	501.0	26600
40	43	498.0	26650
40	44	509.0	26700
40	45	515.0	26750
40	45	520.0	26800
40	46	528.0	26850
40	46	524.0	26900
40	45	517.0	26950
40	44	507.0	27000
40	42	489.0	27050
40	43	502.0	27100
40	45	520.0	27150
40	47	532.0	27200
40	46	531.0	27250
40	44	507.0	27300
40	42	492.0	27350
40	40	477.0	27400
40	40	472.0	27450
40	42	490.0	27500
40	44	508.0	27550
40	45	515.0	27600
40	43	500.0	27650
40	41	484.0	27700
40	42	490.0	27750
40	43	498.0	27800
40	43	497.0	27850
40	42	492.0	27900
40	41	486.0	27950
40	43	497.0	28000
40	43	505.0	28050
40	45	523.0	28100
40	47	533.0	28150
40	46	530.0	28200
40	45	519.0	28250
40	42	488.0	28300
40	40	476.0	28350
40	41	482.0	28400
40	43	498.0	28450
40	46	523.0	28500
40	46	523.0	28550
40	45	517.0	28600
40	42	487.0	28650
40	39	460.0	28700
40	37	448.0	28750
40	38	456.0	28800
40	42	490.0	28850
40	45	518.0	28900
40	45	519.0	28950
40	44	509.0	29000
40	41	484.0	29050
40	41	482.0	29100
40	42	488.0	29150
40	42	493.0	29200
40	43	503.0	29250
40	44	511.0	29300
40	46	529.0	29350
40	47	539.0	29400
40	47	538.0	29450
40	47	535.0	29500
40	46	524.0	29550
40	44	507.0	29600
40	43	501.0	29650
40	43	502.0	29700
40	45	520.0	29750
40	46	527.0	29800
40	45	521.0	29850
40	43	500.0	29900
40	39	465.0	29950
40	38	450.0	30000
40	38	453.0	30050
40	39	466.0	30100
40	42	487.0	30150
40	44	505.0	30200
40	45	514.0	30250
40	42	491.0	30300
40	38	458.0	30350
40	38	460.0	30400
40	40	474.0	30450
40	43	497.0	30500
40	44	510.0	30550
40	45	520.0	30600
40	46	525.0	30650
40	44	512.0	30700
40	45	518.0	30750
40	45	518.0	30800
40	46	524.0	30850
40	46	528.0	30900
40	50	567.0	30950
40	54	596.0	31000
40	54	596.0	31050
40	53	591.0	31100
40	52	578.0	31150
40	47	530.0	31200
40	38	447.0	31250
40	28	361.0	31300
40	27	354.0	31350
40	35	424.0	31400
40	43	501.0	31450
40	48	541.0	31500
40	48	541.0	31550
40	46	523.0	31600
40	42	489.0	31650
40	36	439.0	31700
40	33	411.0	31750
40	34	416.0	31800
40	39	469.0	31850
40	45	517.0	31900
40	46	530.0	31950
40	47	539.0	32000
40	46	527.0	32050
40	44	513.0	32100
40	43	504.0	32150
40	41	479.0	32200
40	42	488.0	32250
40	43	499.0	32300
40	45	514.0	32350
40	47	535.0	32400
40	46	524.0	32450
40	44	510.0	32500
40	41	482.0	32550
40	37	446.0	32600
40	37	445.0	32650
40	39	460.0	32700
40	41	483.0	32750
40	44	514.0	32800
40	44	508.0	32850
40	44	508.0	32900
40	42	488.0	32950
40	40	474.0	33000
40	40	478.0	33050
40	39	464.0	33100
40	41	484.0	33150
40	43	505.0	33200
40	45	516.0	33250
40	45	516.0	33300
40	44	513.0	33350
40	44	507.0	33400
40	43	502.0	33450
40	40	474.0	33500
40	40	472.0	33550
40	41	480.0	33600
40	43	498.0	33650
40	46	529.0	33700
40	46	528.0	33750
40	45	519.0	33800
40	42	493.0	33850
40	39	466.0	33900
40	37	451.0	33950
40	38	456.0	34000
40	41	487.0	34050
40	45	517.0	34100
40	45	517.0	34150
40	46	526.0	34200
40	44	508.0	34250
40	41	485.0	34300
40	41	483.0	34350
40	40	476.0	34400
40	42	489.0	34450
40	43	505.0	34500
40	45	521.0	34550
40	47	538.0	34600
40	47	539.0	34650
40	48	544.0	34700
40	48	544.0	34750
40	46	531.0	34800
40	45	519.0	34850
40	44	513.0	34900
40	45	515.0	34950
40	48	541.0	35000
40	47	540.0	35050
40	47	538.0	35100
40	45	521.0	35150
40	43	503.0	35200
40	41	477.0	35250
40	40	475.0	35300
40	42	494.0	35350
40	44	511.0	35400
40	45	518.0	35450
40	45	520.0	35500
40	44	510.0	35550
40	43	495.0	35600
40	41	481.0	35650
40	41	478.0	35700
40	41	480.0	35750
40	42	489.0	35800
40	43	495.0	35850
40	43	504.0	35900
40	44	513.0	35950
40	46	526.0	36000
40	46	527.0	36050
40	45	515.0	36100
40	43	500.0	36150
40	42	487.0	36200
40	42	494.0	36250
40	46	530.0	36300
40	48	540.0	36350
40	48	540.0	36400
40	45	515.0	36450
40	40	474.0	36500
40	37	447.0	36550
40	36	436.0	36600
40	39	466.0	36650
40	43	499.0	36700
40	45	521.0	36750
40	47	533.0	36800
40	45	518.0	36850
40	42	493.0	36900
40	40	471.0	36950
40	39	461.0	37000
40	39	464.0	37050
40	41	484.0	37100
40	44	510.0	37150
40	46	530.0	37200
40	46	528.0	37250
40	46	529.0	37300
40	45	516.0	37350
40	43	498.0	37400
40	41	484.0	37450
40	40	468.0	37500
40	40	476.0	37550
40	43	501.0	37600
40	46	531.0	37650
40	48	541.0	37700
40	46	529.0	37750
40	44	508.0	37800
40	40	473.0	37850
40	38	450.0	37900
40	38	454.0	37950
40	40	472.0	38000
40	43	499.0	38050
40	45	517.0	38100
40	46	526.0	38150
40	46	523.0	38200
40	42	490.0	38250
40	41	485.0	38300
40	41	483.0	38350
40	41	482.0	38400
40	43	501.0	38450
40	44	512.0	38500
40	46	529.0	38550
40	47	533.0	38600
40	47	538.0	38650
40	48	540.0	38700
40	46	522.0	38750
40	43	502.0	38800
40	42	487.0	38850
40	42	491.0	38900
40	47	535.0	38950
40	49	549.0	39000
40	49	551.0	39050
40	48	544.0	39100
40	46	520.0	39150
40	43	494.0	39200
40	40	466.0	39250
40	39	457.0	39300
40	41	478.0	39350
40	43	501.0	39400
40	45	513.0	39450
40	45	515.0	39500
40	44	504.0	39550
40	43	493.0	39600
40	41	483.0	39650
40	41	477.0	39700
40	41	483.0	39750
40	43	497.0	39800
40	44	511.0	39850
40	46	528.0	39900
40	47	538.0	39950
40	47	531.0	40000
40	45	517.0	40050
40	43	496.0	40100
40	40	469.0	40150
40	40	471.0	40200
40	43	500.0	40250
40	46	520.0	40300
40	46	522.0	40350
40	44	504.0	40400
40	41	476.0	40450
40	37	439.0	40500
40	35	425.0	40550
40	38	453.0	40600
40	42	488.0	40650
40	45	518.0	40700
40	46	523.0	40750
40	44	511.0	40800
40	42	489.0	40850
40	39	465.0	40900
40	40	471.0	40950
40	41	481.0	41000
40	43	496.0	41050
40	45	517.0	41100
40	46	528.0	41150
40	47	535.0	41200
40	48	540.0	41250
40	48	540.0	41300
40	47	535.0	41350
40	45	519.0	41400
40	44	502.0	41450
40	43	496.0	41500
40	44	503.0	41550
40	46	524.0	41600
40	46	521.0	41650
40	44	510.0	41700
40	42	489.0	41750
40	39	458.0	41800
40	37	441.0	41850
40	39	459.0	41900
40	42	492.0	41950
40	45	517.0	42000
40	46	524.0	42050
40	45	516.0	42100
40	42	491.0	42150
40	40	467.0	42200
40	39	462.0	42250
40	41	477.0	42300
40	43	499.0	42350
40	44	512.0	42400
40	46	522.0	42450
40	47	532.0	42500
40	47	533.0	42550
40	47	536.0	42600
40	47	533.0	42650
40	47	529.0	42700
40	45	512.0	42750
40	43	500.0	42800
40	43	495.0	42850
40	44	510.0	42900
40	47	530.0	42950
40	46	526.0	43000
40	44	508.0	43050
40	42	491.0	43100
40	40	468.0	43150
40	39	459.0	43200
40	40	467.0	43250
40	41	481.0	43300
40	43	497.0	43350
40	42	486.0	43400
40	41	480.0	43450
40	39	461.0	43500
40	39	459.0	43550
40	41	480.0	43600
40	42	487.0	43650
40	43	502.0	43700
40	44	505.0	43750
40	44	507.0	43800
40	44	510.0	43850
40	45	518.0	43900
40	46	526.0	43950
40	46	524.0	44000
40	45	519.0	44050
40	44	509.0	44100
40	42	490.0	44150
40	42	488.0	44200
40	45	516.0	44250
40	46	525.0	44300
40	46	521.0	44350
40	43	500.0	44400
40	41	480.0	44450
40	40	469.0	44500
40	41	479.0	44550
40	43	501.0	44600
40	45	512.0	44650
40	46	525.0	44700
40	46	521.0	44750
40	44	504.0	44800
40	42	484.0	44850
40	40	471.0	44900
40	41	478.0	44950
40	41	483.0	45000
40	43	498.0	45050
40	45	517.0	45100
40	47	531.0	45150
40	48	539.0	45200
40	47	535.0	45250
40	46	522.0	45300
40	44	509.0	45350
40	41	479.0	45400
40	40	470.0	45450
40	41	483.0	45500
40	45	515.0	45550
40	48	541.0	45600
40	47	531.0	45650
40	44	510.0	45700
40	40	473.0	45750
40	37	442.0	45800
40	37	445.0	45850
40	40	470.0	45900
40	43	498.0	45950
40	45	520.0	46000
40	46	528.0	46050
40	46	526.0	46100
40	44	508.0	46150
40	42	489.0	46200
40	41	477.0	46250
40	40	474.0	46300
40	42	492.0	46350
40	44	507.0	46400
40	46	524.0	46450
40	47	537.0	46500
40	49	550.0	46550
40	50	558.0	46600
40	49	553.0	46650
40	48	537.0	46700
40	45	510.0	46750
40	43	493.0	46800
40	46	525.0	46850
40	54	595.0	46900
40	54	595.0	46950
40	53	586.0	47000
40	49	551.0	47050
40	42	487.0	47100
40	33	407.0	47150
40	29	368.0	47200
40	33	402.0	47250
40	39	457.0	47300
40	46	519.0	47350
40	47	535.0	47400
40	47	535.0	47450
40	45	515.0	47500
40	42	486.0	47550
40	39	461.0	47600
40	37	439.0	47650
40	39	463.0	47700
40	43	492.0	47750
40	45	518.0	47800
40	46	523.0	47850
40	44	506.0	47900
40	41	478.0	47950
40	39	457.0	48000
40	37	444.0	48050
40	39	462.0	48100
40	44	508.0	48150
40	47	530.0	48200
40	47	534.0	48250
40	45	516.0	48300
40	41	483.0	48350
40	38	456.0	48400
40	37	439.0	48450
40	39	461.0	48500
40	41	479.0	48550
40	42	491.0	48600
40	44	508.0	48650
40	43	495.0	48700
40	41	482.0	48750
40	40	475.0	48800
40	39	467.0	48850
40	41	482.0	48900
40	42	490.0	48950
40	44	506.0	49000
40	44	508.0	49050
40	44	504.0	49100
40	44	511.0	49150
40	44	505.0	49200
40	43	501.0	49250
40	43	501.0	49300
40	42	489.0	49350
40	43	495.0	49400
40	43	498.0	49450
40	44	506.0	49500
40	44	509.0	49550
40	42	491.0	49600
40	40	473.0	49650
40	38	452.0	49700
40	38	453.0	49750
40	39	460.0	49800
40	40	477.0	49850
40	42	495.0	49900
40	42	495.0	49950
40	43	502.0	50000
40	42	495.0	50050
40	40	476.0	50100
40	40	473.0	50150
40	39	468.0	50200
40	40	477.0	50250
40	41	485.0	50300
40	43	504.0	50350
40	45	520.0	50400
40	46	531.0	50450
40	47	534.0	50500
40	47	541.0	50550
40	47	536.0	50600
40	47	533.0	50650
40	44	511.0	50700
40	44	505.0	50750
40	45	516.0	50800
40	45	514.0	50850
40	45	519.0	50900
40	45	515.0	50950
40	43	503.0	51000
40	42	487.0	51050
40	40	475.0	51100
40	41	484.0	51150
40	42	490.0	51200
40	43	498.0	51250
40	45	521.0	51300
40	45	521.0	51350
40	44	512.0	51400
40	43	498.0	51450
40	42	492.0	51500
40	43	496.0	51550
40	41	479.0	51600
40	40	477.0	51650
40	42	490.0	51700
40	43	502.0	51750
40	46	525.0	51800
40	46	525.0	51850
40	45	516.0	51900
40	43	503.0	51950
40	40	470.0	52000
40	39	467.0	52050
40	42	490.0	52100
40	46	524.0	52150
40	48	543.0	52200
40	47	537.0	52250
40	44	511.0	52300
40	40	470.0	52350
40	37	443.0	52400
40	36	434.0	52450
40	38	452.0	52500
40	41	480.0	52550
40	43	497.0	52600
40	44	512.0	52650
40	44	510.0	52700
40	43	498.0	52750
40	40	476.0	52800
40	39	468.0	52850
40	40	473.0	52900
40	42	490.0	52950
40	43	505.0	53000
40	44	515.0	53050
40	45	523.0	53100
40	46	524.0	53150
40	46	530.0	53200
40	45	518.0	53250
40	43	505.0	53300
40	41	482.0	53350
40	39	469.0	53400
40	42	489.0	53450
40	44	514.0	53500
40	47	534.0	53550
40	46	532.0	53600
40	45	515.0	53650
40	41	479.0	53700
40	37	449.0	53750
40	37	445.0	53800
40	39	466.0	53850
40	41	486.0	53900
40	44	507.0	53950
40	45	519.0	54000
40	45	516.0	54050
40	42	497.0	54100
40	40	474.0	54150
40	40	471.0	54200
40	40	471.0	54250
40	41	481.0	54300
40	42	497.0	54350
40	45	518.0	54400
40	47	536.0	54450
40	47	537.0	54500
40	47	541.0	54550
40	47	534.0	54600
40	45	521.0	54650
40	43	505.0	54700
40	43	500.0	54750
40	46	525.0	54800
40	47	537.0	54850
40	48	548.0	54900
40	47	540.0	54950
40	45	519.0	55000
40	43	500.0	55050
40	40	471.0	55100
40	39	463.0	55150
40	40	476.0	55200
40	42	492.0	55250
40	45	516.0	55300
40	46	526.0	55350
40	45	518.0	55400
40	43	496.0	55450
40	41	483.0	55500
40	42	489.0	55550
40	41	486.0	55600
40	43	499.0	55650
40	44	510.0	55700
40	46	526.0	55750
40	47	532.0	55800
40	47	531.0	55850
40	46	522.0	55900
40	44	508.0	55950
40	42	490.0	56000
40	41	485.0	56050
40	44	505.0	56100
40	48	541.0	56150
40	48	545.0	56200
40	46	527.0	56250
40	44	504.0	56300
40	40	469.0	56350
40	37	444.0	56400
40	35	424.0	56450
40	37	444.0	56500
40	40	475.0	56550
40	43	503.0	56600
40	46	525.0	56650
40	45	518.0	56700
40	42	494.0	56750
40	39	464.0	56800
40	38	456.0	56850
40	40	478.0	56900
40	42	493.0	56950
40	44	509.0	57000
40	46	525.0	57050
40	46	526.0	57100
40	45	522.0	57150
40	45	522.0	57200
40	45	522.0	57250
40	46	525.0	57300
40	45	519.0	57350
40	45	515.0	57400
40	46	523.0	57450
40	47	532.0	57500
40	47	539.0	57550
40	46	527.0	57600
40	45	520.0	57650
40	42	491.0	57700
40	40	468.0	57750
40	39	465.0	57800
40	40	472.0	57850
40	42	487.0	57900
40	43	495.0	57950
40	43	498.0	58000
40	42	490.0	58050
40	41	477.0	58100
40	41	482.0	58150
40	41	482.0	58200
40	42	490.0	58250
40	43	497.0	58300
40	43	501.0	58350
40	45	516.0	58400
40	46	523.0	58450
40	47	536.0	58500
40	48	542.0	58550
40	47	536.0	58600
40	46	527.0	58650
40	43	499.0	58700
40	42	490.0	58750
40	44	510.0	58800
40	47	532.0	58850
40	49	548.0	58900
40	48	540.0	58950
40	45	516.0	59000
40	42	484.0	59050
40	38	451.0	59100
40	39	461.0	59150
40	41	482.0	59200
40	43	498.0	59250
40	46	521.0	59300
40	45	516.0	59350
40	42	491.0	59400
40	38	457.0	59450
40	37	447.0	59500
40	39	462.0	59550
40	40	472.0	59600
40	44	504.0	59650
40	44	512.0	59700
40	44	511.0	59750
40	44	508.0	59800
40	44	508.0	59850
40	44	512.0	59900
40	44	505.0	59950
40	42	493.0	60000
40	41	477.0	60050
40	41	478.0	60100
40	44	504.0	60150
40	45	514.0	60200
40	45	521.0	60250
40	44	509.0	60300
40	41	477.0	60350
40	38	457.0	60400
40	36	439.0	60450
40	39	465.0	60500
40	42	491.0	60550
40	45	516.0	60600
40	47	537.0	60650
40	46	531.0	60700
40	45	517.0	60750
40	42	488.0	60800
40	41	478.0	60850
40	42	493.0	60900
40	42	495.0	60950
40	44	508.0	61000
40	45	520.0	61050
40	46	524.0	61100
40	46	526.0	61150
40	45	518.0	61200
40	44	510.0	61250
40	43	500.0	61300
40	41	481.0	61350
40	43	495.0	61400
40	44	508.0	61450
40	47	537.0	61500
40	47	537.0	61550
40	44	511.0	61600
40	42	490.0	61650
40	39	458.0	61700
40	37	442.0	61750
40	39	460.0	61800
40	42	490.0	61850
40	44	511.0	61900
40	45	516.0	61950
40	45	517.0	62000
40	42	494.0	62050
40	39	467.0	62100
40	40	475.0	62150
40	41	485.0	62200
40	44	505.0	62250
40	45	519.0	62300
40	45	521.0	62350
40	45	522.0	62400
40	46	523.0	62450
40	47	533.0	62500
40	47	531.0	62550
40	45	521.0	62600
40	45	515.0	62650
40	43	502.0	62700
40	45	514.0	62750
40	47	536.0	62800
40	49	551.0	62850
40	49	553.0	62900
40	47	531.0	62950
40	43	494.0	63000
