49	40	585.0	0
50	40	586.0	50
49	40	583.0	100
48	40	574.0	150
46	40	547.0	200
41	40	504.0	250
32	40	429.0	300
28	40	392.0	350
27	40	378.0	400
31	40	419.0	450
36	40	460.0	500
41	40	507.0	550
42	40	514.0	600
41	40	505.0	650
38	40	484.0	700
36	40	462.0	750
36	40	467.0	800
37	40	474.0	850
38	40	483.0	900
39	40	492.0	950
39	40	493.0	1000
40	40	500.0	1050
40	40	499.0	1100
38	40	485.0	1150
36	40	468.0	1200
34	40	447.0	1250
34	40	445.0	1300
35	40	454.0	1350
35	40	461.0	1400
37	40	479.0	1450
39	40	496.0	1500
40	40	503.0	1550
38	40	487.0	1600
36	40	470.0	1650
36	40	468.0	1700
35	40	460.0	1750
36	40	470.0	1800
38	40	484.0	1850
39	40	499.0	1900
39	40	492.0	1950
38	40	489.0	2000
37	40	479.0	2050
36	40	466.0	2100
37	40	475.0	2150
37	40	478.0	2200
38	40	492.0	2250
37	40	479.0	2300
36	40	475.0	2350
37	40	484.0	2400
38	40	491.0	2450
40	40	504.0	2500
39	40	495.0	2550
37	40	481.0	2600
35	40	461.0	2650
34	40	451.0	2700
34	40	454.0	2750
34	40	454.0	2800
36	40	471.0	2850
38	40	488.0	2900
38	40	493.0	2950
37	40	483.0	3000
36	40	469.0	3050
36	40	475.0	3100
36	40	472.0	3150
37	40	487.0	3200
38	40	494.0	3250
40	40	506.0	3300
40	40	506.0	3350
39	40	498.0	3400
37	40	485.0	3450
35	40	466.0	3500
37	40	480.0	3550
39	40	498.0	3600
40	40	513.0	3650
40	40	511.0	3700
38	40	491.0	3750
37	40	480.0	3800
35	40	463.0	3850
33	40	452.0	3900
33	40	453.0	3950
33	40	451.0	4000
34	40	459.0	4050
34	40	462.0	4100
35	40	467.0	4150
35	40	469.0	4200
36	40	478.0	4250
37	40	483.0	4300
36	40	478.0	4350
34	40	462.0	4400
34	40	459.0	4450
35	40	474.0	4500
37	40	487.0	4550
39	40	508.0	4600
40	40	512.0	4650
40	40	515.0	4700
38	40	498.0	4750
37	40	484.0	4800
36	40	480.0	4850
37	40	486.0	4900
38	40	497.0	4950
40	40	514.0	5000
40	40	520.0	5050
39	40	504.0	5100
37	40	489.0	5150
37	40	489.0	5200
37	40	490.0	5250
38	40	498.0	5300
38	40	500.0	5350
37	40	493.0	5400
37	40	485.0	5450
36	40	479.0	5500
35	40	474.0	5550
35	40	473.0	5600
35	40	471.0	5650
36	40	477.0	5700
36	40	481.0	5750
36	40	478.0	5800
36	40	484.0	5850
38	40	504.0	5900
39	40	507.0	5950
40	40	520.0	6000
40	40	519.0	6050
40	40	515.0	6100
37	40	491.0	6150
35	40	474.0	6200
35	40	468.0	6250
35	40	472.0	6300
39	40	507.0	6350
41	40	531.0	6400
42	40	539.0	6450
41	40	526.0	6500
38	40	501.0	6550
37	40	492.0	6600
36	40	480.0	6650
36	40	477.0	6700
35	40	475.0	6750
34	40	460.0	6800
33	40	459.0	6850
33	40	456.0	6900
35	40	471.0	6950
35	40	472.0	7000
37	40	493.0	7050
38	40	499.0	7100
37	40	491.0	7150
35	40	473.0	7200
33	40	458.0	7250
35	40	471.0	7300
36	40	481.0	7350
39	40	510.0	7400
40	40	516.0	7450
40	40	521.0	7500
39	40	507.0	7550
36	40	486.0	7600
35	40	474.0	7650
33	40	456.0	7700
35	40	472.0	7750
36	40	482.0	7800
38	40	500.0	7850
38	40	501.0	7900
36	40	486.0	7950
35	40	475.0	8000
34	40	465.0	8050
35	40	473.0	8100
35	40	475.0	8150
35	40	474.0	8200
33	40	462.0	8250
33	40	457.0	8300
33	40	459.0	8350
33	40	462.0	8400
34	40	474.0	8450
35	40	480.0	8500
36	40	488.0	8550
36	40	487.0	8600
34	40	474.0	8650
33	40	464.0	8700
34	40	473.0	8750
36	40	486.0	8800
37	40	502.0	8850
39	40	515.0	8900
39	40	513.0	8950
38	40	505.0	9000
35	40	484.0	9050
34	40	471.0	9100
34	40	471.0	9150
35	40	483.0	9200
39	40	516.0	9250
40	40	528.0	9300
39	40	520.0	9350
37	40	496.0	9400
35	40	481.0	9450
34	40	476.0	9500
34	40	475.0	9550
35	40	484.0	9600
36	40	486.0	9650
35	40	478.0	9700
33	40	462.0	9750
32	40	459.0	9800
33	40	466.0	9850
35	40	486.0	9900
37	40	504.0	9950
39	40	519.0	10000
39	40	515.0	10050
36	40	494.0	10100
35	40	484.0	10150
36	40	490.0	10200
37	40	501.0	10250
39	40	515.0	10300
40	40	525.0	10350
40	40	529.0	10400
39	40	515.0	10450
37	40	500.0	10500
36	40	489.0	10550
35	40	483.0	10600
36	40	489.0	10650
37	40	500.0	10700
38	40	512.0	10750
37	40	496.0	10800
35	40	482.0	10850
34	40	477.0	10900
35	40	486.0	10950
35	40	484.0	11000
35	40	487.0	11050
34	40	474.0	11100
33	40	464.0	11150
32	40	457.0	11200
33	40	463.0	11250
33	40	470.0	11300
35	40	480.0	11350
36	40	495.0	11400
37	40	500.0	11450
36	40	498.0	11500
35	40	481.0	11550
35	40	481.0	11600
36	40	492.0	11650
38	40	511.0	11700
40	40	526.0	11750
40	40	529.0	11800
40	40	526.0	11850
36	40	496.0	11900
35	40	486.0	11950
35	40	480.0	12000
35	40	487.0	12050
36	40	498.0	12100
38	40	514.0	12150
39	40	520.0	12200
36	40	494.0	12250
35	40	482.0	12300
34	40	472.0	12350
35	40	483.0	12400
35	40	486.0	12450
36	40	492.0	12500
35	40	487.0	12550
33	40	468.0	12600
32	40	457.0	12650
32	40	461.0	12700
33	40	471.0	12750
35	40	487.0	12800
36	40	498.0	12850
37	40	509.0	12900
37	40	509.0	12950
36	40	498.0	13000
37	40	506.0	13050
37	40	504.0	13100
38	40	516.0	13150
39	40	524.0	13200
40	40	533.0	13250
41	40	540.0	13300
40	40	533.0	13350
40	40	527.0	13400
39	40	517.0	13450
39	40	519.0	13500
39	40	523.0	13550
39	40	523.0	13600
39	40	516.0	13650
37	40	502.0	13700
37	40	499.0	13750
37	40	500.0	13800
37	40	503.0	13850
38	40	509.0	13900
36	40	491.0	13950
34	40	475.0	14000
32	40	454.0	14050
33	40	463.0	14100
34	40	475.0	14150
36	40	498.0	14200
38	40	509.0	14250
40	40	526.0	14300
38	40	514.0	14350
35	40	483.0	14400
34	40	476.0	14450
35	40	483.0	14500
36	40	497.0	14550
39	40	517.0	14600
40	40	530.0	14650
40	40	529.0	14700
38	40	515.0	14750
37	40	499.0	14800
36	40	491.0	14850
36	40	497.0	14900
37	40	504.0	14950
39	40	522.0	15000
40	40	526.0	15050
38	40	512.0	15100
37	40	503.0	15150
37	40	499.0	15200
37	40	500.0	15250
36	40	493.0	15300
36	40	492.0	15350
34	40	476.0	15400
33	40	466.0	15450
33	40	466.0	15500
35	40	481.0	15550
36	40	497.0	15600
38	40	516.0	15650
39	40	520.0	15700
37	40	507.0	15750
35	40	488.0	15800
34	40	477.0	15850
35	40	488.0	15900
37	40	503.0	15950
39	40	525.0	16000
41	40	536.0	16050
40	40	534.0	16100
39	40	522.0	16150
36	40	491.0	16200
34	40	479.0	16250
34	40	472.0	16300
35	40	483.0	16350
36	40	496.0	16400
39	40	518.0	16450
37	40	504.0	16500
34	40	473.0	16550
31	40	452.0	16600
32	40	454.0	16650
33	40	466.0	16700
34	40	481.0	16750
35	40	482.0	16800
34	40	474.0	16850
43	40	558.0	16900
42	40	553.0	16950
42	40	548.0	17000
39	40	524.0	17050
37	40	501.0	17100
34	40	473.0	17150
31	40	446.0	17200
30	40	442.0	17250
31	40	448.0	17300
34	40	477.0	17350
37	40	502.0	17400
39	40	523.0	17450
40	40	530.0	17500
39	40	524.0	17550
38	40	516.0	17600
36	40	495.0	17650
37	40	500.0	17700
37	40	503.0	17750
38	40	516.0	17800
40	40	529.0	17850
40	40	533.0	17900
39	40	518.0	17950
36	40	495.0	18000
35	40	488.0	18050
35	40	488.0	18100
35	40	485.0	18150
35	40	487.0	18200
33	40	469.0	18250
32	40	455.0	18300
31	40	450.0	18350
33	40	466.0	18400
35	40	485.0	18450
37	40	509.0	18500
38	40	514.0	18550
38	40	510.0	18600
35	40	487.0	18650
32	40	464.0	18700
33	40	466.0	18750
34	40	481.0	18800
37	40	507.0	18850
40	40	530.0	18900
41	40	544.0	18950
41	40	537.0	19000
39	40	525.0	19050
37	40	507.0	19100
35	40	488.0	19150
35	40	489.0	19200
36	40	498.0	19250
39	40	520.0	19300
38	40	518.0	19350
37	40	508.0	19400
37	40	508.0	19450
38	40	512.0	19500
38	40	515.0	19550
37	40	508.0	19600
37	40	503.0	19650
36	40	491.0	19700
32	40	458.0	19750
31	40	447.0	19800
31	40	453.0	19850
34	40	476.0	19900
36	40	500.0	19950
38	40	516.0	20000
38	40	516.0	20050
37	40	509.0	20100
37	40	501.0	20150
37	40	509.0	20200
38	40	512.0	20250
39	40	523.0	20300
40	40	528.0	20350
39	40	527.0	20400
39	40	520.0	20450
36	40	495.0	20500
35	40	486.0	20550
34	40	477.0	20600
35	40	484.0	20650
37	40	504.0	20700
39	40	522.0	20750
39	40	523.0	20800
36	40	499.0	20850
35	40	487.0	20900
34	40	477.0	20950
34	40	477.0	21000
34	40	479.0	21050
34	40	474.0	21100
33	40	470.0	21150
32	40	456.0	21200
32	40	461.0	21250
32	40	464.0	21300
35	40	487.0	21350
35	40	492.0	21400
36	40	502.0	21450
36	40	501.0	21500
35	40	489.0	21550
34	40	481.0	21600
35	40	486.0	21650
35	40	491.0	21700
37	40	510.0	21750
39	40	523.0	21800
40	40	538.0	21850
40	40	537.0	21900
39	40	525.0	21950
38	40	512.0	22000
37	40	505.0	22050
38	40	513.0	22100
38	40	517.0	22150
38	40	519.0	22200
38	40	511.0	22250
36	40	494.0	22300
36	40	498.0	22350
37	40	507.0	22400
37	40	506.0	22450
37	40	504.0	22500
35	40	488.0	22550
34	40	480.0	22600
33	40	466.0	22650
34	40	478.0	22700
36	40	497.0	22750
38	40	516.0	22800
37	40	510.0	22850
36	40	495.0	22900
33	40	474.0	22950
32	40	463.0	23000
34	40	483.0	23050
37	40	503.0	23100
39	40	528.0	23150
41	40	543.0	23200
42	40	552.0	23250
41	40	541.0	23300
40	40	529.0	23350
38	40	511.0	23400
36	40	494.0	23450
36	40	496.0	23500
37	40	507.0	23550
39	40	527.0	23600
41	40	539.0	23650
41	40	538.0	23700
41	40	542.0	23750
40	40	534.0	23800
39	40	522.0	23850
38	40	512.0	23900
35	40	485.0	23950
33	40	464.0	24000
30	40	443.0	24050
32	40	458.0	24100
34	40	480.0	24150
38	40	509.0	24200
38	40	512.0	24250
38	40	516.0	24300
36	40	498.0	24350
35	40	485.0	24400
35	40	486.0	24450
37	40	504.0	24500
39	40	521.0	24550
40	40	530.0	24600
41	40	537.0	24650
40	40	532.0	24700
39	40	519.0	24750
36	40	497.0	24800
35	40	485.0	24850
35	40	486.0	24900
36	40	491.0	24950
38	40	514.0	25000
38	40	516.0	25050
37	40	506.0	25100
36	40	492.0	25150
36	40	493.0	25200
37	40	502.0	25250
37	40	502.0	25300
36	40	495.0	25350
34	40	475.0	25400
33	40	464.0	25450
31	40	446.0	25500
31	40	454.0	25550
33	40	465.0	25600
37	40	504.0	25650
39	40	521.0	25700
39	40	525.0	25750
37	40	505.0	25800
35	40	487.0	25850
35	40	487.0	25900
35	40	488.0	25950
37	40	502.0	26000
39	40	520.0	26050
39	40	527.0	26100
39	40	521.0	26150
38	40	509.0	26200
36	40	498.0	26250
35	40	486.0	26300
35	40	490.0	26350
37	40	501.0	26400
39	40	526.0	26450
41	40	536.0	26500
40	40	531.0	26550
38	40	509.0	26600
37	40	499.0	26650
35	40	488.0	26700
35	40	489.0	26750
35	40	490.0	26800
35	40	489.0	26850
36	40	497.0	26900
36	40	493.0	26950
37	40	504.0	27000
38	40	514.0	27050
38	40	514.0	27100
37	40	502.0	27150
36	40	493.0	27200
34	40	475.0	27250
34	40	476.0	27300
36	40	498.0	27350
38	40	517.0	27400
41	40	539.0	27450
42	40	548.0	27500
42	40	546.0	27550
40	40	532.0	27600
37	40	506.0	27650
35	40	485.0	27700
34	40	476.0	27750
35	40	488.0	27800
38	40	515.0	27850
40	40	528.0	27900
39	40	518.0	27950
35	40	487.0	28000
34	40	479.0	28050
34	40	476.0	28100
34	40	474.0	28150
34	40	480.0	28200
35	40	483.0	28250
34	40	476.0	28300
34	40	480.0	28350
35	40	487.0	28400
37	40	503.0	28450
39	40	524.0	28500
40	40	529.0	28550
37	40	506.0	28600
35	40	481.0	28650
33	40	465.0	28700
34	40	478.0	28750
37	40	500.0	28800
39	40	520.0	28850
41	40	538.0	28900
41	40	542.0	28950
41	40	541.0	29000
40	40	527.0	29050
37	40	502.0	29100
35	40	484.0	29150
34	40	478.0	29200
36	40	497.0	29250
39	40	520.0	29300
40	40	533.0	29350
39	40	517.0	29400
36	40	493.0	29450
35	40	487.0	29500
34	40	477.0	29550
34	40	478.0	29600
34	40	478.0	29650
34	40	475.0	29700
33	40	468.0	29750
33	40	463.0	29800
33	40	464.0	29850
34	40	479.0	29900
36	40	497.0	29950
37	40	506.0	30000
35	40	490.0	30050
35	40	483.0	30100
34	40	479.0	30150
37	40	501.0	30200
39	40	522.0	30250
41	40	539.0	30300
43	40	554.0	30350
43	40	555.0	30400
42	40	549.0	30450
41	40	535.0	30500
39	40	519.0	30550
37	40	503.0	30600
38	40	508.0	30650
39	40	516.0	30700
40	40	529.0	30750
40	40	529.0	30800
39	40	517.0	30850
36	40	494.0	30900
36	40	490.0	30950
36	40	493.0	31000
36	40	490.0	31050
35	40	485.0	31100
34	40	474.0	31150
34	40	473.0	31200
33	40	470.0	31250
34	40	478.0	31300
36	40	494.0	31350
38	40	512.0	31400
38	40	516.0	31450
37	40	506.0	31500
35	40	486.0	31550
34	40	478.0	31600
35	40	485.0	31650
36	40	491.0	31700
38	40	509.0	31750
39	40	520.0	31800
39	40	524.0	31850
40	40	527.0	31900
39	40	523.0	31950
38	40	509.0	32000
37	40	502.0	32050
39	40	517.0	32100
40	40	527.0	32150
41	40	535.0	32200
38	40	513.0	32250
36	40	492.0	32300
35	40	486.0	32350
36	40	489.0	32400
36	40	496.0	32450
37	40	503.0	32500
38	40	507.0	32550
37	40	499.0	32600
36	40	491.0	32650
36	40	492.0	32700
36	40	496.0	32750
37	40	506.0	32800
38	40	507.0	32850
37	40	499.0	32900
35	40	483.0	32950
34	40	471.0	33000
35	40	484.0	33050
38	40	511.0	33100
41	40	536.0	33150
42	40	545.0	33200
41	40	541.0	33250
41	40	534.0	33300
38	40	514.0	33350
37	40	501.0	33400
36	40	494.0	33450
36	40	491.0	33500
33	40	468.0	33550
23	40	379.0	33600
23	40	380.0	33650
32	40	455.0	33700
41	40	535.0	33750
44	40	564.0	33800
44	40	565.0	33850
43	40	556.0	33900
40	40	528.0	33950
35	40	481.0	34000
32	40	454.0	34050
31	40	448.0	34100
34	40	475.0	34150
38	40	508.0	34200
40	40	532.0	34250
41	40	534.0	34300
39	40	518.0	34350
37	40	506.0	34400
37	40	504.0	34450
38	40	508.0	34500
39	40	523.0	34550
40	40	532.0	34600
41	40	537.0	34650
40	40	532.0	34700
39	40	522.0	34750
38	40	513.0	34800
38	40	513.0	34850
39	40	520.0	34900
39	40	520.0	34950
39	40	515.0	35000
37	40	497.0	35050
35	40	481.0	35100
35	40	478.0	35150
35	40	483.0	35200
37	40	498.0	35250
37	40	503.0	35300
37	40	501.0	35350
35	40	485.0	35400
33	40	467.0	35450
34	40	472.0	35500
35	40	484.0	35550
37	40	499.0	35600
37	40	499.0	35650
36	40	491.0	35700
34	40	475.0	35750
34	40	474.0	35800
35	40	485.0	35850
37	40	500.0	35900
39	40	523.0	35950
41	40	538.0	36000
41	40	541.0	36050
42	40	543.0	36100
41	40	533.0	36150
39	40	520.0	36200
38	40	509.0	36250
39	40	517.0	36300
39	40	517.0	36350
39	40	519.0	36400
37	40	500.0	36450
35	40	484.0	36500
35	40	484.0	36550
36	40	491.0	36600
37	40	497.0	36650
37	40	499.0	36700
36	40	492.0	36750
34	40	474.0	36800
33	40	460.0	36850
32	40	458.0	36900
34	40	470.0	36950
36	40	492.0	37000
38	40	507.0	37050
38	40	511.0	37100
38	40	507.0	37150
36	40	490.0	37200
35	40	479.0	37250
35	40	485.0	37300
36	40	488.0	37350
37	40	501.0	37400
38	40	512.0	37450
38	40	513.0	37500
38	40	506.0	37550
36	40	495.0	37600
36	40	488.0	37650
35	40	485.0	37700
37	40	497.0	37750
38	40	507.0	37800
39	40	522.0	37850
37	40	504.0	37900
35	40	487.0	37950
35	40	485.0	38000
35	40	487.0	38050
36	40	494.0	38100
37	40	497.0	38150
36	40	492.0	38200
34	40	472.0	38250
32	40	459.0	38300
32	40	453.0	38350
33	40	466.0	38400
36	40	494.0	38450
38	40	513.0	38500
38	40	516.0	38550
37	40	507.0	38600
36	40	497.0	38650
37	40	502.0	38700
38	40	515.0	38750
39	40	523.0	38800
41	40	534.0	38850
41	40	541.0	38900
41	40	541.0	38950
39	40	522.0	39000
38	40	506.0	39050
36	40	490.0	39100
35	40	484.0	39150
36	40	496.0	39200
37	40	505.0	39250
40	40	529.0	39300
39	40	521.0	39350
37	40	502.0	39400
36	40	494.0	39450
36	40	489.0	39500
35	40	485.0	39550
35	40	483.0	39600
35	40	485.0	39650
34	40	478.0	39700
34	40	474.0	39750
33	40	470.0	39800
34	40	475.0	39850
36	40	493.0	39900
37	40	502.0	39950
38	40	510.0	40000
38	40	510.0	40050
37	40	501.0	40100
36	40	496.0	40150
38	40	513.0	40200
39	40	516.0	40250
40	40	529.0	40300
41	40	535.0	40350
40	40	530.0	40400
39	40	515.0	40450
36	40	488.0	40500
34	40	474.0	40550
33	40	468.0	40600
36	40	494.0	40650
39	40	517.0	40700
40	40	532.0	40750
40	40	532.0	40800
38	40	506.0	40850
37	40	504.0	40900
36	40	489.0	40950
35	40	482.0	41000
34	40	471.0	41050
33	40	465.0	41100
32	40	453.0	41150
31	40	449.0	41200
31	40	452.0	41250
33	40	464.0	41300
37	40	499.0	41350
39	40	519.0	41400
39	40	520.0	41450
37	40	506.0	41500
35	40	485.0	41550
32	40	461.0	41600
35	40	481.0	41650
36	40	495.0	41700
39	40	525.0	41750
41	40	542.0	41800
42	40	544.0	41850
40	40	526.0	41900
37	40	499.0	41950
33	40	465.0	42000
31	40	452.0	42050
33	40	468.0	42100
36	40	495.0	42150
40	40	528.0	42200
41	40	536.0	42250
38	40	516.0	42300
35	40	487.0	42350
33	40	471.0	42400
33	40	466.0	42450
33	40	469.0	42500
33	40	471.0	42550
32	40	459.0	42600
31	40	451.0	42650
31	40	450.0	42700
32	40	457.0	42750
33	40	467.0	42800
35	40	492.0	42850
37	40	502.0	42900
36	40	499.0	42950
35	40	488.0	43000
33	40	474.0	43050
34	40	475.0	43100
35	40	492.0	43150
38	40	512.0	43200
40	40	537.0	43250
42	40	553.0	43300
43	40	557.0	43350
42	40	549.0	43400
40	40	533.0	43450
38	40	515.0	43500
38	40	510.0	43550
38	40	517.0	43600
40	40	530.0	43650
42	40	545.0	43700
40	40	529.0	43750
38	40	516.0	43800
37	40	507.0	43850
37	40	501.0	43900
37	40	503.0	43950
36	40	495.0	44000
35	40	489.0	44050
33	40	467.0	44100
32	40	456.0	44150
32	40	459.0	44200
33	40	467.0	44250
36	40	493.0	44300
36	40	498.0	44350
36	40	495.0	44400
34	40	481.0	44450
33	40	465.0	44500
33	40	467.0	44550
35	40	487.0	44600
37	40	505.0	44650
39	40	525.0	44700
40	40	533.0	44750
40	40	535.0	44800
39	40	524.0	44850
38	40	512.0	44900
36	40	497.0	44950
36	40	491.0	45000
37	40	505.0	45050
39	40	526.0	45100
41	40	537.0	45150
41	40	536.0	45200
39	40	523.0	45250
37	40	504.0	45300
35	40	489.0	45350
35	40	484.0	45400
36	40	491.0	45450
36	40	494.0	45500
36	40	490.0	45550
35	40	481.0	45600
33	40	470.0	45650
33	40	469.0	45700
35	40	485.0	45750
36	40	499.0	45800
36	40	499.0	45850
36	40	496.0	45900
34	40	480.0	45950
34	40	475.0	46000
35	40	491.0	46050
37	40	503.0	46100
40	40	530.0	46150
41	40	543.0	46200
41	40	542.0	46250
40	40	533.0	46300
38	40	510.0	46350
36	40	492.0	46400
35	40	485.0	46450
36	40	492.0	46500
38	40	515.0	46550
40	40	531.0	46600
40	40	533.0	46650
39	40	518.0	46700
37	40	502.0	46750
36	40	496.0	46800
36	40	490.0	46850
37	40	502.0	46900
37	40	500.0	46950
37	40	506.0	47000
36	40	492.0	47050
35	40	487.0	47100
35	40	484.0	47150
36	40	494.0	47200
37	40	507.0	47250
38	40	508.0	47300
37	40	502.0	47350
35	40	483.0	47400
35	40	481.0	47450
36	40	492.0	47500
38	40	509.0	47550
40	40	530.0	47600
42	40	548.0	47650
42	40	548.0	47700
42	40	543.0	47750
40	40	526.0	47800
37	40	501.0	47850
36	40	491.0	47900
36	40	489.0	47950
37	40	505.0	48000
39	40	522.0	48050
39	40	519.0	48100
38	40	508.0	48150
36	40	489.0	48200
34	40	477.0	48250
33	40	466.0	48300
34	40	475.0	48350
34	40	471.0	48400
34	40	474.0	48450
33	40	469.0	48500
33	40	469.0	48550
33	40	470.0	48600
36	40	492.0	48650
37	40	507.0	48700
37	40	507.0	48750
35	40	488.0	48800
34	40	479.0	48850
34	40	478.0	48900
37	40	505.0	48950
40	40	527.0	49000
42	40	545.0	49050
42	40	550.0	49100
42	40	547.0	49150
41	40	540.0	49200
40	40	525.0	49250
38	40	511.0	49300
37	40	505.0	49350
37	40	506.0	49400
39	40	522.0	49450
41	40	539.0	49500
41	40	536.0	49550
39	40	523.0	49600
38	40	513.0	49650
37	40	499.0	49700
35	40	485.0	49750
34	40	476.0	49800
34	40	471.0	49850
33	40	466.0	49900
33	40	466.0	49950
33	40	463.0	50000
33	40	463.0	50050
34	40	471.0	50100
34	40	478.0	50150
34	40	477.0	50200
33	40	468.0	50250
32	40	459.0	50300
32	40	458.0	50350
34	40	478.0	50400
36	40	494.0	50450
44	40	563.0	50500
43	40	560.0	50550
43	40	556.0	50600
43	40	553.0	50650
41	40	540.0	50700
39	40	521.0	50750
37	40	501.0	50800
36	40	494.0	50850
37	40	500.0	50900
38	40	507.0	50950
39	40	519.0	51000
40	40	530.0	51050
41	40	535.0	51100
41	40	539.0	51150
40	40	531.0	51200
38	40	509.0	51250
36	40	491.0	51300
34	40	477.0	51350
35	40	479.0	51400
36	40	495.0	51450
37	40	500.0	51500
37	40	497.0	51550
35	40	484.0	51600
34	40	477.0	51650
35	40	483.0	51700
36	40	496.0	51750
39	40	518.0	51800
41	40	540.0	51850
42	40	550.0	51900
42	40	546.0	51950
41	40	534.0	52000
38	40	512.0	52050
37	40	497.0	52100
37	40	497.0	52150
37	40	500.0	52200
38	40	506.0	52250
37	40	501.0	52300
36	40	490.0	52350
35	40	483.0	52400
35	40	479.0	52450
36	40	492.0	52500
36	40	495.0	52550
37	40	497.0	52600
35	40	486.0	52650
34	40	475.0	52700
33	40	466.0	52750
35	40	480.0	52800
37	40	497.0	52850
39	40	518.0	52900
39	40	516.0	52950
37	40	502.0	53000
36	40	488.0	53050
34	40	476.0	53100
35	40	487.0	53150
37	40	500.0	53200
39	40	521.0	53250
41	40	535.0	53300
41	40	541.0	53350
41	40	535.0	53400
39	40	516.0	53450
37	40	500.0	53500
36	40	491.0	53550
37	40	497.0	53600
38	40	505.0	53650
39	40	518.0	53700
39	40	518.0	53750
38	40	506.0	53800
38	40	504.0	53850
37	40	495.0	53900
36	40	491.0	53950
35	40	480.0	54000
34	40	469.0	54050
33	40	461.0	54100
32	40	459.0	54150
32	40	457.0	54200
34	40	472.0	54250
35	40	487.0	54300
37	40	500.0	54350
37	40	500.0	54400
35	40	486.0	54450
34	40	472.0	54500
32	40	461.0	54550
34	40	478.0	54600
36	40	495.0	54650
39	40	517.0	54700
40	40	533.0	54750
41	40	534.0	54800
39	40	522.0	54850
37	40	503.0	54900
35	40	486.0	54950
34	40	478.0	55000
36	40	495.0	55050
38	40	511.0	55100
40	40	531.0	55150
40	40	527.0	55200
38	40	512.0	55250
36	40	496.0	55300
36	40	489.0	55350
36	40	494.0	55400
37	40	497.0	55450
37	40	499.0	55500
35	40	484.0	55550
34	40	470.0	55600
34	40	474.0	55650
35	40	485.0	55700
37	40	506.0	55750
39	40	521.0	55800
39	40	518.0	55850
38	40	512.0	55900
36	40	494.0	55950
35	40	482.0	56000
36	40	495.0	56050
37	40	506.0	56100
39	40	524.0	56150
41	40	533.0	56200
41	40	534.0	56250
40	40	531.0	56300
38	40	510.0	56350
37	40	501.0	56400
36	40	493.0	56450
38	40	507.0	56500
39	40	516.0	56550
39	40	519.0	56600
38	40	508.0	56650
36	40	492.0	56700
36	40	492.0	56750
36	40	487.0	56800
36	40	495.0	56850
36	40	490.0	56900
36	40	489.0	56950
34	40	478.0	57000
34	40	470.0	57050
34	40	477.0	57100
37	40	497.0	57150
39	40	521.0	57200
40	40	531.0	57250
40	40	524.0	57300
38	40	510.0	57350
34	40	475.0	57400
32	40	457.0	57450
34	40	476.0	57500
36	40	494.0	57550
40	40	525.0	57600
42	40	542.0	57650
42	40	543.0	57700
41	40	534.0	57750
38	40	507.0	57800
37	40	500.0	57850
36	40	489.0	57900
37	40	500.0	57950
38	40	511.0	58000
39	40	517.0	58050
38	40	513.0	58100
37	40	496.0	58150
35	40	486.0	58200
34	40	474.0	58250
35	40	486.0	58300
35	40	484.0	58350
36	40	487.0	58400
34	40	471.0	58450
32	40	456.0	58500
31	40	446.0	58550
32	40	456.0	58600
33	40	469.0	58650
35	40	488.0	58700
36	40	494.0	58750
36	40	491.0	58800
34	40	476.0	58850
32	40	462.0	58900
33	40	468.0	58950
34	40	479.0	59000
36	40	497.0	59050
39	40	520.0	59100
40	40	535.0	59150
41	40	535.0	59200
39	40	525.0	59250
36	40	496.0	59300
35	40	484.0	59350
35	40	484.0	59400
36	40	496.0	59450
39	40	517.0	59500
39	40	518.0	59550
37	40	499.0	59600
34	40	476.0	59650
33	40	467.0	59700
33	40	464.0	59750
34	40	478.0	59800
35	40	485.0	59850
34	40	481.0	59900
33	40	468.0	59950
33	40	464.0	60000
32	40	464.0	60050
33	40	468.0	60100
35	40	487.0	60150
36	40	498.0	60200
38	40	511.0	60250
37	40	501.0	60300
34	40	480.0	60350
33	40	467.0	60400
34	40	480.0	60450
36	40	501.0	60500
40	40	535.0	60550
43	40	557.0	60600
43	40	562.0	60650
43	40	559.0	60700
41	40	538.0	60750
38	40	516.0	60800
37	40	500.0	60850
37	40	500.0	60900
37	40	504.0	60950
39	40	520.0	61000
39	40	519.0	61050
37	40	504.0	61100
35	40	488.0	61150
35	40	488.0	61200
36	40	493.0	61250
36	40	496.0	61300
36	40	494.0	61350
33	40	470.0	61400
31	40	452.0	61450
30	40	438.0	61500
31	40	454.0	61550
33	40	467.0	61600
37	40	504.0	61650
37	40	509.0	61700
37	40	506.0	61750
35	40	483.0	61800
32	40	463.0	61850
32	40	461.0	61900
35	40	489.0	61950
37	40	507.0	62000
40	40	530.0	62050
42	40	547.0	62100
42	40	555.0	62150
41	40	544.0	62200
40	40	528.0	62250
38	40	510.0	62300
36	40	496.0	62350
37	40	504.0	62400
38	40	515.0	62450
40	40	529.0	62500
38	40	514.0	62550
35	40	484.0	62600
34	40	478.0	62650
34	40	474.0	62700
34	40	481.0	62750
35	40	489.0	62800
35	40	491.0	62850
34	40	482.0	62900
33	40	473.0	62950
32	40	464.0	63000
33	40	473.0	63050
34	40	483.0	63100
37	40	502.0	63150
37	40	508.0	63200
36	40	494.0	63250
33	40	473.0	63300
32	40	463.0	63350
33	40	468.0	63400
35	40	487.0	63450
38	40	512.0	63500
40	40	532.0	63550
41	40	541.0	63600
41	40	542.0	63650
38	40	517.0	63700
37	40	501.0	63750
35	40	486.0	63800
35	40	488.0	63850
37	40	509.0	63900
40	40	536.0	63950
43	40	555.0	64000
40	40	535.0	64050
38	40	514.0	64100
36	40	494.0	64150
35	40	482.0	64200
35	40	485.0	64250
35	40	483.0	64300
35	40	486.0	64350
34	40	478.0	64400
34	40	479.0	64450
34	40	475.0	64500
34	40	481.0	64550
35	40	492.0	64600
37	40	502.0	64650
37	40	505.0	64700
36	40	494.0	64750
34	40	480.0	64800
32	40	465.0	64850
34	40	480.0	64900
37	40	502.0	64950
40	40	531.0	65000
42	40	548.0	65050
42	40	547.0	65100
41	40	540.0	65150
38	40	515.0	65200
35	40	483.0	65250
33	40	472.0	65300
33	40	471.0	65350
34	40	482.0	65400
37	40	508.0	65450
40	40	533.0	65500
38	40	514.0	65550
35	40	486.0	65600
34	40	480.0	65650
33	40	471.0	65700
35	40	484.0	65750
36	40	500.0	65800
36	40	501.0	65850
34	40	481.0	65900
33	40	467.0	65950
32	40	458.0	66000
32	40	461.0	66050
34	40	482.0	66100
36	40	496.0	66150
37	40	508.0	66200
36	40	498.0	66250
35	40	487.0	66300
34	40	480.0	66350
36	40	496.0	66400
38	40	513.0	66450
40	40	535.0	66500
41	40	547.0	66550
41	40	546.0	66600
41	40	540.0	66650
39	40	522.0	66700
37	40	502.0	66750
36	40	497.0	66800
37	40	510.0	66850
39	40	526.0	66900
40	40	536.0	66950
40	40	532.0	67000
38	40	516.0	67050
35	40	489.0	67100
34	40	480.0	67150
34	40	480.0	67200
35	40	490.0	67250
36	40	493.0	67300
35	40	487.0	67350
32	40	461.0	67400
30	40	444.0	67450
30	40	446.0	67500
32	40	461.0	67550
35	40	491.0	67600
37	40	511.0	67650
40	40	532.0	67700
39	40	523.0	67750
36	40	502.0	67800
34	40	483.0	67850
35	40	490.0	67900
