-56.0	132.0	0
-57.0	134.0	50
-55.5	131.0	100
-57.0	134.0	150
-57.5	135.0	200
-57.5	135.0	250
-58.0	136.0	300
-58.5	137.0	350
-58.0	136.0	400
-58.5	137.0	450
-57.0	134.0	500
-59.0	138.0	550
-59.0	138.0	600
-59.0	138.0	650
-60.0	140.0	700
-59.0	138.0	750
-58.0	136.0	800
-56.5	133.0	850
-57.5	135.0	900
-57.5	135.0	950
-58.0	136.0	1000
-59.0	138.0	1050
-58.5	137.0	1100
-58.5	137.0	1150
-59.0	138.0	1200
-59.0	138.0	1250
-61.0	142.0	1300
-61.5	143.0	1350
-62.0	144.0	1400
-62.5	145.0	1450
-63.5	147.0	1500
-63.0	146.0	1550
-63.5	147.0	1600
-63.5	147.0	1650
-65.5	151.0	1700
-66.0	152.0	1750
-69.5	159.0	1800
-73.0	166.0	1850
-77.0	174.0	1900
-81.5	183.0	1950
-87.5	195.0	2000
-97.0	214.0	2050
-100.5	221.0	2100
-105.0	230.0	2150
-117.5	255.0	2200
-125.0	270.0	2250
-128.0	276.0	2300
-146.0	312.0	2350
-148.0	316.0	2400
-139.5	299.0	2450
-143.0	306.0	2500
-146.0	312.0	2550
-145.5	311.0	2600
-149.5	319.0	2650
-150.0	320.0	2700
-150.5	321.0	2750
-152.0	324.0	2800
-154.0	328.0	2850
-154.5	329.0	2900
-153.5	327.0	2950
-148.5	317.0	3000
-143.5	307.0	3050
-135.0	290.0	3100
-120.5	261.0	3150
-107.5	235.0	3200
-96.0	212.0	3250
-88.0	196.0	3300
-83.0	186.0	3350
-78.0	176.0	3400
-75.0	170.0	3450
-72.0	164.0	3500
-70.0	160.0	3550
-70.0	160.0	3600
-69.5	159.0	3650
-68.0	156.0	3700
-68.5	157.0	3750
-69.0	158.0	3800
-70.0	160.0	3850
-70.5	161.0	3900
-73.5	167.0	3950
-76.5	173.0	4000
-82.5	185.0	4050
-93.0	206.0	4100
-105.5	231.0	4150
-116.0	252.0	4200
-111.5	243.0	4250
-113.5	247.0	4300
-118.0	256.0	4350
-122.5	265.0	4400
-126.0	272.0	4450
-132.0	284.0	4500
-137.5	295.0	4550
-140.5	301.0	4600
-139.5	299.0	4650
-139.5	299.0	4700
-141.5	303.0	4750
-143.5	307.0	4800
-147.0	314.0	4850
-150.5	321.0	4900
-156.0	332.0	4950
-158.5	337.0	5000
-162.0	344.0	5050
-167.5	355.0	5100
-172.0	364.0	5150
-178.0	376.0	5200
-180.0	380.0	5250
-180.5	381.0	5300
-180.5	381.0	5350
-181.0	382.0	5400
-181.5	383.0	5450
-181.0	382.0	5500
-180.0	380.0	5550
-177.0	374.0	5600
-176.0	372.0	5650
-175.0	370.0	5700
-175.5	371.0	5750
-174.0	368.0	5800
-173.0	366.0	5850
-171.5	363.0	5900
-170.5	361.0	5950
-169.0	358.0	6000
-166.5	353.0	6050
-165.0	350.0	6100
-162.0	344.0	6150
-162.0	344.0	6200
-160.0	340.0	6250
-160.0	340.0	6300
-158.5	337.0	6350
-157.0	334.0	6400
-155.5	331.0	6450
-153.5	327.0	6500
-152.5	325.0	6550
-152.5	325.0	6600
-151.5	323.0	6650
-151.5	323.0	6700
-149.5	319.0	6750
-148.0	316.0	6800
-147.0	314.0	6850
-146.5	313.0	6900
-145.5	311.0	6950
-144.0	308.0	7000
-143.0	306.0	7050
-141.5	303.0	7100
-138.0	296.0	7150
-138.5	297.0	7200
-137.5	295.0	7250
-137.5	295.0	7300
-137.5	295.0	7350
-137.5	295.0	7400
-138.0	296.0	7450
-138.0	296.0	7500
-139.5	299.0	7550
-141.0	302.0	7600
-143.0	306.0	7650
-144.5	309.0	7700
-144.5	309.0	7750
-142.5	305.0	7800
-141.0	302.0	7850
-138.5	297.0	7900
-136.0	292.0	7950
-132.0	284.0	8000
-128.0	276.0	8050
-124.5	269.0	8100
-122.5	265.0	8150
-120.5	261.0	8200
-119.0	258.0	8250
-120.0	260.0	8300
-119.0	258.0	8350
-119.0	258.0	8400
-118.0	256.0	8450
-118.0	256.0	8500
-117.0	254.0	8550
-116.0	252.0	8600
-115.5	251.0	8650
-115.5	251.0	8700
-114.0	248.0	8750
-111.5	243.0	8800
-112.0	244.0	8850
-111.0	242.0	8900
-111.0	242.0	8950
-113.0	246.0	9000
-113.0	246.0	9050
-113.5	247.0	9100
-112.5	245.0	9150
-112.5	245.0	9200
-113.5	247.0	9250
-115.5	251.0	9300
-116.0	252.0	9350
-115.5	251.0	9400
-117.0	254.0	9450
-117.0	254.0	9500
-118.0	256.0	9550
-118.0	256.0	9600
-119.0	258.0	9650
-118.5	257.0	9700
-116.5	253.0	9750
-113.5	247.0	9800
-109.5	239.0	9850
-101.5	223.0	9900
-92.0	204.0	9950
-80.0	180.0	10000
-70.0	160.0	10050
-65.5	151.0	10100
-63.0	146.0	10150
-60.0	140.0	10200
-57.0	134.0	10250
-56.0	132.0	10300
-55.5	131.0	10350
-55.0	130.0	10400
-55.0	130.0	10450
-56.0	132.0	10500
-54.5	129.0	10550
-54.5	129.0	10600
-54.0	128.0	10650
-56.0	132.0	10700
-57.0	134.0	10750
-61.5	143.0	10800
-68.5	157.0	10850
-108.0	236.0	10900
-206.0	432.0	10950
-188.5	397.0	11000
-174.5	369.0	11050
-186.0	392.0	11100
-181.5	383.0	11150
-170.5	361.0	11200
-169.5	359.0	11250
-167.5	355.0	11300
-162.5	345.0	11350
-162.0	344.0	11400
-162.5	345.0	11450
-151.5	323.0	11500
-96.0	212.0	11550
-55.5	131.0	11600
-41.0	102.0	11650
-41.0	102.0	11700
-42.0	104.0	11750
-43.0	106.0	11800
-48.5	117.0	11850
-49.0	118.0	11900
-49.0	118.0	11950
-49.0	118.0	12000
-49.0	118.0	12050
-49.5	119.0	12100
-42.5	105.0	12150
-47.0	114.0	12200
-46.5	113.0	12250
-47.0	114.0	12300
-51.0	122.0	12350
-58.0	136.0	12400
-71.5	163.0	12450
-93.0	206.0	12500
-92.5	205.0	12550
-115.0	250.0	12600
-142.0	304.0	12650
-139.0	298.0	12700
-140.0	300.0	12750
-144.0	308.0	12800
-139.0	298.0	12850
-138.0	296.0	12901
-134.5	289.0	12951
-125.0	270.0	13001
-104.0	228.0	13051
-72.0	164.0	13101
-50.0	120.0	13151
-38.5	97.0	13201
-34.0	88.0	13251
-34.5	89.0	13301
-40.0	100.0	13351
-43.0	106.0	13401
-42.5	105.0	13451
-43.0	106.0	13501
-43.5	107.0	13551
-43.5	107.0	13601
-34.5	89.0	13651
-39.0	98.0	13701
-42.5	105.0	13751
-40.0	100.0	13801
-38.5	97.0	13851
-42.0	104.0	13901
-49.5	119.0	13951
-58.0	136.0	14001
-71.0	162.0	14051
-88.5	197.0	14101
-108.0	236.0	14151
-109.5	239.0	14201
-117.0	254.0	14251
-129.0	278.0	14301
-132.0	284.0	14351
-148.0	316.0	14401
-164.0	348.0	14451
-179.5	379.0	14501
-190.0	400.0	14551
-192.0	404.0	14601
-190.0	400.0	14651
-184.0	388.0	14701
-181.0	382.0	14751
-180.5	381.0	14801
-182.0	384.0	14851
-183.5	387.0	14901
-183.5	387.0	14951
-181.5	383.0	15001
-174.5	369.0	15051
-152.0	324.0	15101
-113.5	247.0	15151
-82.0	184.0	15201
-64.5	149.0	15251
-53.0	126.0	15301
-46.5	113.0	15351
-44.0	108.0	15401
-42.5	105.0	15451
-40.0	100.0	15501
-38.5	97.0	15551
-38.0	96.0	15601
-38.5	97.0	15651
-39.0	98.0	15701
-39.0	98.0	15751
-40.0	100.0	15801
-40.0	100.0	15851
-36.5	93.0	15901
-36.0	92.0	15951
-38.5	97.0	16001
-37.0	94.0	16051
-36.5	93.0	16101
-36.0	92.0	16151
-37.0	94.0	16201
-38.0	96.0	16251
-42.5	105.0	16301
-51.5	123.0	16351
-58.0	136.0	16401
-62.0	144.0	16451
-62.5	145.0	16501
-64.0	148.0	16551
-67.5	155.0	16601
-69.5	159.0	16651
-69.5	159.0	16701
-71.0	162.0	16751
-74.5	169.0	16801
-75.0	170.0	16851
-74.5	169.0	16901
