15.057500839233398
1.2018646001815796
16.698150634765625
11.988729476928711
3.0975403785705566
6.472168445587158
16.988195419311523
16.455617904663086
16.969451904296875
9.621023178100586
3.7593140602111816
15.415650367736816
0.7682555317878723
7.031637668609619
10.161895751953125
13.981222152709961
19.91242027282715
16.1334228515625
12.621435165405273
15.658803939819336
15.945281982421875
13.424428939819336
18.909765243530273
15.99365234375
9.848150253295898
0.9290374517440796
2.533112049102783
13.047689437866211
7.247320652008057
5.258789539337158
10.340856552124023
13.344655990600586
10.843964576721191
4.415335178375244
1.344152808189392
15.9368896484375
18.77423667907715
10.694356918334961
18.058624267578125
15.684713363647461
15.802924156188965
7.875366687774658
11.704076766967773
10.841299057006836
8.511199951171875
13.204092025756836
5.847631931304932
11.64794921875
6.958135604858398
3.63472580909729
12.889556884765625
6.687216281890869
5.315557956695557
18.3447265625
11.862462997436523
9.005666732788086
15.314178466796875
2.698415994644165
6.873327732086182
2.835083484649658
5.351995944976807
4.806295871734619
7.249298572540283
1.14552903175354
3.1094419956207275
2.161255121231079
17.063573837280273
17.254262924194336
1.6752629280090332
17.666372299194336
12.980810165405273
4.511719226837158
0.41821879148483276
5.019613742828369
3.338776111602783
10.673421859741211
0.9375062584877014
17.97607421875
8.542760848999023
3.211599826812744
0.7902531027793884
5.576223850250244
11.71646785736084
3.046265125274658
13.287176132202148
6.816183567047119
2.135773181915283
11.186422348022461
17.80609703063965
3.910522937774658
16.529516220092773
3.493887424468994
5.857391834259033
16.838125228881836
12.919164657592773
8.857421875
19.7279109954834
7.835165500640869
5.882721424102783
0.3407805860042572
10.380254745483398
8.02001953125
3.0746214389801025
2.551809549331665
1.8815616369247437
12.660573959350586
11.42777156829834
5.786743640899658
13.881048202514648
19.49013328552246
2.730255603790283
18.55885887145996
15.813299179077148
6.846313953399658
18.849462509155273
3.761831521987915
0.2665714919567108
6.175893783569336
8.101659774780273
0.666504442691803
4.289068222045898
17.81136131286621
2.596588373184204
19.87141990661621
5.218512058258057
13.950196266174316
9.615758895874023
4.123465061187744
10.604705810546875
4.862112045288086
9.65225887298584
7.807007312774658
2.8880064487457275
18.00148582458496
1.7500308752059937
4.857076644897461
18.26141929626465
15.3704833984375
17.438940048217773
18.499990463256836
3.979950428009033
3.675283432006836
8.345190048217773
7.141113758087158
6.267217636108398
14.555135726928711
16.927642822265625
7.881063461303711
19.6588191986084
13.618165016174316
0.7809202075004578
18.998342514038086
13.771209716796875
1.9293731451034546
19.424596786499023
6.589966297149658
7.712835788726807
19.36440086364746
12.527618408203125
8.535665512084961
16.58844566345215
12.664185523986816
15.879491806030273
11.187368392944336
0.5424504280090332
10.476430892944336
17.631689071655273
3.906250238418579
0.777105450630188
1.5992035865783691
4.115143299102783
17.87801170349121
0.24658814072608948
2.756348133087158
0.03446023538708687
10.562673568725586
11.468964576721191
7.273000717163086
3.8917603492736816
3.060913324356079
15.125555038452148
16.56471824645996
7.868195056915283
3.73769211769104
3.8583436012268066
1.5716556310653687
6.014379501342773
5.049063205718994
10.598602294921875
13.774160385131836
4.781958103179932
10.878907203674316
2.8260555267333984
2.671591281890869
16.981353759765625
13.106893539428711
16.0418758392334
9.66552734375
2.2372190952301025
11.089407920837402
12.213592529296875
11.539968490600586
9.828649520874023
17.3590087890625
4.552434921264648
12.788473129272461
16.675567626953125
9.884542465209961
17.81769371032715
7.617798328399658
4.472021102905273
13.944937705993652
6.150360584259033
3.400015115737915
14.559179306030273
7.487793445587158
9.306158065795898
4.810873508453369
12.943268775939941
10.972494125366211
14.713140487670898
19.3896484375
11.810583114624023
13.769460678100586
13.636933326721191
11.275686264038086
0.9193480014801025
15.360718727111816
8.525213241577148
16.11916160583496
19.367218017578125
16.31459617614746
3.0636658668518066
5.922241687774658
0.13669417798519135
1.4223542213439941
19.165496826171875
15.953115463256836
1.145483374595642
14.704590797424316
15.263799667358398
2.60445237159729
4.227447986602783
9.465536117553711
14.392705917358398
17.2021484375
1.818517804145813
11.608206748962402
9.806365966796875
5.496267318725586
17.346960067749023
19.8858642578125
10.845159530639648
7.955709934234619
19.007110595703125
19.68556785583496
9.198308944702148
14.329224586486816
2.7422850131988525
9.739614486694336
1.5483096837997437
15.503286361694336
16.179052352905273
2.832031726837158
9.671148300170898
4.790121555328369
0.7704166173934937
4.037679672241211
9.663091659545898
4.841309070587158
2.7761595249176025
0.34538865089416504
0.9562686085700989
7.251028060913086
18.303380966186523
18.9935302734375
7.061590671539307
10.698019981384277
2.145538806915283
17.51943016052246
9.207464218139648
8.5198974609375
10.196508407592773
14.895254135131836
