0	541.0	0
0	540.0	47
0	545.0	97
60	545.0	148
61	546.0	198
60	537.0	248
62	544.0	298
62	544.0	348
63	543.0	398
61	530.0	451
50	449.0	498
18	224.0	548
13	200.0	598
12	200.0	648
12	205.0	698
24	298.0	748
47	461.0	798
56	522.0	848
56	519.0	898
52	482.0	948
41	405.0	998
27	312.0	1048
21	274.0	1098
23	294.0	1148
37	393.0	1198
48	470.0	1248
52	496.0	1298
50	481.0	1348
44	439.0	1398
38	397.0	1448
35	373.0	1498
40	413.0	1548
49	470.0	1598
55	509.0	1648
57	526.0	1698
58	526.0	1748
60	534.0	1798
61	537.0	1848
62	540.0	1898
62	541.0	1948
63	541.0	1998
64	542.0	2048
65	543.0	2098
65	542.0	2148
66	542.0	2198
66	541.0	2248
67	540.0	2298
67	541.0	2348
68	541.0	2398
69	542.0	2448
68	534.0	2498
68	530.0	2548
68	526.0	2598
68	525.0	2648
69	526.0	2698
69	519.0	2748
68	513.0	2798
66	495.0	2848
60	453.0	2898
55	414.0	2948
47	362.0	2998
41	319.0	3048
38	306.0	3098
39	314.0	3149
46	368.0	3198
52	410.0	3248
54	422.0	3298
51	404.0	3348
45	363.0	3398
39	323.0	3449
34	290.0	3498
38	322.0	3548
44	370.0	3598
50	410.0	3648
51	419.0	3698
47	392.0	3748
40	345.0	3801
34	303.0	3848
0	281.0	3901
0	324.0	3948
0	423.0	3998
66	540.0	4048
68	544.0	4098
68	542.0	4148
69	542.0	4198
69	540.0	4248
67	523.0	4298
48	389.0	4348
25	228.0	4398
20	205.0	4448
21	216.0	4498
32	298.0	4548
51	434.0	4598
59	490.0	4648
62	509.0	4698
61	501.0	4748
59	479.0	4798
58	471.0	4848
57	467.0	4898
57	463.0	4948
58	466.0	4998
59	473.0	5048
59	475.0	5098
60	479.0	5148
62	491.0	5198
64	500.0	5248
66	508.0	5298
67	513.0	5348
67	514.0	5398
69	524.0	5448
70	526.0	5498
71	529.0	5548
72	532.0	5598
73	534.0	5648
74	535.0	5698
74	535.0	5748
75	538.0	5798
76	539.0	5848
76	537.0	5898
76	534.0	5948
76	525.0	5998
72	497.0	6048
62	425.0	6098
46	316.0	6148
34	233.0	6198
31	221.0	6248
33	240.0	6298
42	308.0	6348
50	366.0	6398
57	422.0	6448
58	426.0	6498
49	365.0	6548
36	275.0	6598
37	284.0	6648
36	287.0	6698
38	302.0	6748
41	330.0	6798
41	330.0	6849
40	328.0	6899
36	302.0	6948
36	310.0	6998
37	315.0	7048
40	340.0	7099
45	378.0	7148
46	391.0	7198
47	393.0	7248
44	376.0	7298
43	368.0	7348
48	408.0	7398
53	440.0	7448
56	464.0	7498
59	480.0	7548
59	476.0	7598
55	449.0	7648
49	407.0	7698
44	374.0	7748
41	351.0	7798
41	355.0	7849
46	395.0	7898
53	442.0	7948
60	488.0	7998
61	497.0	8048
60	482.0	8098
58	472.0	8148
55	448.0	8198
51	416.0	8248
44	371.0	8298
39	340.0	8349
37	327.0	8398
42	363.0	8448
49	411.0	8498
54	449.0	8548
57	467.0	8598
59	479.0	8648
61	489.0	8698
61	492.0	8748
62	497.0	8798
62	489.0	8848
61	482.0	8898
64	502.0	8948
66	511.0	8998
67	516.0	9048
68	518.0	9099
67	508.0	9148
63	481.0	9198
57	437.0	9248
54	411.0	9298
55	421.0	9348
60	452.0	9398
64	481.0	9448
66	494.0	9498
66	493.0	9548
63	467.0	9598
0	441.0	9651
0	417.0	9698
0	449.0	9748
74	537.0	9798
75	541.0	9848
75	539.0	9898
76	539.0	9948
76	540.0	9998
77	541.0	10048
75	524.0	10098
49	340.0	10149
27	188.0	10199
26	192.0	10249
25	189.0	10300
23	187.0	10350
22	191.0	10401
22	193.0	10451
27	240.0	10502
47	379.0	10553
61	480.0	10603
66	515.0	10653
66	508.0	10704
60	465.0	10755
54	422.0	10805
47	374.0	10855
43	345.0	10905
45	365.0	10955
51	408.0	11005
56	444.0	11055
57	449.0	11105
57	446.0	11156
55	435.0	11207
52	410.0	11257
52	411.0	11307
56	438.0	11358
59	459.0	11409
63	487.0	11459
67	510.0	11510
68	517.0	11561
70	522.0	11611
70	522.0	11661
71	523.0	11711
70	512.0	11762
67	492.0	11813
63	459.0	11864
57	420.0	11914
55	405.0	11964
59	434.0	12015
66	477.0	12066
70	508.0	12116
73	521.0	12166
74	525.0	12217
74	522.0	12267
74	518.0	12317
74	519.0	12367
73	509.0	12418
72	496.0	12468
69	475.0	12518
58	397.0	12568
42	284.0	12618
34	232.0	12668
32	225.0	12718
36	259.0	12768
43	319.0	12818
52	384.0	12868
54	399.0	12919
49	363.0	12969
39	293.0	13019
27	220.0	13069
24	206.0	13119
26	226.0	13169
37	307.0	13219
50	403.0	13269
59	461.0	13319
55	431.0	13370
0	336.0	13424
0	245.0	13470
0	287.0	13520
59	472.0	13570
69	541.0	13620
69	540.0	13671
70	539.0	13722
70	538.0	13772
69	529.0	13822
56	431.0	13872
35	285.0	13922
23	210.0	13972
20	197.0	14023
27	254.0	14073
45	378.0	14123
57	468.0	14173
60	487.0	14223
59	473.0	14274
50	412.0	14325
41	351.0	14374
41	354.0	14424
48	400.0	14474
55	449.0	14524
60	484.0	14574
63	507.0	14624
66	521.0	14675
67	528.0	14725
68	531.0	14775
70	539.0	14826
71	539.0	14876
71	539.0	14927
71	531.0	14977
70	520.0	15028
67	500.0	15079
65	479.0	15130
64	471.0	15180
65	474.0	15231
65	475.0	15282
68	492.0	15332
70	508.0	15382
72	519.0	15432
74	526.0	15482
74	524.0	15533
74	519.0	15584
71	496.0	15634
63	436.0	15684
46	318.0	15734
34	242.0	15784
32	234.0	15834
33	249.0	15884
42	313.0	15934
52	384.0	15984
55	408.0	16034
52	386.0	16084
40	305.0	16135
29	236.0	16184
28	232.0	16235
32	268.0	16285
45	363.0	16335
53	420.0	16385
55	436.0	16435
49	395.0	16485
38	318.0	16535
30	269.0	16585
32	282.0	16635
37	327.0	16685
49	407.0	16735
55	449.0	16785
55	449.0	16836
48	402.0	16886
36	316.0	16936
28	266.0	16986
27	269.0	17036
34	317.0	17087
0	408.0	17140
0	485.0	17187
0	537.0	17237
67	544.0	17287
67	543.0	17337
68	544.0	17388
69	544.0	17439
69	542.0	17489
70	543.0	17540
70	541.0	17590
70	539.0	17641
70	534.0	17691
70	530.0	17741
66	495.0	17794
52	399.0	17841
42	328.0	17891
34	278.0	17941
36	296.0	17991
46	372.0	18041
57	444.0	18091
63	490.0	18141
67	512.0	18191
69	523.0	18241
71	530.0	18292
72	537.0	18343
73	536.0	18393
73	538.0	18443
74	539.0	18493
74	537.0	18544
75	536.0	18594
75	535.0	18644
76	537.0	18695
77	536.0	18745
78	539.0	18795
78	539.0	18846
77	528.0	18896
70	476.0	18946
54	362.0	18996
36	239.0	19046
30	206.0	19096
29	202.0	19146
28	204.0	19197
31	231.0	19248
37	285.0	19298
49	367.0	19348
54	406.0	19398
51	387.0	19448
52	396.0	19499
45	348.0	19549
34	275.0	19599
29	240.0	19649
28	240.0	19699
34	287.0	19749
43	359.0	19799
53	429.0	19849
58	460.0	19900
56	447.0	19951
50	401.0	20001
39	327.0	20051
33	290.0	20101
37	325.0	20151
46	385.0	20201
57	463.0	20251
63	503.0	20302
64	506.0	20352
62	492.0	20402
55	441.0	20452
46	376.0	20503
39	335.0	20554
37	319.0	20603
38	331.0	20653
0	376.0	20706
0	432.0	20753
0	510.0	20803
68	541.0	20853
69	541.0	20904
69	538.0	20954
70	539.0	21004
70	539.0	21055
71	540.0	21105
71	538.0	21155
72	538.0	21205
73	538.0	21256
73	538.0	21305
71	522.0	21355
63	459.0	21405
51	378.0	21456
44	327.0	21506
44	332.0	21556
50	376.0	21606
59	440.0	21656
65	483.0	21706
68	499.0	21757
71	516.0	21807
72	519.0	21857
72	520.0	21908
70	503.0	21958
65	461.0	22008
58	413.0	22059
48	346.0	22109
45	328.0	22159
50	362.0	22209
56	406.0	22259
60	439.0	22309
63	456.0	22360
62	450.0	22410
61	437.0	22461
56	404.0	22511
51	368.0	22561
44	324.0	22611
40	299.0	22662
42	320.0	22711
46	350.0	22761
52	391.0	22811
54	405.0	22861
52	397.0	22912
49	375.0	22962
43	337.0	23012
39	308.0	23062
33	275.0	23112
35	290.0	23162
42	342.0	23212
47	379.0	23262
51	412.0	23312
51	408.0	23362
47	387.0	23412
44	365.0	23462
42	352.0	23512
46	382.0	23562
53	433.0	23612
58	463.0	23663
59	470.0	23713
58	462.0	23763
53	427.0	23813
48	393.0	23864
43	359.0	23914
42	356.0	23964
46	381.0	24014
50	413.0	24064
54	443.0	24115
57	459.0	24165
59	475.0	24216
62	490.0	24266
63	496.0	24316
67	523.0	24366
69	534.0	24416
70	537.0	24466
72	541.0	24516
72	539.0	24567
72	538.0	24617
73	539.0	24667
73	535.0	24717
73	533.0	24767
74	530.0	24818
74	529.0	24869
74	523.0	24919
73	517.0	24970
73	511.0	25020
72	500.0	25071
72	501.0	25122
70	484.0	25172
66	456.0	25222
59	404.0	25272
0	340.0	25325
0	298.0	25372
0	365.0	25422
73	510.0	25472
78	541.0	25522
79	540.0	25572
80	544.0	25622
79	537.0	25672
75	505.0	25723
45	296.0	25773
32	208.0	25823
26	172.0	25873
27	189.0	25923
27	200.0	25974
26	198.0	26025
25	197.0	26076
29	234.0	26126
42	328.0	26176
51	392.0	26226
55	422.0	26276
50	390.0	26326
37	304.0	26376
29	252.0	26426
28	246.0	26476
34	298.0	26526
45	378.0	26576
55	445.0	26626
58	469.0	26677
56	450.0	26727
50	405.0	26777
40	340.0	26828
31	282.0	26877
29	269.0	26927
32	299.0	26977
40	358.0	27028
48	414.0	27077
51	432.0	27127
49	421.0	27178
47	405.0	27228
42	372.0	27278
45	392.0	27328
51	435.0	27378
57	477.0	27428
62	508.0	27479
65	527.0	27530
67	536.0	27580
68	542.0	27631
69	541.0	27681
69	541.0	27732
70	541.0	27782
70	541.0	27832
71	543.0	27882
72	543.0	27932
72	543.0	27982
73	541.0	28033
74	542.0	28083
74	542.0	28133
75	544.0	28183
76	546.0	28233
76	545.0	28283
77	546.0	28334
78	546.0	28385
78	544.0	28436
79	545.0	28487
79	542.0	28537
74	500.0	28587
50	335.0	28637
30	202.0	28688
30	204.0	28738
29	206.0	28789
27	198.0	28840
25	197.0	28890
25	203.0	28940
29	237.0	28991
42	336.0	29041
55	427.0	29091
60	461.0	29142
58	446.0	29192
48	376.0	29242
37	302.0	29292
27	238.0	29342
25	228.0	29392
31	279.0	29442
41	348.0	29493
51	421.0	29542
56	457.0	29592
56	457.0	29642
49	403.0	29692
36	314.0	29742
27	260.0	29792
26	254.0	29842
32	301.0	29892
42	379.0	29943
52	447.0	29992
54	463.0	30042
51	438.0	30092
41	370.0	30143
31	302.0	30193
30	296.0	30243
35	337.0	30293
46	418.0	30343
54	469.0	30393
56	486.0	30444
55	475.0	30495
51	447.0	30545
50	436.0	30596
53	456.0	30646
55	472.0	30696
60	499.0	30746
62	514.0	30796
63	515.0	30846
64	521.0	30896
65	522.0	30946
0	528.0	30999
0	534.0	31046
0	539.0	31096
70	541.0	31146
71	544.0	31196
71	543.0	31246
71	536.0	31297
71	536.0	31348
72	537.0	31398
72	535.0	31448
73	535.0	31499
74	536.0	31549
74	535.0	31599
75	536.0	31650
76	536.0	31699
76	534.0	31750
76	534.0	31801
77	532.0	31852
78	536.0	31903
78	536.0	31954
79	535.0	32005
80	537.0	32055
80	537.0	32106
80	534.0	32156
81	532.0	32206
82	535.0	32256
83	540.0	32306
84	540.0	32357
84	538.0	32408
74	464.0	32459
35	193.0	32511
57	357.0	32560
77	497.0	32611
83	535.0	32661
85	541.0	32712
85	538.0	32762
85	538.0	32812
86	538.0	32862
86	537.0	32912
87	538.0	32963
88	538.0	33013
88	538.0	33063
89	541.0	33114
90	541.0	33164
90	540.0	33215
91	540.0	33266
92	540.0	33316
92	539.0	33367
93	542.0	33417
94	543.0	33467
95	544.0	33518
94	535.0	33568
94	531.0	33618
