0	0	174.0	0
0	0	224.0	50
0	0	227.0	100
0	0	227.0	150
0	0	225.0	200
0	0	227.0	250
0	0	231.0	300
0	0	230.0	350
0	0	105.0	400
0	0	228.0	450
0	0	229.0	500
0	0	230.0	550
0	0	231.0	600
0	0	232.0	650
0	0	232.0	700
0	0	110.0	750
0	0	203.0	800
0	0	234.0	850
0	0	233.0	900
0	0	233.0	950
0	0	231.0	1000
0	0	231.0	1050
0	0	231.0	1100
0	0	106.0	1150
0	0	231.0	1200
0	0	232.0	1250
0	0	231.0	1300
0	0	231.0	1350
0	0	231.0	1400
0	0	231.0	1450
0	0	109.0	1500
0	0	109.0	1550
0	0	232.0	1600
0	0	233.0	1650
0	0	232.0	1700
0	0	233.0	1750
0	0	232.0	1800
0	0	232.0	1850
0	0	107.0	1900
0	0	233.0	1950
0	0	233.0	2000
0	0	232.0	2050
0	0	233.0	2100
0	0	232.0	2150
0	0	232.0	2200
0	0	112.0	2250
0	0	150.0	2300
0	0	233.0	2350
0	0	232.0	2400
0	0	233.0	2450
0	0	234.0	2500
0	0	233.0	2550
0	0	232.0	2600
0	0	108.0	2650
0	0	232.0	2700
0	0	232.0	2750
0	0	232.0	2800
0	0	232.0	2850
0	0	232.0	2900
0	0	232.0	2950
0	0	110.0	3000
0	0	108.0	3050
0	0	234.0	3100
0	0	234.0	3150
0	0	232.0	3200
0	0	233.0	3250
0	0	232.0	3300
0	0	232.0	3350
0	0	108.0	3400
0	0	233.0	3450
0	0	232.0	3500
0	0	233.0	3550
0	0	232.0	3600
0	0	232.0	3650
0	0	232.0	3700
0	0	116.0	3750
0	0	108.0	3800
0	0	234.0	3850
0	0	232.0	3900
0	0	233.0	3950
0	0	233.0	4000
0	0	233.0	4050
0	0	233.0	4100
0	0	107.0	4150
0	0	232.0	4200
0	0	233.0	4250
0	0	233.0	4300
0	0	234.0	4350
0	0	234.0	4400
0	0	234.0	4450
0	0	113.0	4500
0	0	108.0	4550
0	0	234.0	4600
0	0	234.0	4650
0	0	233.0	4700
0	0	231.0	4750
0	0	229.0	4800
0	0	234.0	4850
0	0	110.0	4900
0	0	236.0	4950
0	0	234.0	5000
0	0	237.0	5050
0	0	240.0	5100
0	0	236.0	5150
0	0	233.0	5200
0	0	108.0	5250
0	0	190.0	5300
0	0	236.0	5350
0	0	236.0	5400
0	0	236.0	5450
0	0	236.0	5500
0	0	238.0	5550
0	0	239.0	5600
0	0	111.0	5650
0	0	239.0	5700
0	0	240.0	5750
0	0	238.0	5800
0	0	238.0	5850
0	0	238.0	5900
0	0	237.0	5950
0	0	114.0	6000
0	0	109.0	6050
0	0	238.0	6100
0	0	237.0	6150
0	0	237.0	6200
0	0	237.0	6250
0	0	237.0	6300
0	0	236.0	6350
0	0	109.0	6400
0	0	236.0	6450
0	0	236.0	6500
0	0	237.0	6550
0	0	236.0	6600
0	0	236.0	6650
0	0	236.0	6700
0	0	116.0	6750
0	0	127.0	6800
0	0	236.0	6850
0	0	236.0	6900
0	0	234.0	6950
0	0	235.0	7000
0	0	235.0	7050
0	0	235.0	7100
0	0	108.0	7150
0	0	236.0	7200
0	0	236.0	7250
0	0	234.0	7300
0	0	236.0	7350
0	0	236.0	7400
0	0	235.0	7450
0	0	113.0	7500
0	0	109.0	7550
0	0	235.0	7600
0	0	235.0	7650
0	0	235.0	7700
0	0	236.0	7750
0	0	236.0	7800
0	0	236.0	7850
0	0	110.0	7900
0	0	235.0	7950
0	0	236.0	8000
0	0	236.0	8050
0	0	236.0	8100
0	0	236.0	8150
0	0	235.0	8200
0	0	119.0	8250
0	0	109.0	8300
0	0	234.0	8350
0	0	235.0	8400
0	0	234.0	8450
0	0	235.0	8500
0	0	236.0	8550
0	0	237.0	8600
0	0	109.0	8650
0	0	236.0	8700
0	0	236.0	8750
0	0	236.0	8800
0	0	235.0	8850
0	0	236.0	8900
0	0	236.0	8950
0	0	117.0	9000
0	0	109.0	9050
0	0	235.0	9100
0	0	235.0	9150
0	0	236.0	9200
0	0	235.0	9250
0	0	235.0	9300
0	0	236.0	9350
0	0	109.0	9400
0	0	234.0	9450
0	0	236.0	9500
0	0	235.0	9550
0	0	235.0	9600
0	0	235.0	9650
0	0	235.0	9700
0	0	125.0	9750
0	0	110.0	9800
0	0	235.0	9850
0	0	236.0	9900
0	0	235.0	9950
0	0	236.0	10000
0	0	236.0	10050
0	0	236.0	10100
0	0	110.0	10150
0	0	235.0	10200
0	0	234.0	10250
0	0	235.0	10300
0	0	234.0	10350
0	0	235.0	10400
0	0	236.0	10450
0	0	120.0	10500
0	0	110.0	10550
0	0	235.0	10600
0	0	236.0	10650
0	0	234.0	10700
0	0	235.0	10750
0	0	235.0	10800
0	0	235.0	10850
0	0	109.0	10900
0	0	233.0	10950
0	0	234.0	11000
0	0	233.0	11050
0	0	233.0	11100
0	0	233.0	11150
0	0	234.0	11200
0	0	111.0	11250
0	0	108.0	11300
0	0	233.0	11350
0	0	234.0	11400
0	0	234.0	11450
0	0	233.0	11500
0	0	233.0	11550
0	0	233.0	11600
0	0	109.0	11650
0	0	233.0	11700
0	0	233.0	11750
0	0	234.0	11800
0	0	233.0	11850
0	0	233.0	11900
0	0	233.0	11950
0	0	128.0	12000
0	0	110.0	12050
0	0	233.0	12100
0	0	233.0	12150
0	0	233.0	12200
0	0	233.0	12250
0	0	233.0	12300
0	0	233.0	12350
0	0	109.0	12400
0	0	230.0	12450
0	0	235.0	12500
0	0	233.0	12550
0	0	234.0	12600
0	0	234.0	12650
0	0	234.0	12700
0	0	165.0	12750
0	0	108.0	12800
0	0	233.0	12850
0	0	234.0	12900
0	0	233.0	12950
0	0	234.0	13000
0	0	233.0	13050
0	0	234.0	13100
0	0	111.0	13150
0	0	233.0	13200
0	0	234.0	13250
0	0	234.0	13300
0	0	234.0	13350
0	0	234.0	13400
0	0	234.0	13450
0	0	142.0	13500
0	0	109.0	13550
0	0	234.0	13600
0	0	233.0	13650
0	0	233.0	13700
0	0	233.0	13750
0	0	235.0	13800
0	0	233.0	13850
0	0	109.0	13900
0	0	223.0	13950
0	0	234.0	14000
0	0	234.0	14050
0	0	234.0	14100
0	0	234.0	14150
0	0	234.0	14200
0	0	225.0	14250
0	0	109.0	14300
0	0	234.0	14350
0	0	235.0	14400
0	0	238.0	14450
0	0	239.0	14500
0	0	240.0	14550
0	0	243.0	14600
0	0	109.0	14650
0	0	233.0	14700
0	0	233.0	14750
0	0	232.0	14800
0	0	232.0	14850
0	0	233.0	14900
0	0	232.0	14950
0	0	110.0	15000
0	0	109.0	15050
0	0	232.0	15100
0	0	233.0	15150
0	0	231.0	15200
0	0	230.0	15250
0	0	232.0	15300
0	0	232.0	15350
0	0	109.0	15400
0	0	232.0	15450
0	0	231.0	15500
0	0	231.0	15550
0	0	231.0	15600
0	0	231.0	15650
0	0	230.0	15700
0	0	114.0	15750
0	0	135.0	15800
0	0	231.0	15850
0	0	230.0	15900
0	0	231.0	15950
0	0	230.0	16000
0	0	230.0	16050
0	0	231.0	16100
0	0	108.0	16150
0	0	230.0	16200
0	0	230.0	16250
0	0	230.0	16300
0	0	230.0	16350
0	0	230.0	16400
0	0	230.0	16450
0	0	111.0	16500
0	0	189.0	16550
0	0	229.0	16600
0	0	229.0	16650
0	0	229.0	16700
0	0	230.0	16750
0	0	230.0	16800
0	0	230.0	16850
0	0	108.0	16900
0	0	230.0	16950
0	0	230.0	17000
0	0	232.0	17050
0	0	231.0	17100
0	0	229.0	17150
0	0	229.0	17200
0	0	117.0	17250
0	0	108.0	17300
0	0	230.0	17350
0	0	228.0	17400
0	0	230.0	17450
0	0	230.0	17500
0	0	230.0	17550
0	0	231.0	17600
0	0	108.0	17650
0	0	230.0	17700
0	0	229.0	17750
0	0	229.0	17800
0	0	230.0	17850
0	0	231.0	17900
0	0	231.0	17950
0	0	115.0	18000
0	0	111.0	18050
0	0	239.0	18100
0	0	241.0	18150
0	0	222.0	18200
0	0	223.0	18250
0	0	222.0	18300
0	0	106.0	18350
0	0	225.0	18400
0	0	226.0	18450
0	0	225.0	18500
0	0	225.0	18550
0	0	226.0	18600
0	0	224.0	18650
0	0	107.0	18700
0	0	105.0	18750
0	0	222.0	18800
0	0	224.0	18850
0	0	224.0	18900
0	0	224.0	18950
0	0	224.0	19000
0	0	222.0	19050
0	0	106.0	19100
0	0	223.0	19150
0	0	223.0	19200
0	0	223.0	19250
0	0	222.0	19300
0	0	222.0	19350
0	0	223.0	19400
0	0	120.0	19450
0	0	105.0	19500
0	0	224.0	19550
0	0	226.0	19600
0	0	228.0	19650
0	0	231.0	19700
0	0	231.0	19750
0	0	108.0	19800
0	0	107.0	19850
0	0	226.0	19900
0	0	226.0	19950
0	0	226.0	20000
0	0	227.0	20050
0	0	228.0	20100
0	0	227.0	20150
0	0	106.0	20200
0	0	226.0	20250
0	0	227.0	20300
0	0	227.0	20350
0	0	229.0	20400
0	0	230.0	20450
0	0	230.0	20500
0	0	116.0	20550
0	0	108.0	20600
0	0	229.0	20650
0	0	229.0	20700
0	0	229.0	20750
0	0	228.0	20800
0	0	228.0	20850
0	0	228.0	20900
0	0	108.0	20950
0	0	226.0	21000
0	0	227.0	21050
0	0	228.0	21100
0	0	228.0	21150
0	0	228.0	21200
0	0	231.0	21250
0	0	132.0	21300
0	0	113.0	21350
0	0	250.0	21400
0	0	256.0	21450
0	0	258.0	21500
0	0	264.0	21550
0	0	265.0	21600
0	0	265.0	21650
0	0	135.0	21700
0	0	271.0	21750
0	0	275.0	21800
0	0	279.0	21850
0	0	272.0	21900
0	0	268.0	21950
0	0	262.0	22000
0	0	142.0	22050
0	0	128.0	22100
0	0	252.0	22150
0	0	249.0	22200
0	0	250.0	22250
0	0	250.0	22300
0	0	255.0	22350
0	0	257.0	22400
0	0	123.0	22450
0	0	246.0	22500
0	0	243.0	22550
0	0	247.0	22600
0	0	253.0	22650
0	0	249.0	22700
0	0	236.0	22750
