40	40	502.0	0
40	40	500.0	50
39	40	490.0	100
37	40	471.0	150
39	40	488.0	200
40	40	502.0	250
38	40	484.0	300
37	40	476.0	350
36	40	469.0	400
36	40	468.0	450
36	40	468.0	500
37	40	473.0	550
39	40	489.0	600
39	40	495.0	650
41	40	508.0	700
41	40	508.0	750
40	40	500.0	800
38	40	482.0	850
36	40	463.0	900
35	40	457.0	950
36	40	467.0	1000
38	40	484.0	1050
40	40	500.0	1100
40	40	499.0	1150
39	40	491.0	1200
38	40	482.0	1250
37	40	477.0	1300
37	40	474.0	1350
35	40	458.0	1400
35	40	462.0	1450
35	40	456.0	1500
35	40	458.0	1550
36	40	465.0	1600
37	40	481.0	1650
39	40	496.0	1700
39	40	494.0	1750
38	40	489.0	1800
35	40	464.0	1850
33	40	446.0	1900
33	40	441.0	1950
35	40	465.0	2000
38	40	494.0	2050
40	40	512.0	2100
42	40	525.0	2150
41	40	520.0	2200
41	40	513.0	2250
39	40	499.0	2300
37	40	482.0	2350
37	40	481.0	2400
37	40	478.0	2450
37	40	485.0	2500
37	40	482.0	2550
37	40	478.0	2600
38	40	489.0	2650
38	40	488.0	2700
38	40	486.0	2750
36	40	469.0	2800
35	40	464.0	2850
34	40	454.0	2900
34	40	454.0	2950
36	40	470.0	3000
37	40	480.0	3050
38	40	496.0	3100
38	40	496.0	3150
38	40	488.0	3200
35	40	464.0	3250
33	40	447.0	3300
34	40	455.0	3350
34	40	461.0	3400
38	40	491.0	3450
39	40	505.0	3500
40	40	512.0	3550
38	40	495.0	3600
36	40	479.0	3650
34	40	460.0	3700
33	40	447.0	3750
34	40	457.0	3800
35	40	468.0	3850
37	40	490.0	3900
38	40	494.0	3950
38	40	497.0	4000
37	40	491.0	4050
36	40	482.0	4100
35	40	470.0	4150
33	40	450.0	4200
32	40	442.0	4250
31	40	436.0	4300
32	40	444.0	4350
34	40	466.0	4400
36	40	483.0	4450
38	40	503.0	4500
39	40	509.0	4550
38	40	497.0	4600
36	40	482.0	4650
34	40	461.0	4700
34	40	461.0	4750
36	40	479.0	4800
39	40	505.0	4850
41	40	528.0	4900
42	40	532.0	4950
42	40	537.0	5000
40	40	520.0	5050
39	40	505.0	5100
37	40	490.0	5150
36	40	482.0	5200
37	40	490.0	5250
39	40	509.0	5300
40	40	513.0	5350
39	40	508.0	5400
38	40	495.0	5450
37	40	488.0	5500
37	40	489.0	5550
36	40	478.0	5600
34	40	466.0	5650
32	40	450.0	5700
32	40	450.0	5750
33	40	457.0	5800
34	40	468.0	5850
37	40	488.0	5900
38	40	505.0	5950
38	40	500.0	6000
36	40	486.0	6050
34	40	463.0	6100
33	40	453.0	6150
34	40	465.0	6200
36	40	481.0	6250
39	40	516.0	6300
41	40	528.0	6350
42	40	539.0	6400
40	40	521.0	6450
39	40	510.0	6500
37	40	497.0	6550
35	40	478.0	6600
36	40	484.0	6650
37	40	496.0	6700
39	40	514.0	6750
39	40	508.0	6800
37	40	497.0	6850
38	40	499.0	6900
36	40	487.0	6950
35	40	474.0	7000
33	40	457.0	7050
32	40	447.0	7100
31	40	440.0	7150
30	40	434.0	7200
31	40	440.0	7250
31	40	445.0	7300
34	40	465.0	7350
36	40	491.0	7400
38	40	510.0	7450
37	40	496.0	7500
35	40	475.0	7550
32	40	455.0	7600
33	40	458.0	7650
34	40	469.0	7700
37	40	501.0	7750
39	40	513.0	7800
39	40	519.0	7850
38	40	508.0	7900
36	40	491.0	7950
35	40	481.0	8000
34	40	471.0	8050
35	40	483.0	8100
37	40	497.0	8150
39	40	517.0	8200
38	40	511.0	8250
37	40	496.0	8300
36	40	489.0	8350
35	40	482.0	8400
34	40	473.0	8450
33	40	466.0	8500
33	40	466.0	8550
33	40	467.0	8600
33	40	466.0	8650
34	40	473.0	8700
34	40	471.0	8750
36	40	488.0	8800
36	40	491.0	8850
36	40	493.0	8900
35	40	482.0	8950
33	40	464.0	9000
33	40	461.0	9050
33	40	466.0	9100
36	40	491.0	9150
38	40	509.0	9200
40	40	528.0	9250
41	40	533.0	9300
40	40	526.0	9350
38	40	511.0	9400
36	40	494.0	9450
36	40	493.0	9500
37	40	501.0	9550
39	40	519.0	9600
41	40	533.0	9650
40	40	531.0	9700
40	40	527.0	9750
39	40	520.0	9800
39	40	514.0	9850
38	40	506.0	9900
36	40	487.0	9950
34	40	471.0	10000
32	40	453.0	10050
33	40	460.0	10100
33	40	464.0	10150
35	40	485.0	10200
37	40	505.0	10250
39	40	519.0	10300
39	40	516.0	10350
37	40	497.0	10400
34	40	473.0	10450
33	40	468.0	10500
34	40	471.0	10550
37	40	501.0	10600
39	40	517.0	10650
39	40	520.0	10700
39	40	521.0	10750
37	40	500.0	10800
36	40	490.0	10850
34	40	473.0	10900
34	40	472.0	10950
35	40	488.0	11000
38	40	508.0	11050
39	40	516.0	11100
37	40	505.0	11150
38	40	510.0	11200
38	40	509.0	11250
38	40	509.0	11300
37	40	502.0	11350
36	40	489.0	11400
34	40	473.0	11450
32	40	455.0	11500
33	40	462.0	11550
33	40	464.0	11600
35	40	489.0	11650
37	40	504.0	11700
39	40	523.0	11750
38	40	515.0	11800
36	40	495.0	11850
34	40	471.0	11900
32	40	461.0	11950
33	40	467.0	12000
36	40	491.0	12050
39	40	521.0	12100
40	40	533.0	12150
40	40	530.0	12200
38	40	515.0	12250
37	40	506.0	12300
36	40	491.0	12350
35	40	489.0	12400
37	40	503.0	12450
38	40	513.0	12500
39	40	518.0	12550
37	40	505.0	12600
36	40	497.0	12650
36	40	493.0	12700
36	40	495.0	12750
37	40	499.0	12800
35	40	485.0	12850
34	40	478.0	12900
34	40	480.0	12950
37	40	503.0	13000
39	40	519.0	13050
41	40	537.0	13100
41	40	536.0	13150
39	40	520.0	13200
36	40	493.0	13250
33	40	466.0	13300
34	40	474.0	13350
35	40	483.0	13400
39	40	522.0	13450
41	40	540.0	13500
42	40	551.0	13550
42	40	549.0	13600
40	40	529.0	13650
38	40	514.0	13700
37	40	497.0	13750
35	40	487.0	13800
37	40	499.0	13850
38	40	513.0	13900
39	40	520.0	13950
39	40	515.0	14000
39	40	515.0	14050
38	40	509.0	14100
36	40	492.0	14150
34	40	472.0	14200
32	40	453.0	14250
31	40	443.0	14300
29	40	431.0	14350
31	40	450.0	14400
33	40	467.0	14450
37	40	500.0	14500
39	40	521.0	14550
40	40	530.0	14600
38	40	508.0	14650
34	40	477.0	14700
32	40	455.0	14750
33	40	470.0	14800
36	40	491.0	14850
40	40	532.0	14900
42	40	552.0	14950
43	40	558.0	15000
42	40	546.0	15050
39	40	520.0	15100
37	40	505.0	15150
36	40	495.0	15200
37	40	501.0	15250
39	40	522.0	15300
41	40	537.0	15350
41	40	535.0	15400
38	40	514.0	15450
37	40	499.0	15500
36	40	496.0	15550
36	40	495.0	15600
36	40	492.0	15650
34	40	473.0	15700
33	40	462.0	15750
32	40	456.0	15800
34	40	472.0	15850
35	40	481.0	15900
35	40	483.0	15950
46	40	579.0	16000
46	40	580.0	16050
45	40	576.0	16100
45	40	573.0	16150
44	40	565.0	16200
41	40	538.0	16250
35	40	477.0	16300
30	40	437.0	16350
28	40	416.0	16400
28	40	423.0	16450
32	40	455.0	16500
35	40	485.0	16550
39	40	515.0	16600
41	40	536.0	16650
42	40	542.0	16700
40	40	523.0	16750
36	40	494.0	16800
33	40	467.0	16850
32	40	457.0	16900
35	40	479.0	16950
36	40	492.0	17000
37	40	503.0	17050
36	40	490.0	17100
34	40	470.0	17150
31	40	451.0	17200
32	40	454.0	17250
35	40	484.0	17300
37	40	503.0	17350
37	40	501.0	17400
36	40	493.0	17450
33	40	471.0	17500
33	40	463.0	17550
34	40	472.0	17600
36	40	494.0	17650
38	40	509.0	17700
39	40	519.0	17750
39	40	523.0	17800
38	40	513.0	17850
37	40	501.0	17900
36	40	492.0	17950
35	40	488.0	18000
36	40	496.0	18050
38	40	513.0	18100
39	40	520.0	18150
37	40	504.0	18200
35	40	484.0	18250
34	40	475.0	18300
34	40	474.0	18350
34	40	474.0	18400
34	40	478.0	18450
34	40	478.0	18500
33	40	471.0	18550
33	40	470.0	18600
34	40	474.0	18650
34	40	481.0	18700
36	40	495.0	18750
38	40	512.0	18800
38	40	516.0	18850
37	40	505.0	18900
34	40	478.0	18950
33	40	472.0	19000
34	40	478.0	19050
36	40	498.0	19100
39	40	522.0	19150
40	40	533.0	19200
40	40	536.0	19250
39	40	523.0	19300
37	40	508.0	19350
36	40	492.0	19400
34	40	476.0	19450
35	40	485.0	19500
36	40	500.0	19550
38	40	515.0	19600
38	40	518.0	19650
38	40	511.0	19700
37	40	505.0	19750
37	40	500.0	19800
36	40	494.0	19850
33	40	471.0	19900
31	40	451.0	19950
30	40	441.0	20000
31	40	451.0	20050
33	40	466.0	20100
33	40	473.0	20150
35	40	490.0	20200
36	40	496.0	20250
36	40	494.0	20300
33	40	474.0	20350
31	40	451.0	20400
30	40	446.0	20450
31	40	458.0	20500
35	40	492.0	20550
38	40	520.0	20600
41	40	547.0	20650
41	40	548.0	20700
40	40	535.0	20750
36	40	499.0	20800
33	40	473.0	20850
32	40	462.0	20900
33	40	471.0	20950
36	40	503.0	21000
40	40	532.0	21050
41	40	541.0	21100
39	40	524.0	21150
37	40	510.0	21200
35	40	491.0	21250
33	40	473.0	21300
33	40	473.0	21350
33	40	473.0	21400
35	40	486.0	21450
35	40	490.0	21500
36	40	503.0	21550
37	40	504.0	21600
39	40	525.0	21650
39	40	530.0	21700
40	40	531.0	21750
39	40	523.0	21800
36	40	498.0	21850
34	40	480.0	21900
33	40	472.0	21950
35	40	492.0	22000
38	40	516.0	22050
40	40	533.0	22100
41	40	542.0	22150
39	40	526.0	22200
38	40	511.0	22250
35	40	485.0	22300
34	40	480.0	22350
36	40	496.0	22400
39	40	522.0	22450
41	40	540.0	22500
40	40	537.0	22550
39	40	528.0	22600
38	40	515.0	22650
38	40	513.0	22700
37	40	507.0	22750
36	40	498.0	22800
34	40	479.0	22850
32	40	462.0	22900
32	40	461.0	22950
32	40	464.0	23000
34	40	483.0	23050
37	40	507.0	23100
38	40	519.0	23150
38	40	516.0	23200
36	40	498.0	23250
33	40	468.0	23300
32	40	461.0	23350
33	40	469.0	23400
36	40	500.0	23450
39	40	524.0	23500
41	40	543.0	23550
41	40	542.0	23600
39	40	524.0	23650
38	40	514.0	23700
36	40	496.0	23750
35	40	488.0	23800
35	40	490.0	23850
37	40	505.0	23900
38	40	517.0	23950
37	40	504.0	24000
35	40	486.0	24050
33	40	471.0	24100
33	40	470.0	24150
33	40	466.0	24200
33	40	469.0	24250
33	40	468.0	24300
32	40	466.0	24350
33	40	473.0	24400
35	40	486.0	24450
36	40	499.0	24500
38	40	513.0	24550
38	40	513.0	24600
35	40	494.0	24650
33	40	473.0	24700
30	40	447.0	24750
31	40	454.0	24800
33	40	477.0	24850
38	40	518.0	24900
40	40	538.0	24950
42	40	552.0	25000
41	40	542.0	25050
38	40	515.0	25100
34	40	484.0	25150
32	40	463.0	25200
35	40	487.0	25250
39	40	524.0	25300
43	40	561.0	25350
44	40	568.0	25400
42	40	556.0	25450
39	40	528.0	25500
35	40	490.0	25550
33	40	471.0	25600
32	40	461.0	25650
31	40	457.0	25700
31	40	453.0	25750
32	40	467.0	25800
34	40	480.0	25850
37	40	509.0	25900
38	40	521.0	25950
41	40	542.0	26000
41	40	543.0	26050
40	40	531.0	26100
36	40	498.0	26150
33	40	474.0	26200
34	40	476.0	26250
36	40	501.0	26300
41	40	539.0	26350
43	40	558.0	26400
44	40	570.0	26450
43	40	564.0	26500
42	40	546.0	26550
40	40	532.0	26600
37	40	508.0	26650
37	40	503.0	26700
38	40	512.0	26750
39	40	522.0	26800
38	40	516.0	26850
36	40	493.0	26900
34	40	481.0	26950
34	40	475.0	27000
35	40	487.0	27050
35	40	488.0	27100
36	40	496.0	27150
34	40	478.0	27200
33	40	473.0	27250
33	40	465.0	27300
34	40	482.0	27350
35	40	487.0	27400
38	40	515.0	27450
38	40	517.0	27500
38	40	516.0	27550
36	40	497.0	27600
34	40	479.0	27650
34	40	482.0	27700
36	40	496.0	27750
39	40	526.0	27800
41	40	544.0	27850
43	40	562.0	27900
43	40	555.0	27950
41	40	540.0	28000
39	40	519.0	28050
36	40	491.0	28100
36	40	492.0	28150
37	40	502.0	28200
39	40	520.0	28250
39	40	525.0	28300
38	40	515.0	28350
38	40	508.0	28400
37	40	501.0	28450
37	40	501.0	28500
34	40	480.0	28550
32	40	462.0	28600
30	40	438.0	28650
31	40	448.0	28700
32	40	457.0	28750
35	40	485.0	28800
37	40	502.0	28850
39	40	523.0	28900
38	40	511.0	28950
35	40	488.0	29000
32	40	459.0	29050
31	40	447.0	29100
32	40	459.0	29150
35	40	490.0	29200
39	40	527.0	29250
43	40	559.0	29300
45	40	573.0	29350
44	40	571.0	29400
42	40	549.0	29450
39	40	519.0	29500
36	40	495.0	29550
36	40	491.0	29600
37	40	502.0	29650
40	40	528.0	29700
40	40	531.0	29750
40	40	529.0	29800
39	40	520.0	29850
37	40	507.0	29900
38	40	511.0	29950
37	40	505.0	30000
37	40	499.0	30050
35	40	486.0	30100
35	40	484.0	30150
35	40	487.0	30200
36	40	498.0	30250
38	40	508.0	30300
39	40	521.0	30350
39	40	518.0	30400
37	40	501.0	30450
35	40	480.0	30500
32	40	461.0	30550
34	40	474.0	30600
36	40	491.0	30650
40	40	528.0	30700
41	40	539.0	30750
42	40	548.0	30800
40	40	530.0	30850
36	40	497.0	30900
34	40	477.0	30950
32	40	460.0	31000
34	40	471.0	31050
37	40	499.0	31100
41	40	540.0	31150
42	40	544.0	31200
40	40	529.0	31250
38	40	515.0	31300
35	40	486.0	31350
35	40	486.0	31400
34	40	478.0	31450
34	40	476.0	31500
33	40	463.0	31550
33	40	470.0	31600
34	40	478.0	31650
37	40	500.0	31700
39	40	518.0	31750
40	40	528.0	31800
39	40	524.0	31850
37	40	504.0	31900
35	40	484.0	31950
34	40	473.0	32000
35	40	484.0	32050
37	40	503.0	32100
40	40	532.0	32150
41	40	543.0	32200
42	40	551.0	32250
40	40	532.0	32300
37	40	504.0	32350
35	40	481.0	32400
32	40	460.0	32450
34	40	473.0	32500
36	40	491.0	32550
40	40	525.0	32600
39	40	522.0	32650
36	40	494.0	32700
33	40	464.0	32750
32	40	454.0	32800
32	40	455.0	32850
32	40	455.0	32900
32	40	460.0	32950
31	40	454.0	33000
30	40	442.0	33050
35	40	491.0	33100
36	40	493.0	33150
42	40	550.0	33200
45	40	574.0	33250
45	40	576.0	33300
45	40	578.0	33350
45	40	576.0	33400
45	40	572.0	33450
45	40	571.0	33500
44	40	564.0	33550
43	40	557.0	33600
42	40	541.0	33650
40	40	524.0	33700
39	40	514.0	33750
38	40	508.0	33800
39	40	514.0	33850
40	40	524.0	33900
41	40	531.0	33950
40	40	521.0	34000
37	40	500.0	34050
35	40	483.0	34100
35	40	476.0	34150
36	40	487.0	34200
36	40	489.0	34250
36	40	485.0	34300
33	40	465.0	34350
32	40	456.0	34400
33	40	462.0	34450
35	40	479.0	34500
37	40	502.0	34550
38	40	512.0	34600
37	40	503.0	34650
35	40	483.0	34700
32	40	457.0	34750
33	40	462.0	34800
36	40	493.0	34850
40	40	524.0	34900
43	40	550.0	34950
44	40	560.0	35000
44	40	559.0	35050
42	40	546.0	35100
41	40	530.0	35150
39	40	520.0	35200
37	40	502.0	35250
37	40	501.0	35300
38	40	508.0	35350
39	40	513.0	35400
38	40	504.0	35450
37	40	494.0	35500
37	40	498.0	35550
37	40	499.0	35600
37	40	501.0	35650
37	40	495.0	35700
37	40	495.0	35750
34	40	470.0	35800
33	40	466.0	35850
34	40	471.0	35900
36	40	488.0	35950
38	40	505.0	36000
38	40	508.0	36050
38	40	504.0	36100
36	40	487.0	36150
34	40	473.0	36200
32	40	456.0	36250
35	40	477.0	36300
37	40	499.0	36350
40	40	526.0	36400
40	40	528.0	36450
40	40	526.0	36500
37	40	503.0	36550
35	40	482.0	36600
34	40	475.0	36650
34	40	472.0	36700
36	40	492.0	36750
38	40	510.0	36800
39	40	515.0	36850
37	40	499.0	36900
35	40	479.0	36950
34	40	474.0	37000
33	40	466.0	37050
34	40	472.0	37100
34	40	473.0	37150
35	40	484.0	37200
34	40	476.0	37250
35	40	486.0	37300
37	40	503.0	37350
39	40	516.0	37400
39	40	523.0	37450
39	40	516.0	37500
37	40	501.0	37550
35	40	481.0	37600
33	40	467.0	37650
34	40	473.0	37700
37	40	497.0	37750
40	40	524.0	37800
43	40	553.0	37850
43	40	557.0	37900
44	40	559.0	37950
42	40	540.0	38000
39	40	521.0	38050
38	40	504.0	38100
36	40	493.0	38150
37	40	502.0	38200
39	40	517.0	38250
39	40	520.0	38300
39	40	516.0	38350
38	40	506.0	38400
39	40	517.0	38450
39	40	516.0	38500
37	40	500.0	38550
35	40	479.0	38600
33	40	466.0	38650
32	40	458.0	38700
33	40	459.0	38750
34	40	476.0	38800
36	40	487.0	38850
38	40	506.0	38900
37	40	501.0	38950
35	40	485.0	39000
33	40	460.0	39050
32	40	453.0	39100
33	40	464.0	39150
36	40	496.0	39200
40	40	525.0	39250
43	40	553.0	39300
43	40	557.0	39350
43	40	558.0	39400
42	40	542.0	39450
40	40	527.0	39500
39	40	514.0	39550
37	40	502.0	39600
37	40	502.0	39650
38	40	510.0	39700
38	40	510.0	39750
38	40	504.0	39800
36	40	487.0	39850
37	40	494.0	39900
36	40	489.0	39950
36	40	487.0	40000
36	40	488.0	40050
34	40	473.0	40100
33	40	461.0	40150
33	40	465.0	40200
35	40	478.0	40250
35	40	483.0	40300
38	40	506.0	40350
38	40	506.0	40400
38	40	509.0	40450
34	40	473.0	40500
32	40	453.0	40550
30	40	440.0	40600
33	40	465.0	40650
36	40	496.0	40700
40	40	532.0	40750
41	40	539.0	40800
42	40	543.0	40850
40	40	523.0	40900
37	40	503.0	40950
36	40	487.0	41000
33	40	464.0	41050
34	40	476.0	41100
35	40	487.0	41150
39	40	515.0	41200
40	40	525.0	41250
40	40	526.0	41300
38	40	511.0	41350
36	40	489.0	41400
35	40	478.0	41450
32	40	458.0	41500
31	40	445.0	41550
30	40	439.0	41600
31	40	448.0	41650
32	40	459.0	41700
34	40	475.0	41750
35	40	487.0	41800
37	40	505.0	41850
38	40	513.0	41900
37	40	500.0	41950
33	40	470.0	42000
31	40	451.0	42050
32	40	454.0	42100
34	40	481.0	42150
39	40	522.0	42200
42	40	550.0	42250
43	40	559.0	42300
44	40	562.0	42350
42	40	546.0	42400
39	40	523.0	42450
37	40	502.0	42500
35	40	488.0	42550
37	40	502.0	42600
39	40	522.0	42650
41	40	536.0	42700
40	40	531.0	42750
39	40	521.0	42800
39	40	520.0	42850
39	40	517.0	42900
37	40	500.0	42950
35	40	483.0	43000
33	40	467.0	43050
32	40	454.0	43100
33	40	461.0	43150
34	40	474.0	43200
35	40	482.0	43250
38	40	508.0	43300
38	40	513.0	43350
38	40	508.0	43400
35	40	482.0	43450
32	40	455.0	43500
31	40	450.0	43550
34	40	474.0	43600
36	40	497.0	43650
40	40	533.0	43700
41	40	543.0	43750
42	40	549.0	43800
40	40	529.0	43850
37	40	504.0	43900
35	40	486.0	43950
34	40	472.0	44000
35	40	488.0	44050
38	40	515.0	44100
41	40	539.0	44150
42	40	547.0	44200
41	40	535.0	44250
39	40	520.0	44300
38	40	512.0	44350
37	40	500.0	44400
35	40	480.0	44450
33	40	464.0	44500
32	40	453.0	44550
32	40	458.0	44600
33	40	469.0	44650
35	40	483.0	44700
37	40	502.0	44750
38	40	514.0	44800
37	40	504.0	44850
35	40	482.0	44900
32	40	454.0	44950
31	40	449.0	45000
33	40	468.0	45050
37	40	505.0	45100
41	40	541.0	45150
43	40	559.0	45200
43	40	557.0	45250
41	40	540.0	45300
38	40	510.0	45350
35	40	485.0	45400
33	40	464.0	45450
33	40	470.0	45500
36	40	494.0	45550
39	40	521.0	45600
40	40	530.0	45650
39	40	518.0	45700
37	40	505.0	45750
36	40	493.0	45800
36	40	490.0	45850
35	40	481.0	45900
34	40	471.0	45950
33	40	466.0	46000
33	40	467.0	46050
35	40	487.0	46100
37	40	502.0	46150
39	40	523.0	46200
40	40	531.0	46250
39	40	523.0	46300
37	40	504.0	46350
33	40	465.0	46400
31	40	449.0	46450
32	40	462.0	46500
37	40	499.0	46550
41	40	537.0	46600
44	40	562.0	46650
44	40	567.0	46700
44	40	561.0	46750
41	40	534.0	46800
38	40	509.0	46850
35	40	487.0	46900
35	40	482.0	46950
37	40	505.0	47000
41	40	533.0	47050
41	40	539.0	47100
40	40	526.0	47150
38	40	505.0	47200
35	40	485.0	47250
34	40	471.0	47300
33	40	464.0	47350
33	40	463.0	47400
33	40	465.0	47450
33	40	465.0	47500
34	40	476.0	47550
34	40	476.0	47600
36	40	495.0	47650
38	40	508.0	47700
38	40	508.0	47750
35	40	487.0	47800
33	40	463.0	47850
31	40	451.0	47900
34	40	478.0	47950
37	40	507.0	48000
42	40	547.0	48050
45	40	571.0	48100
45	40	571.0	48150
43	40	554.0	48200
38	40	513.0	48250
35	40	485.0	48300
34	40	475.0	48350
35	40	483.0	48400
39	40	516.0	48450
42	40	550.0	48500
44	40	562.0	48550
42	40	548.0	48600
40	40	528.0	48650
39	40	515.0	48700
36	40	493.0	48750
34	40	477.0	48800
34	40	477.0	48850
36	40	493.0	48900
36	40	492.0	48950
37	40	497.0	49000
36	40	491.0	49050
36	40	493.0	49100
37	40	497.0	49150
36	40	493.0	49200
35	40	480.0	49250
33	40	461.0	49300
31	40	449.0	49350
32	40	460.0	49400
35	40	483.0	49450
39	40	522.0	49500
41	40	542.0	49550
42	40	549.0	49600
41	40	533.0	49650
38	40	508.0	49700
45	40	572.0	49750
44	40	567.0	49800
44	40	563.0	49850
44	40	559.0	49900
43	40	549.0	49950
40	40	522.0	50000
36	40	489.0	50050
33	40	465.0	50100
33	40	458.0	50150
33	40	465.0	50200
35	40	484.0	50250
36	40	494.0	50300
37	40	495.0	50350
37	40	496.0	50400
37	40	501.0	50450
37	40	500.0	50500
39	40	516.0	50550
40	40	523.0	50600
40	40	522.0	50650
38	40	504.0	50700
36	40	485.0	50750
36	40	486.0	50800
35	40	484.0	50850
37	40	501.0	50900
40	40	526.0	50950
42	40	542.0	51000
43	40	551.0	51050
41	40	535.0	51100
40	40	525.0	51150
38	40	507.0	51200
37	40	494.0	51250
37	40	497.0	51300
37	40	498.0	51350
36	40	492.0	51400
37	40	493.0	51450
37	40	493.0	51500
37	40	498.0	51550
38	40	503.0	51600
36	40	490.0	51650
35	40	480.0	51700
33	40	466.0	51750
33	40	460.0	51800
34	40	475.0	51850
36	40	489.0	51900
37	40	501.0	51950
38	40	504.0	52000
36	40	489.0	52050
34	40	472.0	52100
31	40	447.0	52150
31	40	445.0	52200
35	40	480.0	52250
39	40	519.0	52300
43	40	552.0	52350
45	40	570.0	52400
45	40	570.0	52450
44	40	559.0	52500
41	40	537.0	52550
38	40	509.0	52600
36	40	486.0	52650
36	40	487.0	52700
37	40	496.0	52750
38	40	503.0	52800
37	40	494.0	52850
36	40	488.0	52900
35	40	484.0	52950
36	40	493.0	53000
37	40	502.0	53050
38	40	506.0	53100
37	40	502.0	53150
36	40	488.0	53200
34	40	475.0	53250
34	40	471.0	53300
34	40	470.0	53350
35	40	480.0	53400
36	40	492.0	53450
37	40	499.0	53500
37	40	498.0	53550
34	40	476.0	53600
33	40	466.0	53650
35	40	480.0	53700
37	40	502.0	53750
39	40	519.0	53800
41	40	534.0	53850
40	40	527.0	53900
38	40	507.0	53950
35	40	477.0	54000
32	40	457.0	54050
32	40	452.0	54100
33	40	467.0	54150
37	40	503.0	54200
40	40	526.0	54250
40	40	527.0	54300
38	40	508.0	54350
36	40	495.0	54400
34	40	469.0	54450
32	40	459.0	54500
33	40	461.0	54550
33	40	467.0	54600
35	40	480.0	54650
35	40	481.0	54700
37	40	500.0	54750
37	40	503.0	54800
39	40	517.0	54850
39	40	516.0	54900
38	40	506.0	54950
36	40	492.0	55000
34	40	475.0	55050
33	40	465.0	55100
36	40	495.0	55150
39	40	523.0	55200
43	40	551.0	55250
45	40	569.0	55300
45	40	568.0	55350
43	40	556.0	55400
40	40	525.0	55450
38	40	504.0	55500
36	40	492.0	55550
36	40	491.0	55600
38	40	510.0	55650
39	40	521.0	55700
39	40	514.0	55750
38	40	509.0	55800
38	40	506.0	55850
37	40	500.0	55900
37	40	495.0	55950
35	40	480.0	56000
33	40	463.0	56050
32	40	456.0	56100
33	40	463.0	56150
35	40	485.0	56200
37	40	502.0	56250
39	40	521.0	56300
40	40	529.0	56350
39	40	520.0	56400
37	40	503.0	56450
35	40	480.0	56500
34	40	470.0	56550
35	40	479.0	56600
38	40	510.0	56650
41	40	540.0	56700
43	40	557.0	56750
44	40	558.0	56800
43	40	551.0	56850
41	40	532.0	56900
38	40	503.0	56950
35	40	483.0	57000
36	40	485.0	57050
38	40	506.0	57100
40	40	529.0	57150
40	40	524.0	57200
39	40	516.0	57250
39	40	517.0	57300
37	40	501.0	57350
37	40	495.0	57400
34	40	466.0	57450
33	40	460.0	57500
31	40	441.0	57550
31	40	444.0	57600
32	40	451.0	57650
34	40	474.0	57700
37	40	496.0	57750
39	40	521.0	57800
39	40	518.0	57850
38	40	509.0	57900
34	40	471.0	57950
32	40	453.0	58000
32	40	453.0	58050
34	40	470.0	58100
38	40	511.0	58150
41	40	535.0	58200
42	40	546.0	58250
42	40	548.0	58300
40	40	527.0	58350
37	40	502.0	58400
35	40	480.0	58450
35	40	477.0	58500
36	40	492.0	58550
38	40	512.0	58600
40	40	527.0	58650
38	40	512.0	58700
38	40	504.0	58750
36	40	491.0	58800
35	40	482.0	58850
34	40	469.0	58900
33	40	460.0	58950
32	40	458.0	59000
32	40	458.0	59050
33	40	469.0	59100
36	40	489.0	59150
37	40	502.0	59200
40	40	524.0	59250
39	40	522.0	59300
37	40	505.0	59350
36	40	487.0	59400
32	40	460.0	59450
34	40	470.0	59500
35	40	482.0	59550
39	40	522.0	59600
42	40	546.0	59650
44	40	562.0	59700
44	40	559.0	59750
41	40	539.0	59800
39	40	513.0	59850
36	40	490.0	59900
36	40	486.0	59950
38	40	504.0	60000
40	40	527.0	60050
41	40	535.0	60100
41	40	532.0	60150
40	40	522.0	60200
38	40	505.0	60250
36	40	487.0	60300
34	40	474.0	60350
33	40	462.0	60400
33	40	461.0	60450
33	40	460.0	60500
34	40	470.0	60550
35	40	486.0	60600
37	40	499.0	60650
39	40	514.0	60700
38	40	510.0	60750
36	40	494.0	60800
34	40	472.0	60850
31	40	450.0	60900
32	40	458.0	60950
35	40	484.0	61000
39	40	519.0	61050
41	40	537.0	61100
43	40	554.0	61150
42	40	542.0	61200
39	40	522.0	61250
35	40	484.0	61300
33	40	464.0	61350
34	40	474.0	61400
37	40	496.0	61450
41	40	538.0	61500
43	40	551.0	61550
42	40	544.0	61600
40	40	523.0	61650
37	40	502.0	61700
36	40	489.0	61750
34	40	473.0	61800
34	40	469.0	61850
33	40	461.0	61900
33	40	468.0	61950
34	40	473.0	62000
37	40	497.0	62050
38	40	510.0	62100
40	40	525.0	62150
39	40	520.0	62200
37	40	500.0	62250
35	40	478.0	62300
32	40	459.0	62350
32	40	460.0	62400
35	40	483.0	62450
39	40	520.0	62500
42	40	544.0	62550
43	40	557.0	62600
43	40	551.0	62650
41	40	532.0	62700
36	40	492.0	62750
33	40	466.0	62800
32	40	459.0	62850
34	40	473.0	62900
39	40	514.0	62950
42	40	544.0	63000
42	40	547.0	63050
40	40	528.0	63100
38	40	510.0	63150
36	40	487.0	63200
34	40	468.0	63250
33	40	460.0	63300
33	40	460.0	63350
34	40	477.0	63400
36	40	490.0	63450
39	40	517.0	63500
39	40	522.0	63550
41	40	534.0	63600
40	40	524.0	63650
38	40	507.0	63700
36	40	490.0	63750
34	40	474.0	63800
35	40	482.0	63850
37	40	498.0	63900
40	40	528.0	63950
42	40	546.0	64000
44	40	560.0	64050
43	40	555.0	64100
41	40	532.0	64150
39	40	513.0	64200
35	40	481.0	64250
35	40	478.0	64300
36	40	491.0	64350
40	40	529.0	64400
42	40	539.0	64450
40	40	528.0	64500
38	40	504.0	64550
36	40	484.0	64600
34	40	468.0	64650
32	40	457.0	64700
32	40	456.0	64750
33	40	459.0	64800
34	40	469.0	64850
34	40	473.0	64900
37	40	495.0	64950
37	40	502.0	65000
40	40	523.0	65050
39	40	520.0	65100
39	40	513.0	65150
37	40	496.0	65200
35	40	478.0	65250
36	40	488.0	65300
38	40	504.0	65350
41	40	537.0	65400
42	40	545.0	65450
44	40	560.0	65500
43	40	553.0	65550
41	40	534.0	65600
40	40	524.0	65650
38	40	508.0	65700
38	40	509.0	65750
41	40	529.0	65800
42	40	545.0	65850
43	40	547.0	65900
41	40	533.0	65950
40	40	526.0	66000
38	40	505.0	66050
37	40	496.0	66100
36	40	490.0	66150
35	40	480.0	66200
35	40	479.0	66250
35	40	480.0	66300
37	40	499.0	66350
38	40	503.0	66400
39	40	513.0	66450
37	40	494.0	66500
35	40	475.0	66550
33	40	456.0	66600
32	40	449.0	66650
31	40	443.0	66700
34	40	467.0	66750
37	40	500.0	66800
41	40	533.0	66850
43	40	548.0	66900
43	40	554.0	66950
42	40	542.0	67000
40	40	523.0	67050
39	40	514.0	67100
