23	40	304.0	0
22	40	303.0	50
24	40	320.0	100
45	40	466.0	150
55	40	530.0	200
57	40	540.0	250
56	40	533.0	300
51	40	497.0	350
41	40	419.0	400
28	40	334.0	450
25	40	315.0	500
31	40	359.0	550
44	40	449.0	600
53	40	510.0	650
55	40	526.0	700
52	40	497.0	750
40	40	412.0	800
23	40	297.0	850
18	40	265.0	900
25	40	321.0	950
42	40	439.0	1000
51	40	503.0	1050
51	40	501.0	1100
52	40	506.0	1150
49	40	477.0	1200
39	40	412.0	1250
29	40	343.0	1300
25	40	314.0	1350
32	40	365.0	1400
43	40	444.0	1450
50	40	493.0	1500
52	40	507.0	1550
51	40	491.0	1600
47	40	464.0	1650
43	40	435.0	1700
42	40	424.0	1750
43	40	437.0	1800
48	40	468.0	1850
52	40	496.0	1900
54	40	505.0	1950
53	40	493.0	2000
49	40	467.0	2050
45	40	437.0	2100
41	40	406.0	2150
39	40	392.0	2200
39	40	393.0	2250
45	40	437.0	2300
51	40	477.0	2350
55	40	502.0	2400
57	40	516.0	2450
58	40	520.0	2500
59	40	521.0	2550
59	40	516.0	2600
59	40	512.0	2650
58	40	502.0	2700
56	40	489.0	2750
54	40	471.0	2800
51	40	450.0	2850
49	40	437.0	2900
50	40	442.0	2950
55	40	475.0	3000
60	40	508.0	3050
64	40	532.0	3100
66	40	539.0	3150
67	40	546.0	3200
68	40	548.0	3250
69	40	549.0	3300
70	40	551.0	3350
71	40	553.0	3400
70	40	545.0	3450
67	40	519.0	3500
61	40	473.0	3550
54	40	424.0	3600
54	40	422.0	3650
53	40	415.0	3700
55	40	430.0	3750
58	40	450.0	3800
62	40	479.0	3850
65	40	496.0	3900
65	40	490.0	3950
62	40	467.0	4000
56	40	426.0	4050
47	40	367.0	4100
42	40	334.0	4150
40	40	320.0	4200
39	40	317.0	4250
42	40	342.0	4300
47	40	380.0	4350
51	40	410.0	4400
49	40	398.0	4450
42	40	349.0	4500
37	40	316.0	4550
35	40	305.0	4600
35	40	308.0	4650
37	40	324.0	4700
42	40	362.0	4750
45	40	390.0	4800
50	40	425.0	4850
55	40	454.0	4900
55	40	454.0	4950
54	40	451.0	5000
55	40	456.0	5050
55	40	453.0	5100
53	40	435.0	5150
48	40	402.0	5200
47	40	396.0	5250
48	40	404.0	5300
51	40	428.0	5350
57	40	468.0	5400
63	40	504.0	5450
67	40	529.0	5500
70	40	548.0	5550
73	40	564.0	5600
75	40	570.0	5650
76	40	576.0	5700
78	40	581.0	5750
78	40	577.0	5800
77	40	567.0	5850
76	40	550.0	5900
70	40	506.0	5950
62	40	452.0	6000
58	40	418.0	6050
54	40	394.0	6100
55	40	404.0	6150
59	40	426.0	6200
65	40	470.0	6250
69	40	496.0	6300
71	40	510.0	6350
71	40	503.0	6400
66	40	469.0	6450
59	40	416.0	6500
49	40	350.0	6550
44	40	319.0	6600
43	40	310.0	6650
43	40	316.0	6700
48	40	351.0	6750
53	40	391.0	6800
54	40	402.0	6850
50	40	373.0	6900
44	40	332.0	6950
38	40	297.0	7000
36	40	286.0	7050
36	40	286.0	7100
37	40	298.0	7150
38	40	312.0	7200
39	40	320.0	7250
42	40	346.0	7300
43	40	353.0	7350
42	40	348.0	7400
40	40	338.0	7450
37	40	319.0	7500
35	40	310.0	7550
38	40	337.0	7600
44	40	377.0	7650
52	40	440.0	7700
57	40	469.0	7750
55	40	455.0	7800
48	40	407.0	7850
38	40	340.0	7900
34	40	312.0	7950
33	40	307.0	8000
38	40	350.0	8050
49	40	425.0	8100
61	40	511.0	8150
70	40	568.0	8200
73	40	585.0	8250
75	40	589.0	8300
75	40	588.0	8350
77	40	593.0	8400
79	40	600.0	8450
80	40	603.0	8500
81	40	605.0	8550
82	40	605.0	8600
83	40	604.0	8650
83	40	600.0	8700
83	40	591.0	8750
81	40	571.0	8800
76	40	535.0	8850
71	40	490.0	8900
70	40	483.0	8950
69	40	474.0	9000
67	40	456.0	9050
62	40	426.0	9100
55	40	378.0	9150
49	40	337.0	9200
46	40	315.0	9250
47	40	327.0	9300
51	40	355.0	9350
55	40	391.0	9400
59	40	418.0	9450
56	40	393.0	9500
47	40	336.0	9550
40	40	291.0	9600
37	40	274.0	9650
38	40	287.0	9700
43	40	325.0	9750
50	40	373.0	9800
55	40	410.0	9850
53	40	398.0	9900
47	40	358.0	9950
39	40	306.0	10000
35	40	282.0	10050
35	40	286.0	10100
38	40	308.0	10150
42	40	342.0	10200
45	40	369.0	10250
46	40	378.0	10300
48	40	387.0	10350
45	40	369.0	10400
38	40	323.0	10450
36	40	312.0	10500
39	40	336.0	10550
42	40	362.0	10600
50	40	418.0	10650
56	40	458.0	10700
58	40	471.0	10750
58	40	472.0	10800
58	40	471.0	10850
59	40	471.0	10900
59	40	476.0	10950
60	40	477.0	11000
62	40	488.0	11050
65	40	507.0	11100
68	40	526.0	11150
70	40	536.0	11200
69	40	526.0	11250
71	40	534.0	11300
75	40	557.0	11350
76	40	562.0	11400
78	40	567.0	11450
